K=4 D=0.702475381783 He=0.529487179487 thetaW=0.00117549063316 S=5 Pi=0.0015
thetaW=0.000705294379894 D=0.657235804019 S=3 He=0.528205128205 Pi=0.000917948717949 K=3
Pi=0.000605128205128 S=2 D=0.541854225162 thetaW=0.000470196253263 He=0.548717948718 K=3
He=0.275641025641 K=4 thetaW=0.000705294379894 D=-1.2843135963 Pi=0.000289743589744 S=3
He=0.779487179487 Pi=0.00363846153846 K=6 S=11 thetaW=0.00258607939295 D=1.23483791734
thetaW=0.000235098126631 D=1.67883162506 He=0.511538461538 K=2 Pi=0.000511538461538 S=1
Pi=9.74358974359e-05 D=-0.836027434374 thetaW=0.000235098126631 K=2 S=1 He=0.0974358974359
K=6 S=5 thetaW=0.00117549063316 D=-1.30683873495 Pi=0.000571794871795 He=0.501282051282
D=0.344210492539 S=3 thetaW=0.000705294379894 He=0.652564102564 K=4 Pi=0.000816666666667
D=-0.946036037271 He=0.229487179487 S=2 Pi=0.000234615384615 thetaW=0.000470196253263 K=3
He=0.646153846154 K=6 D=-0.804510205765 Pi=0.000803846153846 thetaW=0.00117549063316 S=5
K=2 D=-0.306583421861 He=0.184615384615 S=1 thetaW=0.000235098126631 Pi=0.000184615384615
K=3 thetaW=0.000470196253263 S=2 D=0.0424585315427 He=0.465384615385 Pi=0.000480769230769
K=4 thetaW=0.00211588313968 He=0.560256410256 Pi=0.00343205128205 S=9 D=1.8178476058
thetaW=0.00141058875979 D=-0.931954777427 Pi=0.000917948717949 He=0.651282051282 K=7 S=6
He=0.738461538462 Pi=0.00290641025641 K=7 S=12 thetaW=0.00282117751958 D=0.0930494146406
He=0.694871794872 S=6 K=5 thetaW=0.00141058875979 D=0.984054550751 Pi=0.00193076923077
thetaW=0.00164568688642 K=5 D=0.130211754343 S=7 He=0.583333333333 Pi=0.00172307692308
He=0.707692307692 S=6 K=7 D=-0.221333596216 thetaW=0.00141058875979 Pi=0.00129358974359
K=4 S=3 He=0.716666666667 D=0.986110498358 Pi=0.00102435897436 thetaW=0.000705294379894
He=0.271794871795 thetaW=0.000705294379894 Pi=0.00045641025641 K=3 D=-0.769208653357 S=3
thetaW=0.000940392506526 He=0.553846153846 D=-0.795820345415 K=5 Pi=0.000626923076923 S=4
D=0.620255311224 thetaW=0.00141058875979 Pi=0.00173846153846 He=0.617948717949 S=6 K=4
S=4 Pi=0.00152948717949 thetaW=0.000940392506526 K=4 He=0.70641025641 D=1.49556378341
He=0.74358974359 S=7 K=8 thetaW=0.00164568688642 Pi=0.00106794871795 D=-0.972066996182
thetaW=0.000705294379894 D=-0.194668524692 S=3 He=0.337179487179 Pi=0.000642307692308 K=3
D=-0.89204137052 S=3 Pi=0.000416666666667 He=0.387179487179 K=4 thetaW=0.000705294379894
thetaW=0.00141058875979 K=6 He=0.694871794872 D=-0.104917839568 Pi=0.00135512820513 S=6
S=0 Pi=0 He=0.0 thetaW=0 K=1
K=1 He=0.0 thetaW=0 S=0 Pi=0
K=4 Pi=0.00236794871795 S=9 thetaW=0.00211588313968 He=0.424358974359 D=0.348144582144
D=1.26715165356 thetaW=0.00211588313968 He=0.703846153846 Pi=0.00303333333333 S=9 K=5
K=4 S=3 He=0.660256410256 D=0.459118518272 Pi=0.000853846153846 thetaW=0.000705294379894
Pi=0.00153974358974 He=0.539743589744 K=3 D=1.52160223942 thetaW=0.000940392506526 S=4
S=8 Pi=0.00182820512821 thetaW=0.00188078501305 He=0.766666666667 K=7 D=-0.0797365466238
He=0.811538461538 D=0.862788137575 K=6 thetaW=0.00141058875979 S=6 Pi=0.00186666666667
K=3 D=1.394232107 S=3 Pi=0.00115641025641 He=0.578205128205 thetaW=0.000705294379894
thetaW=0.000705294379894 He=0.521794871795 S=3 Pi=0.000592307692308 K=3 D=-0.349200007574
Pi=0.000670512820513 K=3 thetaW=0.000470196253263 S=2 D=0.804423095003 He=0.585897435897
K=2 He=0.05 S=1 thetaW=0.000235098126631 Pi=5e-05 D=-1.12410726471
thetaW=0.000470196253263 S=2 K=3 Pi=0.000564102564103 He=0.528205128205 D=0.37710513036
thetaW=0.000705294379894 D=2.27783520143 Pi=0.00144230769231 K=2 S=3 He=0.480769230769
Pi=0.00106666666667 S=5 D=-0.23557457879 thetaW=0.00117549063316 He=0.65641025641 K=5
Pi=0.000601282051282 K=4 D=-0.32146358757 thetaW=0.000705294379894 He=0.541025641026 S=3
He=0.8 S=9 thetaW=0.00211588313968 Pi=0.00237948717949 D=0.364081120954 K=8
thetaW=0.000940392506526 Pi=0.0011 D=0.405203438015 He=0.748717948718 K=5 S=4
thetaW=0.000470196253263 He=0.0987179487179 K=3 Pi=0.0001 S=2 D=-1.48661900459
thetaW=0.000470196253263 K=3 He=0.548717948718 S=2 Pi=0.000589743589744 D=0.480073314611
thetaW=0.000705294379894 S=3 K=3 D=-0.479957416167 He=0.483333333333 Pi=0.00055
thetaW=0.000940392506526 Pi=0.00186666666667 He=0.466666666667 D=2.35157802471 S=4 K=2
thetaW=0.00188078501305 D=0.649342231253 He=0.741025641026 Pi=0.00230897435897 S=8 K=7
He=0.421794871795 S=2 D=-0.045064425071 K=3 Pi=0.000458974358974 thetaW=0.000470196253263
D=0.196895789941 He=0.553846153846 S=4 K=5 thetaW=0.000940392506526 Pi=0.00101794871795
K=6 thetaW=0.00117549063316 Pi=0.000858974358974 S=5 D=-0.685172488887 He=0.607692307692
He=0.528205128205 K=3 thetaW=0.000705294379894 S=3 Pi=0.000989743589744 D=0.879127164055
D=-0.98500960382 K=7 S=7 He=0.612820512821 thetaW=0.00164568688642 Pi=0.00106025641026
He=0.557692307692 thetaW=0.00117549063316 S=5 D=-1.14032099047 Pi=0.000648717948718 K=6
K=2 He=0.184615384615 S=1 thetaW=0.000235098126631 D=-0.306583421861 Pi=0.000184615384615
thetaW=0.00235098126631 S=10 Pi=0.00170384615385 He=0.741025641026 D=-0.820953136411 K=8
Pi=0.000705128205128 D=-0.000513584660193 thetaW=0.000705294379894 S=3 K=4 He=0.598717948718
He=0.8 D=-0.145897208606 S=7 K=7 Pi=0.00155897435897 thetaW=0.00164568688642
He=0.420512820513 K=4 S=3 D=-0.769208653357 thetaW=0.000705294379894 Pi=0.00045641025641
Pi=0.00133205128205 thetaW=0.00141058875979 D=-0.148573748311 S=6 He=0.414102564103 K=4
D=-0.733979012393 Pi=0.000651282051282 S=4 He=0.189743589744 K=3 thetaW=0.000940392506526
He=0.576923076923 thetaW=0.00141058875979 Pi=0.00177692307692 D=0.693015159129 K=5 S=6
He=0.851282051282 K=7 S=12 Pi=0.00375769230769 thetaW=0.00282117751958 D=1.02240237817
S=4 D=0.509357262053 thetaW=0.000940392506526 Pi=0.00114102564103 He=0.617948717949 K=5
thetaW=0.000470196253263 Pi=0.000192307692308 K=3 He=0.188461538462 D=-1.11593354129 S=2
He=0.442307692308 D=-0.535430256176 S=3 K=4 Pi=0.000532051282051 thetaW=0.000705294379894
He=0.521794871795 S=3 K=4 Pi=0.000576923076923 D=-0.396748156153 thetaW=0.000705294379894
S=3 K=4 thetaW=0.000705294379894 D=-0.999024704823 Pi=0.000382051282051 He=0.355128205128
He=0.05 K=2 S=1 thetaW=0.000235098126631 Pi=5e-05 D=-1.12410726471
D=1.55668828131 thetaW=0.000705294379894 S=3 K=3 He=0.562820512821 Pi=0.00120897435897
thetaW=0.00117549063316 He=0.701282051282 Pi=0.0014141025641 D=0.516530567113 S=5 K=6
S=3 He=0.442307692308 thetaW=0.000705294379894 D=-0.61863951619 K=4 Pi=0.000505128205128
thetaW=0.000705294379894 D=1.40215679843 Pi=0.00115897435897 S=3 He=0.748717948718 K=4
K=4 Pi=0.000941025641026 S=3 He=0.684615384615 D=0.728558026887 thetaW=0.000705294379894
Pi=0.00255512820513 S=9 K=8 D=0.606670656184 He=0.780769230769 thetaW=0.00211588313968
D=-0.766527082405 Pi=0.000638461538462 He=0.521794871795 thetaW=0.000940392506526 S=4 K=5
thetaW=0.000470196253263 K=3 Pi=0.000528205128205 D=0.232949672408 He=0.497435897436 S=2
S=6 K=6 Pi=0.00187692307692 He=0.748717948718 D=0.882190763683 thetaW=0.00141058875979
He=0.605128205128 K=6 Pi=0.00137051282051 thetaW=0.00117549063316 D=0.422170511908 S=5
He=0.466666666667 thetaW=0.000235098126631 Pi=0.000466666666667 D=1.40632367744 S=1 K=2
S=3 He=0.55 K=3 D=0.542327778286 thetaW=0.000705294379894 Pi=0.000880769230769
D=1.24599000321 Pi=0.00206923076923 thetaW=0.00141058875979 He=0.55 K=4 S=6
He=0.315384615385 thetaW=0.000940392506526 D=-1.41748848264 K=5 Pi=0.000382051282051 S=4
S=3 thetaW=0.000705294379894 K=4 Pi=0.000705128205128 He=0.598717948718 D=-0.000513584660193
thetaW=0.00141058875979 He=0.542307692308 K=3 S=6 D=1.85717272562 Pi=0.00239230769231
thetaW=0.000235098126631 D=0.908023430374 K=2 Pi=0.000384615384615 He=0.384615384615 S=1
thetaW=0.000235098126631 K=2 Pi=9.74358974359e-05 S=1 D=-0.836027434374 He=0.0974358974359
thetaW=0.00117549063316 K=5 D=1.51008644251 Pi=0.00187307692308 S=5 He=0.734615384615
Pi=0.000789743589744 D=-0.83503845892 K=6 thetaW=0.00117549063316 S=5 He=0.469230769231
He=0.544871794872 thetaW=0.000705294379894 D=1.48536605844 S=3 Pi=0.0011858974359 K=3
S=8 thetaW=0.00188078501305 Pi=0.00202051282051 D=0.211894964527 K=8 He=0.85641025641
Pi=0.000566666666667 thetaW=0.000705294379894 D=-0.428446921873 K=4 S=3 He=0.515384615385
K=2 S=1 thetaW=0.000235098126631 D=-1.12410726471 He=0.05 Pi=5e-05
K=4 S=4 He=0.391025641026 D=-1.06271451951 thetaW=0.000940392506526 Pi=0.000521794871795
D=0.289582173746 thetaW=0.000470196253263 Pi=0.000542307692308 He=0.496153846154 S=2 K=3
S=1 K=2 thetaW=0.000235098126631 He=0.507692307692 Pi=0.000507692307692 D=1.65547380098
thetaW=0.00188078501305 K=7 Pi=0.00138974358974 He=0.65641025641 S=8 D=-0.744656392047
Pi=0.000971794871795 S=5 He=0.662820512821 D=-0.440946463649 thetaW=0.00117549063316 K=6
D=-0.045064425071 Pi=0.000458974358974 He=0.444871794872 S=2 thetaW=0.000470196253263 K=3
S=1 D=1.40632367744 thetaW=0.000235098126631 K=2 Pi=0.000466666666667 He=0.466666666667
Pi=0.000564102564103 K=4 S=4 D=-0.955305888473 He=0.276923076923 thetaW=0.000940392506526
S=6 He=0.680769230769 K=5 D=0.685739174339 Pi=0.00177307692308 thetaW=0.00141058875979
D=-0.568155537899 He=0.755128205128 S=6 K=6 thetaW=0.00141058875979 Pi=0.00111025641026
K=4 thetaW=0.000705294379894 D=0.617612346869 S=3 Pi=0.000905128205128 He=0.685897435897
K=3 He=0.670512820513 S=4 D=1.93170792156 thetaW=0.000940392506526 Pi=0.00170128205128
D=2.22259998919 He=0.626923076923 thetaW=0.00164568688642 Pi=0.00296666666667 K=4 S=7
S=3 thetaW=0.000705294379894 K=4 Pi=0.000988461538462 D=0.87516481834 He=0.665384615385
K=3 D=-1.29612786373 thetaW=0.000470196253263 He=0.144871794872 S=2 Pi=0.000147435897436
S=3 He=0.619230769231 K=4 thetaW=0.000705294379894 D=0.0945827124982 Pi=0.000735897435897
K=4 thetaW=0.000705294379894 S=3 He=0.734615384615 Pi=0.0012858974359 D=1.7944290242
K=4 He=0.547435897436 S=4 D=0.766487015145 Pi=0.00124230769231 thetaW=0.000940392506526
Pi=0.000311538461538 K=3 thetaW=0.000470196253263 S=2 He=0.303846153846 D=-0.637131484517
thetaW=0.00211588313968 D=0.732392240136 Pi=0.00264615384615 K=6 S=9 He=0.735897435897
D=0.237227158236 He=0.638461538462 thetaW=0.000705294379894 Pi=0.000782051282051 S=3 K=4
He=0.396153846154 K=3 D=0.463789964036 thetaW=0.000940392506526 S=4 Pi=0.00112307692308
Pi=0.000752564102564 thetaW=0.000940392506526 S=4 He=0.619230769231 D=-0.476849259301 K=5
K=3 thetaW=0.000705294379894 Pi=0.000642307692308 S=3 D=-0.194668524692 He=0.465384615385
K=4 S=5 Pi=0.000596153846154 thetaW=0.00117549063316 D=-1.25410811586 He=0.452564102564
D=0.744518661804 S=1 K=2 Pi=0.000357692307692 He=0.357692307692 thetaW=0.000235098126631
thetaW=0.00352647189947 Pi=0.00378974358974 D=0.237972424752 He=0.782051282051 S=15 K=9
Pi=0.000498717948718 He=0.267948717949 thetaW=0.000705294379894 D=-0.638451244764 S=3 K=3
K=6 Pi=0.001 He=0.548717948718 S=7 D=-1.08639336365 thetaW=0.00164568688642
He=0.142307692308 K=2 D=-0.563519486757 thetaW=0.000235098126631 S=1 Pi=0.000142307692308
Pi=0.00371025641026 K=5 He=0.638461538462 D=1.319080158 S=11 thetaW=0.00258607939295
He=0.347435897436 thetaW=0.000470196253263 Pi=0.000366666666667 D=-0.415749888376 S=2 K=3
thetaW=0.00117549063316 D=-1.07926448416 He=0.565384615385 S=5 Pi=0.000676923076923 K=6
D=0.27288826967 K=4 Pi=0.00079358974359 S=3 thetaW=0.000705294379894 He=0.621794871795
Pi=0.000582051282051 S=6 K=4 thetaW=0.00141058875979 D=-1.56739078247 He=0.275641025641
Pi=0.000234615384615 thetaW=0.000470196253263 K=3 S=2 D=-0.946036037271 He=0.229487179487
S=4 He=0.585897435897 Pi=0.000678205128205 K=5 thetaW=0.000940392506526 D=-0.665628065369
D=1.18831731935 K=2 Pi=0.000430769230769 He=0.430769230769 thetaW=0.000235098126631 S=1
thetaW=0.00117549063316 He=0.626923076923 S=5 K=5 D=0.216798627048 Pi=0.00127564102564
D=0.480451722476 He=0.65641025641 S=5 K=5 Pi=0.00139743589744 thetaW=0.00117549063316
Pi=0.000371794871795 thetaW=0.000705294379894 S=3 K=4 D=-1.03072347054 He=0.314102564103
thetaW=0.000940392506526 S=4 He=0.592307692308 D=-0.0830176121597 Pi=0.000907692307692 K=4
He=0.567948717949 D=0.047034563919 Pi=0.000720512820513 K=4 S=3 thetaW=0.000705294379894
S=4 He=0.352564102564 Pi=0.000561538461538 D=-0.961815502475 K=4 thetaW=0.000940392506526
Pi=0.00106538461538 K=3 D=1.11290556124 S=3 He=0.529487179487 thetaW=0.000705294379894
thetaW=0.00164568688642 D=-0.245123867166 S=7 He=0.673076923077 K=7 Pi=0.0015
He=0.674358974359 D=-0.262031997224 Pi=0.000837179487179 S=4 K=5 thetaW=0.000940392506526
Pi=0.00254615384615 S=8 K=5 D=1.00902109501 thetaW=0.00188078501305 He=0.780769230769
thetaW=0.000705294379894 S=3 Pi=0.000601282051282 He=0.541025641026 K=4 D=-0.32146358757
He=0.511538461538 S=2 thetaW=0.000470196253263 K=2 Pi=0.00102307692308 D=2.22023562846
S=5 D=-0.42151939346 thetaW=0.00117549063316 He=0.696153846154 Pi=0.000980769230769 K=5
thetaW=0.00211588313968 D=0.868738183294 He=0.614102564103 Pi=0.00274487179487 K=7 S=9
thetaW=0.00141058875979 K=5 He=0.451282051282 Pi=0.000901282051282 S=6 D=-0.963484044852
thetaW=0.00141058875979 Pi=0.00118076923077 D=-0.434762483406 K=6 He=0.765384615385 S=6
D=-1.12410726471 thetaW=0.000235098126631 He=0.05 S=1 K=2 Pi=5e-05
Pi=0.00144358974359 thetaW=0.000940392506526 D=1.27749171433 K=4 He=0.694871794872 S=4
D=-0.307732268065 Pi=0.00103333333333 He=0.673076923077 K=5 thetaW=0.00117549063316 S=5
K=7 D=0.390642018972 He=0.787179487179 Pi=0.00239871794872 thetaW=0.00211588313968 S=9
thetaW=0.000940392506526 Pi=0.000561538461538 He=0.35641025641 D=-0.961815502475 K=5 S=4
S=5 Pi=0.000753846153846 He=0.426923076923 K=4 D=-0.912746739677 thetaW=0.00117549063316
D=-0.86417129244 K=4 thetaW=0.000940392506526 He=0.498717948718 S=4 Pi=0.0006
Pi=0.00138717948718 D=-0.0442846329797 He=0.688461538462 thetaW=0.00141058875979 S=6 K=5
S=4 thetaW=0.000940392506526 D=1.34258785435 Pi=0.00146923076923 K=4 He=0.683333333333
K=4 Pi=0.000628205128205 D=-0.238254327556 thetaW=0.000705294379894 S=3 He=0.567948717949
D=-0.632441869802 thetaW=0.00117549063316 Pi=0.000883333333333 K=6 He=0.601282051282 S=5
He=0.648717948718 Pi=0.00120128205128 S=5 thetaW=0.00117549063316 K=6 D=0.0558314740507
K=9 thetaW=0.00188078501305 Pi=0.00109358974359 He=0.755128205128 S=8 D=-1.19376891922
Pi=0.000857692307692 D=-1.04594520581 thetaW=0.00141058875979 He=0.523076923077 K=6 S=6
D=-1.26422474953 He=0.558974358974 K=5 S=6 Pi=0.000742307692308 thetaW=0.00141058875979
He=0.664102564103 S=3 D=0.344210492539 K=4 thetaW=0.000705294379894 Pi=0.000816666666667
D=0.964304263295 He=0.724358974359 K=6 Pi=0.00251666666667 S=8 thetaW=0.00188078501305
S=5 He=0.469230769231 thetaW=0.00117549063316 Pi=0.000919230769231 D=-0.554733589044 K=5
S=5 K=6 thetaW=0.00117549063316 D=-0.285529902134 Pi=0.00104358974359 He=0.694871794872
D=-0.546346964465 S=8 K=7 Pi=0.00152051282051 thetaW=0.00188078501305 He=0.398717948718
K=5 Pi=0.00209871794872 S=6 thetaW=0.00141058875979 He=0.760256410256 D=1.30177255327
D=0.0424585315427 Pi=0.000480769230769 He=0.465384615385 K=3 thetaW=0.000470196253263 S=2
D=-0.307633294912 thetaW=0.000470196253263 S=2 Pi=0.00039358974359 He=0.308974358974 K=3
Pi=0.000989743589744 thetaW=0.000940392506526 K=4 D=0.125290035915 He=0.55641025641 S=4
He=0.514102564103 K=4 thetaW=0.000705294379894 Pi=0.000732051282051 D=0.0826956753534 S=3
He=0.529487179487 D=0.577708209077 thetaW=0.000940392506526 S=4 Pi=0.00116794871795 K=4
Pi=0.000698717948718 thetaW=0.00141058875979 D=-1.34668591049 He=0.525641025641 K=6 S=6
K=6 Pi=0.00110512820513 He=0.633333333333 D=-0.909511059263 S=7 thetaW=0.00164568688642
thetaW=0.00141058875979 D=-0.810688364251 S=6 Pi=0.000982051282051 K=5 He=0.626923076923
thetaW=0.000705294379894 K=4 S=3 D=-0.91581544481 Pi=0.000408974358974 He=0.344871794872
K=1 He=0.0 thetaW=0 S=0 Pi=0
thetaW=0.000235098126631 Pi=0.000142307692308 S=1 K=2 D=-0.563519486757 He=0.142307692308
K=4 thetaW=0.000705294379894 He=0.457692307692 S=3 D=-0.682037047629 Pi=0.000484615384615
thetaW=0.000940392506526 Pi=0.000848717948718 K=4 He=0.475641025641 D=-0.232738734213 S=4
K=2 Pi=0.00152307692308 He=0.507692307692 D=2.52746298147 thetaW=0.000705294379894 S=3
thetaW=0.000940392506526 D=1.17008308329 K=4 He=0.667948717949 Pi=0.00140128205128 S=4
He=0.584615384615 K=5 thetaW=0.000940392506526 D=-0.0927820331632 Pi=0.000903846153846 S=4
He=0.626923076923 thetaW=0.000705294379894 S=3 K=4 Pi=0.000742307692308 D=0.114394441073
He=0.480769230769 K=4 D=-0.539392601891 Pi=0.000530769230769 thetaW=0.000705294379894 S=3
thetaW=0.000470196253263 Pi=0.000446153846154 K=3 D=-0.0965485171967 S=2 He=0.271794871795
D=-0.306583421861 He=0.184615384615 thetaW=0.000235098126631 K=2 Pi=0.000184615384615 S=1
He=0.425641025641 thetaW=0.00117549063316 K=5 D=-1.048736231 S=5 Pi=0.000691025641026
Pi=0.000296153846154 D=0.3707934765 S=1 K=2 thetaW=0.000235098126631 He=0.296153846154
D=1.55605569582 thetaW=0.00164568688642 He=0.55 S=7 K=4 Pi=0.00257051282051
He=0.80641025641 D=-1.18201512821 Pi=0.00141923076923 thetaW=0.00235098126631 S=10 K=10
K=5 Pi=0.000647435897436 thetaW=0.000940392506526 S=4 He=0.564102564103 D=-0.743743433397
S=7 K=7 D=-0.603202678491 thetaW=0.00164568688642 He=0.716666666667 Pi=0.00128717948718
K=6 thetaW=0.00258607939295 Pi=0.00296025641026 He=0.610256410256 S=11 D=0.439049608304
K=2 thetaW=0.000235098126631 D=0.3707934765 Pi=0.000296153846154 He=0.296153846154 S=1
thetaW=0.00117549063316 D=-0.0357532854135 Pi=0.00115897435897 K=5 He=0.426923076923 S=5
S=7 K=4 D=1.56036989837 thetaW=0.00164568688642 Pi=0.00257307692308 He=0.691025641026
He=0.0987179487179 Pi=0.0001 thetaW=0.000470196253263 K=3 D=-1.48661900459 S=2
Pi=0.00243076923077 K=7 He=0.766666666667 S=8 D=0.834042188315 thetaW=0.00188078501305
D=1.49196903241 K=2 Pi=0.000480769230769 thetaW=0.000235098126631 He=0.480769230769 S=1
Pi=5e-05 He=0.05 S=1 D=-1.12410726471 K=2 thetaW=0.000235098126631
S=3 K=4 D=-0.856380259086 thetaW=0.000705294379894 Pi=0.000428205128205 He=0.40641025641
He=0.189743589744 thetaW=0.000470196253263 K=3 S=2 Pi=0.000194871794872 D=-1.10563672286
D=-0.831623222428 thetaW=0.000940392506526 S=4 He=0.426923076923 Pi=0.000612820512821 K=5
S=5 thetaW=0.00117549063316 He=0.710256410256 D=-0.23557457879 K=6 Pi=0.00106666666667
S=1 thetaW=0.000235098126631 Pi=0.000466666666667 K=2 He=0.466666666667 D=1.40632367744
D=0.169618599446 K=6 Pi=0.00125384615385 S=5 He=0.738461538462 thetaW=0.00117549063316
D=0.75346778714 Pi=0.00123717948718 He=0.583333333333 K=4 thetaW=0.000940392506526 S=4
S=2 K=3 He=0.594871794872 D=0.830165141066 thetaW=0.000470196253263 Pi=0.000676923076923
thetaW=0.00164568688642 K=4 Pi=0.000883333333333 He=0.387179487179 D=-1.2826895795 S=7
S=5 thetaW=0.00117549063316 K=4 He=0.315384615385 D=-1.20415279252 Pi=0.000619230769231
He=0.303846153846 S=2 D=-0.637131484517 K=3 thetaW=0.000470196253263 Pi=0.000311538461538
He=0.0974358974359 S=1 D=-0.836027434374 Pi=9.74358974359e-05 thetaW=0.000235098126631 K=2
S=3 Pi=0.00055 thetaW=0.000705294379894 He=0.5 D=-0.479957416167 K=4
Pi=0.000834615384615 D=-0.268541611226 K=3 He=0.267948717949 thetaW=0.000940392506526 S=4
K=7 thetaW=0.00141058875979 D=-0.825240333832 He=0.717948717949 Pi=0.000974358974359 S=6
thetaW=0.000470196253263 He=0.271794871795 K=3 Pi=0.000282051282051 D=-0.755544896406 S=2
Pi=0.000675641025641 K=5 S=4 He=0.573076923077 thetaW=0.000940392506526 D=-0.672137679371
Pi=0.00186923076923 D=-0.017521824245 He=0.692307692308 S=8 thetaW=0.00188078501305 K=7
K=7 He=0.785897435897 D=0.680449592442 S=8 Pi=0.00232948717949 thetaW=0.00188078501305
K=5 thetaW=0.00235098126631 S=10 D=-1.35116128653 Pi=0.0012858974359 He=0.35641025641
K=3 He=0.562820512821 Pi=0.000633333333333 thetaW=0.000470196253263 D=0.655119227839 S=2
He=0.708974358974 D=0.663621241404 Pi=0.00148205128205 K=5 S=5 thetaW=0.00117549063316
thetaW=0.00188078501305 Pi=0.00238076923077 D=0.758217995416 S=8 He=0.50641025641 K=4
K=4 Pi=0.000651282051282 thetaW=0.000940392506526 S=4 He=0.521794871795 D=-0.733979012393
thetaW=0.000705294379894 He=0.191025641026 Pi=0.000197435897436 K=4 D=-1.56960248777 S=3
thetaW=0.000940392506526 S=4 He=0.575641025641 D=-0.515906943315 K=4 Pi=0.000737179487179
D=-1.51838749967 He=0.144871794872 Pi=0.000342307692308 thetaW=0.000940392506526 S=4 K=3
thetaW=0.000705294379894 S=3 D=-1.42299569632 He=0.234615384615 K=4 Pi=0.000244871794872
thetaW=0.000940392506526 S=4 Pi=0.00105897435897 K=4 He=0.414102564103 D=0.301049613978
He=0.55 Pi=0.000607692307692 K=4 S=3 D=-0.301651858995 thetaW=0.000705294379894
Pi=0.000485897435897 D=0.063052168393 He=0.447435897436 K=3 thetaW=0.000470196253263 S=2
K=6 Pi=0.000882051282051 thetaW=0.00117549063316 D=-0.635217165543 S=5 He=0.667948717949
Pi=0.00164615384615 K=8 S=7 thetaW=0.00164568688642 D=0.00078567796061 He=0.79358974359
D=-0.125330103175 S=4 K=5 He=0.680769230769 thetaW=0.000940392506526 Pi=0.000891025641026
S=5 He=0.769230769231 K=6 thetaW=0.00117549063316 D=0.358338709857 Pi=0.00134102564103
D=0.660267637051 K=3 Pi=0.000634615384615 thetaW=0.000470196253263 S=2 He=0.496153846154
Pi=0.000926923076923 D=-0.538081814596 He=0.637179487179 K=6 thetaW=0.00117549063316 S=5
He=0.626923076923 Pi=0.00314615384615 D=2.52459416742 thetaW=0.00164568688642 S=7 K=3
S=3 Pi=0.00106538461538 He=0.529487179487 thetaW=0.000705294379894 D=1.11290556124 K=3
D=0.75346778714 thetaW=0.000940392506526 K=4 S=4 He=0.583333333333 Pi=0.00123717948718
He=0.524358974359 thetaW=0.000940392506526 K=5 Pi=0.000694871794872 D=-0.623315574353 S=4
S=2 He=0.0974358974359 thetaW=0.000470196253263 D=-1.10563672286 Pi=0.000194871794872 K=2
He=0.80641025641 K=7 Pi=0.00196282051282 D=0.533589692402 thetaW=0.00164568688642 S=7
D=-0.61863951619 S=3 He=0.467948717949 K=4 thetaW=0.000705294379894 Pi=0.000505128205128
Pi=0.00172692307692 D=-0.233329142496 He=0.584615384615 thetaW=0.00188078501305 S=8 K=6
K=4 D=0.379871603973 thetaW=0.000705294379894 Pi=0.000828205128205 S=3 He=0.667948717949
He=0.853846153846 S=7 thetaW=0.00164568688642 D=1.23896180869 K=7 Pi=0.00238205128205
thetaW=0.000940392506526 He=0.614102564103 K=5 Pi=0.000739743589744 S=4 D=-0.509397329313
K=2 Pi=5e-05 thetaW=0.000235098126631 He=0.05 S=1 D=-1.12410726471
S=2 Pi=0.0005 D=0.119684669731 He=0.483333333333 K=3 thetaW=0.000470196253263
Pi=0.000520512820513 He=0.475641025641 S=3 D=-0.57109136761 K=4 thetaW=0.000705294379894
thetaW=0.00141058875979 K=6 S=6 D=0.0406018562433 He=0.739743589744 Pi=0.00143205128205
thetaW=0.00117549063316 He=0.734615384615 Pi=0.00156794871795 S=5 D=0.849566056074 K=5
He=0.537179487179 thetaW=0.00141058875979 D=2.65268039605 Pi=0.00281282051282 S=6 K=3
S=12 K=5 thetaW=0.00282117751958 D=0.22461444261 He=0.54358974359 Pi=0.00302692307692
thetaW=0.000235098126631 S=1 D=-0.306583421861 K=2 Pi=0.000184615384615 He=0.184615384615
D=0.619080363351 S=2 Pi=0.000624358974359 thetaW=0.000470196253263 K=3 He=0.337179487179
D=0.637424075444 thetaW=0.000705294379894 Pi=0.000911538461538 K=3 He=0.465384615385 S=3
D=0.180621754935 Pi=0.00101153846154 He=0.571794871795 thetaW=0.000940392506526 S=4 K=5
He=0.523076923077 thetaW=0.000940392506526 Pi=0.000866666666667 S=4 D=-0.187171436197 K=5
S=2 thetaW=0.000470196253263 Pi=0.000284615384615 He=0.273076923077 K=3 D=-0.745248077981
He=0.460256410256 S=4 D=-0.336892558251 K=4 Pi=0.000807692307692 thetaW=0.000940392506526
Pi=0.000261538461538 thetaW=0.000235098126631 He=0.261538461538 D=0.160573059767 K=2 S=1
D=-0.898725552898 He=0.676923076923 K=8 thetaW=0.00164568688642 Pi=0.00111153846154 S=7
Pi=0.00245 He=0.767948717949 S=7 K=6 thetaW=0.00164568688642 D=1.35328817616
Pi=0.00204230769231 K=5 S=7 D=0.667329971331 He=0.676923076923 thetaW=0.00164568688642
Pi=0.00195512820513 K=4 S=5 He=0.721794871795 thetaW=0.00117549063316 D=1.68770536996
D=-0.910126823055 Pi=0.000929487179487 thetaW=0.00141058875979 He=0.720512820513 S=6 K=7
He=0.835897435897 K=7 D=0.37612129947 thetaW=0.00164568688642 Pi=0.00186923076923 S=7
He=0.0 Pi=0 S=0 K=1 thetaW=0
He=0.673076923077 S=4 D=0.825073541166 Pi=0.00126538461538 thetaW=0.000940392506526 K=4
D=0.984559084223 Pi=0.00132820512821 thetaW=0.000940392506526 S=4 K=4 He=0.702564102564
S=1 He=0.0974358974359 D=-0.836027434374 K=2 thetaW=0.000235098126631 Pi=9.74358974359e-05
S=9 thetaW=0.00211588313968 Pi=0.00148974358974 K=5 He=0.498717948718 D=-0.864803094007
D=-1.47898579535 K=6 He=0.501282051282 Pi=0.000766666666667 thetaW=0.00164568688642 S=7
Pi=0.00015 S=3 He=0.146153846154 D=-1.71620927923 K=4 thetaW=0.000705294379894
S=7 Pi=0.00255897435897 K=4 He=0.630769230769 D=1.53664178437 thetaW=0.00164568688642
S=1 D=-0.0652192396865 thetaW=0.000235098126631 Pi=0.000224358974359 K=2 He=0.224358974359
He=0.544871794872 Pi=0.00099358974359 K=3 D=0.8910142012 thetaW=0.000705294379894 S=3
He=0.344871794872 D=-1.82412199903 K=4 thetaW=0.00164568688642 Pi=0.000561538461538 S=7
K=6 S=6 He=0.723076923077 D=-0.245586878852 thetaW=0.00141058875979 Pi=0.00128076923077
S=5 K=5 D=1.36577106396 He=0.757692307692 Pi=0.00180641025641 thetaW=0.00117549063316
Pi=0.000933333333333 thetaW=0.000470196253263 D=1.85984698358 S=2 K=2 He=0.466666666667
S=4 Pi=0.00050641025641 He=0.457692307692 K=5 thetaW=0.000940392506526 D=-1.10177220353
Pi=0.00115 He=0.652564102564 thetaW=0.000940392506526 D=0.532140911061 S=4 K=4
K=5 He=0.582051282051 D=-0.707940556384 Pi=0.000661538461538 S=4 thetaW=0.000940392506526
D=-0.358375305132 thetaW=0.00211588313968 K=10 He=0.874358974359 S=9 Pi=0.00185641025641
He=0.635897435897 K=6 D=1.32093165706 Pi=0.00243076923077 thetaW=0.00164568688642 S=7
He=0.832051282051 Pi=0.00173717948718 S=6 thetaW=0.00141058875979 K=7 D=0.61782998296
Pi=0.00101794871795 thetaW=0.00117549063316 He=0.710256410256 D=-0.341035816961 S=5 K=6
Pi=0.000715384615385 He=0.357692307692 K=2 S=2 D=0.984617417443 thetaW=0.000470196253263
Pi=0.00126282051282 K=5 He=0.65641025641 thetaW=0.000940392506526 D=0.818563927164 S=4
S=2 K=3 thetaW=0.000470196253263 D=1.35530288075 He=0.637179487179 Pi=0.000807692307692
S=3 D=1.02969630122 Pi=0.00103846153846 thetaW=0.000705294379894 K=4 He=0.567948717949
D=1.56391473043 Pi=0.00155641025641 thetaW=0.000940392506526 He=0.633333333333 K=4 S=4
S=4 He=0.733333333333 Pi=0.00102820512821 D=0.22293424595 K=5 thetaW=0.000940392506526
Pi=0.000429487179487 He=0.314102564103 D=-1.2970606236 K=4 S=4 thetaW=0.000940392506526
D=-1.56960248777 Pi=0.000197435897436 K=3 thetaW=0.000705294379894 He=0.144871794872 S=3
He=0.303846153846 S=2 D=-0.637131484517 Pi=0.000311538461538 thetaW=0.000470196253263 K=3
Pi=0.0001 thetaW=0.000470196253263 K=2 S=2 He=0.05 D=-1.48661900459
D=1.03365864694 K=4 S=3 He=0.724358974359 Pi=0.00103974358974 thetaW=0.000705294379894
K=6 S=7 Pi=0.00188333333333 He=0.628205128205 thetaW=0.00164568688642 D=0.399849413474
K=4 D=0.760256792607 S=3 He=0.721794871795 thetaW=0.000705294379894 Pi=0.000951282051282
thetaW=0.000705294379894 He=0.575641025641 D=-0.143158030398 Pi=0.000658974358974 S=3 K=4
He=0.397435897436 Pi=0.000698717948718 thetaW=0.00117549063316 S=5 K=6 D=-1.03208445655
He=0.461538461538 K=5 Pi=0.000962820512821 D=-0.847068288204 S=6 thetaW=0.00141058875979
Pi=0.00206923076923 He=0.480769230769 thetaW=0.00141058875979 K=4 S=6 D=1.24599000321
S=2 He=0.229487179487 thetaW=0.000470196253263 K=3 Pi=0.000234615384615 D=-0.946036037271
S=1 He=0.45 thetaW=0.000235098126631 D=1.30510643976 Pi=0.00045 K=2
thetaW=0.000940392506526 He=0.55641025641 Pi=0.00123205128205 D=0.740448559136 S=4 K=4
D=-1.29612786373 Pi=0.000147435897436 S=2 K=3 He=0.144871794872 thetaW=0.000470196253263
S=2 K=3 thetaW=0.000470196253263 Pi=0.000557692307692 D=0.351363084297 He=0.529487179487
He=0.608974358974 thetaW=0.000705294379894 K=3 S=3 Pi=0.0011858974359 D=1.48536605844
He=0.45 Pi=0.00045 thetaW=0.000235098126631 D=1.30510643976 S=1 K=2
He=0.0 thetaW=0 K=1 S=0 Pi=0
thetaW=0.00211588313968 D=0.0860770550337 Pi=0.00217820512821 K=8 He=0.701282051282 S=9
D=-0.637131484517 K=3 S=2 Pi=0.000311538461538 thetaW=0.000470196253263 He=0.303846153846
thetaW=0.00305627564621 D=1.83113581905 Pi=0.00485 K=6 He=0.796153846154 S=13
thetaW=0.000705294379894 Pi=0.000847435897436 D=0.439306789697 K=4 S=3 He=0.665384615385
Pi=0.00309487179487 S=10 thetaW=0.00235098126631 He=0.65641025641 D=0.943696688373 K=5
Pi=0.000147435897436 He=0.144871794872 D=-1.29612786373 K=3 thetaW=0.000470196253263 S=2
Pi=0.000847435897436 He=0.641025641026 thetaW=0.00117549063316 K=5 S=5 D=-0.710150150559
S=5 Pi=0.00153461538462 He=0.702564102564 K=5 D=0.777408366799 thetaW=0.00117549063316
thetaW=0.00117549063316 S=5 He=0.587179487179 K=5 Pi=0.00110384615385 D=-0.155091002291
He=0.192307692308 thetaW=0.000940392506526 S=4 Pi=0.0002 K=5 D=-1.8796710768
Pi=0.00141282051282 S=5 D=0.513755271372 thetaW=0.00117549063316 K=5 He=0.742307692308
D=-1.12410726471 He=0.05 S=1 K=2 Pi=5e-05 thetaW=0.000235098126631
K=3 S=3 D=1.48932840415 thetaW=0.000705294379894 Pi=0.00118717948718 He=0.598717948718
thetaW=0.000705294379894 S=3 He=0.580769230769 K=4 D=-0.155045067543 Pi=0.000655128205128
thetaW=0.000705294379894 S=3 Pi=0.0010858974359 He=0.578205128205 D=1.17630309267 K=3
K=3 D=2.12897739283 S=5 thetaW=0.00117549063316 He=0.578205128205 Pi=0.00215897435897
thetaW=0.000705294379894 Pi=0.0014 D=2.14707779283 S=3 He=0.610256410256 K=3
Pi=0.00142820512821 D=1.23843403031 S=4 thetaW=0.000940392506526 He=0.685897435897 K=4
D=-1.42062586034 He=0.273076923077 thetaW=0.00117549063316 K=4 S=5 Pi=0.000519230769231
K=6 S=8 Pi=0.00132435897436 D=-0.843811105838 thetaW=0.00188078501305 He=0.558974358974
thetaW=0.000705294379894 D=-1.06242223626 Pi=0.000361538461538 S=3 K=3 He=0.303846153846
Pi=0.00115 He=0.737179487179 S=5 D=-0.0551803556029 K=6 thetaW=0.00117549063316
Pi=0.00226153846154 K=4 D=1.03619428902 thetaW=0.00164568688642 S=7 He=0.584615384615
Pi=0.000614102564103 thetaW=0.000705294379894 S=3 He=0.557692307692 D=-0.28184013042 K=4
Pi=0.00158205128205 He=0.547435897436 thetaW=0.00282117751958 S=12 K=5 D=-1.35276626507
K=5 D=-0.636334802358 Pi=0.000689743589744 S=4 He=0.574358974359 thetaW=0.000940392506526
K=4 He=0.614102564103 S=3 D=0.0668462924937 Pi=0.000726923076923 thetaW=0.000705294379894
S=10 D=0.413488538254 Pi=0.00267692307692 He=0.565384615385 thetaW=0.00235098126631 K=6
thetaW=0.000705294379894 S=3 Pi=0.000337179487179 D=-1.13770680485 He=0.316666666667 K=4
He=0.624358974359 Pi=0.0012 S=8 K=7 thetaW=0.00188078501305 D=-1.03239948305
D=-1.71620927923 thetaW=0.000705294379894 K=4 Pi=0.00015 He=0.146153846154 S=3
He=0.75 thetaW=0.000940392506526 Pi=0.00110128205128 K=5 D=0.408458245016 S=4
He=0.685897435897 S=7 Pi=0.00162948717949 D=-0.0272566385889 thetaW=0.00164568688642 K=6
thetaW=0.00235098126631 He=0.621794871795 K=6 D=-0.00612404681024 S=10 Pi=0.00234615384615
thetaW=0.00164568688642 D=-0.0876554742341 S=7 Pi=0.00159358974359 K=6 He=0.707692307692
D=-0.836027434374 He=0.0974358974359 thetaW=0.000235098126631 Pi=9.74358974359e-05 S=1 K=2
D=-1.29612786373 He=0.144871794872 thetaW=0.000470196253263 Pi=0.000147435897436 K=3 S=2
S=8 K=8 He=0.751282051282 Pi=0.00189358974359 thetaW=0.00188078501305 D=0.0194181671675
K=4 D=-1.56960248777 Pi=0.000197435897436 thetaW=0.000705294379894 S=3 He=0.191025641026
He=0.730769230769 Pi=0.00226153846154 thetaW=0.00164568688642 K=5 S=7 D=1.03619428902
Pi=0.00141025641026 S=6 thetaW=0.00141058875979 D=-0.000628724236444 He=0.674358974359 K=6
S=3 D=-0.61863951619 He=0.433333333333 Pi=0.000505128205128 thetaW=0.000705294379894 K=4
He=0.544871794872 thetaW=0.000705294379894 S=3 Pi=0.000628205128205 D=-0.238254327556 K=4
S=4 thetaW=0.000940392506526 D=-1.43701732465 K=5 He=0.315384615385 Pi=0.000374358974359
K=4 He=0.234615384615 thetaW=0.000705294379894 D=-1.42299569632 S=3 Pi=0.000244871794872
He=0.547435897436 Pi=0.000852564102564 D=-0.22297431321 thetaW=0.000940392506526 K=4 S=4
thetaW=0.00211588313968 Pi=0.00204230769231 K=6 D=-0.101619957626 S=9 He=0.684615384615
thetaW=0.000235098126631 D=1.67883162506 He=0.511538461538 K=2 S=1 Pi=0.000511538461538
S=7 K=4 D=1.51075656909 He=0.629487179487 thetaW=0.00164568688642 Pi=0.00254358974359
D=1.68493007422 He=0.721794871795 Pi=0.00195384615385 S=5 thetaW=0.00117549063316 K=4
thetaW=0.000940392506526 He=0.657692307692 K=4 Pi=0.00106538461538 D=0.317323648984 S=4
He=0.45 S=1 K=2 thetaW=0.000235098126631 D=1.30510643976 Pi=0.00045
S=7 Pi=0.0019358974359 thetaW=0.00164568688642 He=0.710256410256 K=5 D=0.488290565668
thetaW=0.00117549063316 K=5 S=5 D=0.330585752443 He=0.764102564103 Pi=0.00132820512821
K=4 thetaW=0.000705294379894 D=0.768181484037 He=0.610256410256 S=3 Pi=0.000953846153846
He=0.235897435897 K=5 Pi=0.000294871794872 S=4 D=-1.63881535872 thetaW=0.000940392506526
K=2 thetaW=0.000235098126631 Pi=0.000512820512821 S=1 D=1.68661756642 He=0.512820512821
Pi=0.000379487179487 K=4 thetaW=0.000705294379894 He=0.276923076923 D=-1.00694939625 S=3
D=-0.0634887701527 Pi=0.000915384615385 He=0.711538461538 K=5 S=4 thetaW=0.000940392506526
He=0.415384615385 D=-0.0965485171967 S=2 K=3 Pi=0.000446153846154 thetaW=0.000470196253263
K=3 He=0.267948717949 D=-0.638451244764 Pi=0.000498717948718 thetaW=0.000705294379894 S=3
Pi=0.000878205128205 He=0.684615384615 K=6 thetaW=0.00117549063316 D=-0.643543052767 S=5
K=5 He=0.726923076923 S=4 D=0.532140911061 Pi=0.00115 thetaW=0.000940392506526
S=5 K=5 thetaW=0.00117549063316 Pi=0.00167179487179 He=0.666666666667 D=1.07436501112
thetaW=0.00141058875979 S=6 Pi=0.00201153846154 K=5 D=1.13685023135 He=0.534615384615
S=5 thetaW=0.00117549063316 D=-0.798959614282 K=6 He=0.620512820513 Pi=0.00080641025641
thetaW=0.000705294379894 He=0.685897435897 Pi=0.000870512820513 D=0.510629012566 S=3 K=4
thetaW=0.00117549063316 He=0.688461538462 D=-0.418744097719 Pi=0.000982051282051 K=6 S=5
He=0.45641025641 thetaW=0.000470196253263 S=2 D=0.0476069407553 K=3 Pi=0.000482051282051
thetaW=0.000940392506526 D=-1.06922413351 Pi=0.000519230769231 He=0.233333333333 K=4 S=4
D=0.30283279503 He=0.65641025641 S=5 K=5 Pi=0.00131538461538 thetaW=0.00117549063316
He=0.54358974359 S=5 Pi=0.00148076923077 K=5 thetaW=0.00117549063316 D=0.660845945663
D=-1.43092038775 S=3 K=3 He=0.188461538462 thetaW=0.000705294379894 Pi=0.000242307692308
Pi=0.00137051282051 K=5 D=0.422170511908 S=5 thetaW=0.00117549063316 He=0.683333333333
thetaW=0.000470196253263 Pi=0.000448717948718 D=-0.0862516987716 He=0.416666666667 K=3 S=2
K=2 S=2 thetaW=0.000470196253263 Pi=0.0001 D=-1.48661900459 He=0.05
He=0.584615384615 Pi=0.000687179487179 S=3 D=-0.0559864246692 thetaW=0.000705294379894 K=4
Pi=0.00207692307692 thetaW=0.00141058875979 S=6 He=0.762820512821 K=5 D=1.26054197279
Pi=0.000292307692308 K=5 D=-1.64532497272 He=0.235897435897 thetaW=0.000940392506526 S=4
K=5 Pi=0.00137435897436 D=0.430496399132 thetaW=0.00117549063316 He=0.671794871795 S=5
thetaW=0.00117549063316 Pi=0.000791025641026 S=5 K=6 He=0.637179487179 D=-0.832263163178
S=3 K=3 He=0.267948717949 D=-0.408635193298 thetaW=0.000705294379894 Pi=0.000573076923077
K=5 D=1.28704313564 He=0.665384615385 thetaW=0.00188078501305 S=8 Pi=0.00272948717949
D=0.652568770104 thetaW=0.000940392506526 Pi=0.00119743589744 S=4 K=4 He=0.657692307692
Pi=0.00206025641026 He=0.785897435897 thetaW=0.00141058875979 D=1.22901270537 S=6 K=5
He=0.598717948718 Pi=0.00115512820513 D=-0.0440791726376 K=5 S=5 thetaW=0.00117549063316
He=0.55641025641 Pi=0.00110256410256 thetaW=0.000940392506526 K=4 D=0.411713052018 S=4
Pi=0.00192179487179 K=8 D=0.0621907888029 He=0.801282051282 thetaW=0.00188078501305 S=8
Pi=0.00307435897436 He=0.771794871795 S=8 D=1.81003564563 thetaW=0.00188078501305 K=6
thetaW=0.000470196253263 S=2 Pi=0.000561538461538 D=0.366808311935 K=3 He=0.537179487179
He=0.626923076923 D=-0.102360383206 S=5 thetaW=0.00117549063316 K=6 Pi=0.00112820512821
He=0.661538461538 S=5 K=6 Pi=0.00103974358974 D=-0.293855789358 thetaW=0.00117549063316
K=5 He=0.705128205128 D=0.193640982939 Pi=0.00101666666667 thetaW=0.000940392506526 S=4
Pi=0.00144230769231 thetaW=0.00117549063316 D=0.577587073423 He=0.571794871795 S=5 K=5
thetaW=0.000705294379894 He=0.734615384615 D=0.839503706905 S=3 Pi=0.000976923076923 K=4
thetaW=0.000705294379894 S=3 He=0.529487179487 Pi=0.000980769230769 D=0.85139074405 K=4
S=5 K=6 thetaW=0.00117549063316 He=0.592307692308 D=-1.04596093526 Pi=0.000692307692308
He=0.761538461538 S=5 K=6 Pi=0.00116538461538 D=-0.0218768067068 thetaW=0.00117549063316
D=-0.301369428912 K=7 S=6 He=0.65 Pi=0.00125128205128 thetaW=0.00141058875979
D=-0.475993063886 Pi=0.00115897435897 He=0.498717948718 S=6 K=5 thetaW=0.00141058875979
He=0.191025641026 K=4 Pi=0.000197435897436 thetaW=0.000705294379894 D=-1.56960248777 S=3
Pi=0.00039358974359 S=2 K=3 thetaW=0.000470196253263 He=0.375641025641 D=-0.307633294912
He=0.144871794872 Pi=0.000147435897436 thetaW=0.000470196253263 S=2 D=-1.29612786373 K=3
Pi=0.000957692307692 He=0.598717948718 thetaW=0.000940392506526 D=0.0439198608858 K=4 S=4
thetaW=0.00141058875979 D=0.860362809312 S=6 Pi=0.00186538461538 K=6 He=0.774358974359
D=0.144640937774 He=0.725641025641 K=6 Pi=0.00124230769231 thetaW=0.00117549063316 S=5
D=-0.646375936194 Pi=0.000496153846154 thetaW=0.000705294379894 S=3 He=0.452564102564 K=4
thetaW=0.000940392506526 S=4 Pi=0.00139102564103 He=0.724358974359 D=1.14404462728 K=4
D=0.331641247865 S=6 Pi=0.0015858974359 He=0.630769230769 K=5 thetaW=0.00141058875979
D=-0.254103710416 He=0.557692307692 S=3 Pi=0.000623076923077 K=4 thetaW=0.000705294379894
D=-0.786435351681 Pi=0.000274358974359 K=3 thetaW=0.000470196253263 S=2 He=0.267948717949
D=0.866204005554 He=0.567948717949 thetaW=0.000470196253263 Pi=0.000685897435897 K=3 S=2
thetaW=0.000940392506526 He=0.276923076923 S=4 D=-1.64532497272 Pi=0.000292307692308 K=5
S=5 thetaW=0.00117549063316 Pi=0.00131282051282 K=5 He=0.634615384615 D=0.297282203547
thetaW=0.00141058875979 He=0.483333333333 Pi=0.00160897435897 K=4 S=6 D=0.375297156609
He=0.392307692308 K=5 Pi=0.000812820512821 D=-0.785083135576 S=5 thetaW=0.00117549063316
S=4 He=0.273076923077 thetaW=0.000940392506526 Pi=0.000334615384615 D=-1.53791634168 K=4
K=6 D=0.194596261118 Pi=0.00126538461538 S=5 He=0.683333333333 thetaW=0.00117549063316
S=6 He=0.689743589744 Pi=0.00150256410256 K=6 D=0.173994910737 thetaW=0.00141058875979
D=-0.724000349782 He=0.723076923077 Pi=0.00121538461538 K=7 S=7 thetaW=0.00164568688642
thetaW=0.00164568688642 D=-1.56742694754 K=7 S=7 Pi=0.000714102564103 He=0.502564102564
He=0.380769230769 thetaW=0.000470196253263 D=-0.266446021212 S=2 Pi=0.000403846153846 K=3
He=0.05 Pi=5e-05 D=-1.12410726471 K=2 S=1 thetaW=0.000235098126631
Pi=0.000938461538462 thetaW=0.000705294379894 D=0.720633335458 He=0.661538461538 K=4 S=3
Pi=0.00108205128205 thetaW=0.00141058875979 He=0.725641025641 S=6 D=-0.621512759697 K=7
He=0.733333333333 Pi=0.00383076923077 D=1.46048677624 K=6 S=11 thetaW=0.00258607939295
thetaW=0.00141058875979 Pi=0.000938461538462 S=6 D=-0.89314952521 He=0.670512820513 K=7
S=1 Pi=5e-05 He=0.05 thetaW=0.000235098126631 K=2 D=-1.12410726471
thetaW=0.00141058875979 K=4 Pi=0.00168205128205 S=6 D=0.513540867629 He=0.594871794872
K=6 D=-0.999863968805 S=6 Pi=0.000882051282051 He=0.612820512821 thetaW=0.00141058875979
He=0.05 thetaW=0.000235098126631 K=2 Pi=5e-05 D=-1.12410726471 S=1
D=1.61654409418 Pi=0.000501282051282 He=0.501282051282 K=2 thetaW=0.000235098126631 S=1
S=2 K=3 He=0.271794871795 Pi=0.000282051282051 thetaW=0.000470196253263 D=-0.755544896406
S=4 D=-1.41748848264 He=0.355128205128 thetaW=0.000940392506526 K=5 Pi=0.000382051282051
He=0.232051282051 thetaW=0.000470196253263 K=3 S=2 Pi=0.000239743589744 D=-0.925442400421
He=0.347435897436 K=3 Pi=0.000591025641026 thetaW=0.000705294379894 D=-0.353162353289 S=3
K=2 thetaW=0.000235098126631 Pi=5e-05 D=-1.12410726471 He=0.05 S=1
S=7 thetaW=0.00164568688642 K=6 D=0.462405350392 Pi=0.00192051282051 He=0.775641025641
K=3 Pi=0.000561538461538 He=0.534615384615 S=2 thetaW=0.000470196253263 D=0.366808311935
thetaW=0.00141058875979 He=0.635897435897 S=6 D=0.678463189548 Pi=0.00176923076923 K=5
Pi=0.00216666666667 thetaW=0.00188078501305 S=8 D=0.433534913001 K=6 He=0.752564102564
K=7 thetaW=0.00141058875979 S=6 D=-0.827665662095 Pi=0.000973076923077 He=0.684615384615
Pi=0.00111794871795 D=1.27536173555 K=3 S=3 thetaW=0.000705294379894 He=0.517948717949
Pi=0.000684615384615 S=3 He=0.592307692308 thetaW=0.000705294379894 D=-0.0639111160991 K=4
S=4 thetaW=0.000940392506526 He=0.653846153846 D=0.857621611178 Pi=0.00127820512821 K=4
thetaW=0.000235098126631 D=0.565442010512 He=0.328205128205 K=2 S=1 Pi=0.000328205128205
K=4 D=-1.30016297916 S=3 thetaW=0.000705294379894 He=0.273076923077 Pi=0.000284615384615
thetaW=0.000705294379894 He=0.529487179487 D=-0.0639111160991 Pi=0.000684615384615 S=3 K=4
D=-0.39595723119 S=6 Pi=0.00120128205128 He=0.594871794872 K=6 thetaW=0.00141058875979
thetaW=0.00235098126631 Pi=0.00141153846154 S=10 K=6 He=0.582051282051 D=-1.19177356042
D=1.86929936693 S=6 Pi=0.00239871794872 K=4 thetaW=0.00141058875979 He=0.683333333333
Pi=0.000961538461538 D=-0.849493616467 He=0.623076923077 S=6 K=6 thetaW=0.00141058875979
S=6 K=7 D=0.358319858764 Pi=0.0016 thetaW=0.00141058875979 He=0.769230769231
He=0.721794871795 Pi=0.00191923076923 thetaW=0.000940392506526 K=4 S=4 D=2.48502511176
K=4 He=0.35 D=-0.633402096314 thetaW=0.00164568688642 S=7 Pi=0.00126923076923
D=-0.32146358757 thetaW=0.000705294379894 S=3 K=4 He=0.55641025641 Pi=0.000601282051282
He=0.05 S=1 Pi=5e-05 K=2 D=-1.12410726471 thetaW=0.000235098126631
thetaW=0.000940392506526 K=5 D=0.310814034981 Pi=0.00106282051282 He=0.669230769231 S=4
K=4 Pi=0.000710256410256 D=-0.584257890339 S=4 He=0.583333333333 thetaW=0.000940392506526
D=0.899168061528 K=5 He=0.662820512821 S=6 thetaW=0.00141058875979 Pi=0.0018858974359
thetaW=0.000470196253263 He=0.144871794872 D=-1.29612786373 S=2 K=3 Pi=0.000147435897436
K=4 thetaW=0.000940392506526 D=-0.483358873303 S=4 Pi=0.00075 He=0.583333333333
K=5 S=4 Pi=0.000826923076923 D=-0.288070453233 thetaW=0.000940392506526 He=0.647435897436
Pi=0.00268076923077 S=6 D=2.40287158491 He=0.580769230769 K=3 thetaW=0.00141058875979
K=4 thetaW=0.000940392506526 S=4 D=-0.912993397457 He=0.480769230769 Pi=0.000580769230769
K=5 He=0.733333333333 D=0.527631750079 thetaW=0.00117549063316 Pi=0.00141923076923 S=5
K=4 S=3 He=0.538461538462 Pi=0.000687179487179 D=-0.0559864246692 thetaW=0.000705294379894
thetaW=0.00141058875979 He=0.623076923077 D=-0.580282179217 K=5 Pi=0.00110384615385 S=6
K=2 thetaW=0.000235098126631 D=-0.836027434374 He=0.0974358974359 S=1 Pi=9.74358974359e-05
Pi=0.00135128205128 He=0.801282051282 thetaW=0.000940392506526 S=4 K=5 D=1.04314561024
D=0.3707934765 S=1 Pi=0.000296153846154 thetaW=0.000235098126631 He=0.296153846154 K=2
K=5 D=-1.3127313148 thetaW=0.00141058875979 Pi=0.000716666666667 He=0.394871794872 S=6
thetaW=0.000705294379894 He=0.388461538462 D=-0.88411667909 K=4 S=3 Pi=0.000419230769231
thetaW=0.00141058875979 D=-0.308645413703 He=0.724358974359 K=7 S=6 Pi=0.00124743589744
S=1 He=0.05 D=-1.12410726471 K=2 Pi=5e-05 thetaW=0.000235098126631
S=4 He=0.424358974359 D=0.0894871589021 thetaW=0.000940392506526 Pi=0.000975641025641 K=4
He=0.673076923077 K=4 D=0.986110498358 S=3 Pi=0.00102435897436 thetaW=0.000705294379894
thetaW=0.000705294379894 S=3 He=0.191025641026 D=-1.56960248777 Pi=0.000197435897436 K=4
Pi=0.000542307692308 He=0.383333333333 K=3 S=2 thetaW=0.000470196253263 D=0.289582173746
thetaW=0.000470196253263 Pi=0.000569230769231 S=2 He=0.517948717949 D=0.39769876721 K=3
S=5 Pi=0.00188333333333 K=4 thetaW=0.00117549063316 D=1.53228880844 He=0.633333333333
He=0.444871794872 D=0.221377775376 thetaW=0.000705294379894 S=3 K=3 Pi=0.000776923076923
Pi=0.000675641025641 D=-0.0916475361036 K=4 He=0.542307692308 S=3 thetaW=0.000705294379894
S=1 He=0.05 K=2 Pi=5e-05 thetaW=0.000235098126631 D=-1.12410726471
He=0.570512820513 K=4 Pi=0.00158974358974 thetaW=0.00117549063316 S=5 D=0.896746083677
Pi=0.000147435897436 S=2 D=-1.29612786373 He=0.144871794872 thetaW=0.000470196253263 K=3
K=2 thetaW=0.000235098126631 Pi=0.000507692307692 D=1.65547380098 S=1 He=0.507692307692
thetaW=0.00164568688642 Pi=0.00159743589744 S=7 He=0.714102564103 K=7 D=-0.081184170415
He=0.529487179487 K=5 S=5 Pi=0.00101666666667 D=-0.343811112702 thetaW=0.00117549063316
He=0.0987179487179 D=-1.48661900459 S=2 Pi=0.0001 thetaW=0.000470196253263 K=3
D=-0.990455020435 S=5 He=0.405128205128 Pi=0.000717948717949 K=3 thetaW=0.00117549063316
Pi=0.000438461538462 D=-0.127438972472 S=2 thetaW=0.000470196253263 He=0.411538461538 K=3
Pi=0 S=0 He=0.0 K=1 thetaW=0
He=0.0987179487179 D=-1.48661900459 thetaW=0.000470196253263 K=3 Pi=0.0001 S=2
D=-0.0916475361036 S=3 K=3 Pi=0.000675641025641 He=0.514102564103 thetaW=0.000705294379894
S=2 He=0.444871794872 D=-0.045064425071 Pi=0.000458974358974 thetaW=0.000470196253263 K=3
D=-0.543632406079 S=5 Pi=0.000924358974359 thetaW=0.00117549063316 K=5 He=0.644871794872
S=6 D=0.515966195893 thetaW=0.00141058875979 Pi=0.00168333333333 K=5 He=0.626923076923
He=0.670512820513 S=5 Pi=0.00114871794872 D=-0.0579556513443 thetaW=0.00117549063316 K=5
D=-0.589983492271 S=6 He=0.715384615385 K=7 Pi=0.00109871794872 thetaW=0.00141058875979
Pi=0.00136153846154 S=4 thetaW=0.000940392506526 He=0.633333333333 D=1.06918406625 K=4
Pi=0.000805128205128 S=4 D=-0.343402172253 K=4 He=0.420512820513 thetaW=0.000940392506526
He=0.142307692308 K=2 Pi=0.000142307692308 thetaW=0.000235098126631 D=-0.563519486757 S=1
thetaW=0.000940392506526 S=4 D=0.649313963103 He=0.592307692308 K=4 Pi=0.00119615384615
thetaW=0.000470196253263 D=-0.415749888376 He=0.347435897436 Pi=0.000366666666667 S=2 K=3
S=8 He=0.712820512821 K=8 thetaW=0.00188078501305 D=-0.727158501378 Pi=0.00140128205128
He=0.591025641026 thetaW=0.00117549063316 D=0.255652767427 S=5 Pi=0.00129358974359 K=5
He=0.271794871795 thetaW=0.000705294379894 D=-0.737509887638 Pi=0.000466666666667 K=3 S=3
D=0.427419752553 thetaW=0.000705294379894 Pi=0.00084358974359 K=4 He=0.675641025641 S=3
He=0.507692307692 K=2 Pi=0.00101538461538 S=2 D=2.18934517318 thetaW=0.000470196253263
thetaW=0.00164568688642 S=7 K=5 D=1.27347542906 He=0.662820512821 Pi=0.00240256410256
thetaW=0.000940392506526 Pi=0.000908974358974 S=4 D=-0.0797628051586 He=0.705128205128 K=5
He=0.392307692308 thetaW=0.000940392506526 S=4 Pi=0.000538461538462 K=5 D=-1.0204020285
K=5 Pi=0.00130769230769 He=0.64358974359 D=0.286181020582 thetaW=0.00117549063316 S=5
S=10 D=1.07706192859 Pi=0.0032 He=0.638461538462 K=6 thetaW=0.00235098126631
D=0.556020147685 thetaW=0.00188078501305 S=8 He=0.582051282051 Pi=0.00224743589744 K=5
K=2 D=0.160573059767 thetaW=0.000235098126631 S=1 Pi=0.000261538461538 He=0.261538461538
thetaW=0.00164568688642 Pi=0.00171282051282 D=0.112954944159 S=7 He=0.819230769231 K=8
K=1 Pi=0 He=0.0 S=0 thetaW=0
K=3 S=5 Pi=0.000424358974359 D=-1.6259977452 He=0.267948717949 thetaW=0.00117549063316
thetaW=0.00141058875979 Pi=0.00168076923077 D=0.511115539365 K=5 S=6 He=0.714102564103
S=1 K=2 He=0.507692307692 thetaW=0.000235098126631 D=1.65547380098 Pi=0.000507692307692
Pi=0.000760256410256 thetaW=0.000940392506526 K=5 He=0.496153846154 D=-0.457320417294 S=4
He=0.721794871795 K=5 Pi=0.00131538461538 thetaW=0.000940392506526 S=4 D=0.952011014211
S=3 Pi=0.000592307692308 He=0.529487179487 K=4 thetaW=0.000705294379894 D=-0.349200007574
Pi=5e-05 D=-1.12410726471 thetaW=0.000235098126631 He=0.05 S=1 K=2
He=0.426923076923 thetaW=0.000940392506526 S=4 Pi=0.000469230769231 D=-1.19616160656 K=5
thetaW=0.00141058875979 He=0.711538461538 K=5 S=6 Pi=0.00207820512821 D=1.26296730106
Pi=0.000828205128205 He=0.667948717949 D=0.379871603973 S=3 K=4 thetaW=0.000705294379894
He=0.45 K=2 thetaW=0.000940392506526 S=4 D=2.18232806065 Pi=0.0018
S=1 He=0.492307692308 Pi=0.000492307692308 D=1.56204250465 K=2 thetaW=0.000235098126631
K=4 Pi=0.000655128205128 S=3 D=-0.155045067543 He=0.567948717949 thetaW=0.000705294379894
He=0.267948717949 D=-0.786435351681 Pi=0.000274358974359 thetaW=0.000470196253263 K=3 S=2
thetaW=0.000470196253263 D=-0.786435351681 S=2 He=0.267948717949 Pi=0.000274358974359 K=3
S=3 D=0.8910142012 K=4 thetaW=0.000705294379894 Pi=0.00099358974359 He=0.721794871795
S=2 K=3 Pi=0.000598717948718 D=0.516112179099 He=0.555128205128 thetaW=0.000470196253263
S=5 thetaW=0.00117549063316 D=1.60444649772 Pi=0.00191666666667 He=0.498717948718 K=3
S=5 thetaW=0.00117549063316 Pi=0.00253846153846 K=2 D=2.95046493227 He=0.507692307692
S=6 D=-0.104917839568 Pi=0.00135512820513 thetaW=0.00141058875979 He=0.462820512821 K=5
He=0.537179487179 S=3 K=3 thetaW=0.000705294379894 Pi=0.00107307692308 D=1.13667963553
D=0.704645682123 Pi=0.00121794871795 S=4 thetaW=0.000940392506526 K=4 He=0.598717948718
thetaW=0.00188078501305 S=8 D=0.0583023686542 Pi=0.00191923076923 K=7 He=0.673076923077
Pi=0.000530769230769 thetaW=0.000705294379894 He=0.452564102564 K=4 D=-0.539392601891 S=3
D=1.07214037406 K=3 Pi=0.000737179487179 S=2 He=0.608974358974 thetaW=0.000470196253263
thetaW=0.000705294379894 D=-0.384861119009 Pi=0.000580769230769 S=3 He=0.411538461538 K=3
thetaW=0.00117549063316 Pi=0.00138846153846 He=0.611538461538 K=4 D=0.461024652286 S=5
D=1.07136636824 S=6 Pi=0.00197692307692 thetaW=0.00141058875979 He=0.679487179487 K=5
S=3 Pi=0.000532051282051 K=4 He=0.467948717949 thetaW=0.000705294379894 D=-0.535430256176
thetaW=0.00141058875979 D=0.581450059007 He=0.724358974359 K=5 Pi=0.00171794871795 S=6
S=7 Pi=0.00191153846154 K=5 D=0.44730564148 thetaW=0.00164568688642 He=0.573076923077
He=0.0 S=0 Pi=0 thetaW=0 K=1
K=3 S=3 D=-1.71620927923 thetaW=0.000705294379894 Pi=0.00015 He=0.0987179487179
thetaW=0.00164568688642 K=7 S=7 D=-0.264537778624 He=0.660256410256 Pi=0.00148846153846
He=0.719230769231 Pi=0.00250641025641 thetaW=0.00188078501305 K=6 S=8 D=0.948750582701
He=0.724358974359 K=6 D=-0.13288863636 thetaW=0.00117549063316 Pi=0.0011141025641 S=5
thetaW=0.00117549063316 D=-0.854465529109 S=5 Pi=0.000780769230769 K=5 He=0.462820512821
K=4 He=0.621794871795 S=5 thetaW=0.00117549063316 D=0.660845945663 Pi=0.00148076923077
K=4 D=0.463080863987 S=3 He=0.683333333333 Pi=0.000855128205128 thetaW=0.000705294379894
Pi=0.000915384615385 He=0.478205128205 thetaW=0.000705294379894 S=3 K=3 D=0.649311112589
K=5 Pi=0.00255512820513 S=7 D=1.53017048055 thetaW=0.00164568688642 He=0.698717948718
Pi=0.00125769230769 S=4 D=0.805544699159 K=4 thetaW=0.000940392506526 He=0.619230769231
K=2 He=0.501282051282 thetaW=0.000235098126631 Pi=0.000501282051282 D=1.61654409418 S=1
thetaW=0.000940392506526 D=0.903188909194 Pi=0.00129615384615 S=4 K=4 He=0.637179487179
Pi=0.00148461538462 thetaW=0.000940392506526 K=4 S=4 He=0.715384615385 D=1.38164553837
D=-0.836027434374 thetaW=0.000235098126631 S=1 He=0.0974358974359 Pi=9.74358974359e-05 K=2
K=4 Pi=0.00104230769231 He=0.633333333333 thetaW=0.000705294379894 S=3 D=1.04158333837
K=9 S=8 Pi=0.00173333333333 thetaW=0.00188078501305 He=0.826923076923 D=-0.223608092125
S=0 He=0.0 K=1 Pi=0 thetaW=0
Pi=0.000489743589744 S=6 thetaW=0.00141058875979 K=4 He=0.191025641026 D=-1.74201441744
D=0.369439892822 He=0.671794871795 Pi=0.00134615384615 K=5 S=5 thetaW=0.00117549063316
D=-1.14563149628 S=3 thetaW=0.000705294379894 K=3 He=0.188461538462 Pi=0.000334615384615
D=1.20085060437 K=2 S=2 thetaW=0.000470196253263 He=0.384615384615 Pi=0.000769230769231
Pi=0.00137307692308 S=7 K=7 D=-0.458676893198 thetaW=0.00164568688642 He=0.714102564103
S=2 D=-1.29612786373 Pi=0.000147435897436 He=0.144871794872 thetaW=0.000470196253263 K=3
Pi=0.000839743589744 K=3 He=0.670512820513 S=2 D=1.48401311106 thetaW=0.000470196253263
D=0.629499384014 S=3 Pi=0.000908974358974 K=4 thetaW=0.000705294379894 He=0.621794871795
S=3 thetaW=0.000705294379894 Pi=0.000530769230769 He=0.448717948718 D=-0.539392601891 K=4
thetaW=0.000705294379894 Pi=0.000371794871795 He=0.35 K=4 S=3 D=-1.03072347054
D=1.69842437985 S=7 thetaW=0.00164568688642 He=0.673076923077 Pi=0.00265512820513 K=5
D=0.133539754808 S=5 thetaW=0.00117549063316 Pi=0.00123717948718 K=6 He=0.712820512821
Pi=0.00127948717949 thetaW=0.000940392506526 K=4 S=4 He=0.603846153846 D=0.860876418179
K=3 thetaW=0.000470196253263 D=-1.29612786373 Pi=0.000147435897436 S=2 He=0.144871794872
D=0.427419752553 He=0.664102564103 thetaW=0.000705294379894 S=3 Pi=0.00084358974359 K=4
Pi=0.000747435897436 thetaW=0.00141058875979 S=6 D=-1.25452343647 K=6 He=0.512820512821
K=4 Pi=0.000324358974359 D=-1.177330262 S=3 thetaW=0.000705294379894 He=0.310256410256
Pi=0.000824358974359 thetaW=0.000940392506526 S=4 K=5 He=0.637179487179 D=-0.294580067236
He=0.433333333333 D=-0.765246307642 K=4 thetaW=0.000705294379894 S=3 Pi=0.000457692307692
K=4 thetaW=0.000940392506526 S=4 He=0.560256410256 D=0.772996629147 Pi=0.00124487179487
He=0.144871794872 thetaW=0.000470196253263 D=-1.11593354129 Pi=0.000192307692308 K=3 S=2
K=7 Pi=0.00137948717949 He=0.638461538462 thetaW=0.00164568688642 D=-0.447891386832 S=7
S=5 Pi=0.00120641025641 thetaW=0.00117549063316 D=0.0669326570161 He=0.620512820513 K=5
D=-0.836027434374 Pi=9.74358974359e-05 K=2 thetaW=0.000235098126631 S=1 He=0.0974358974359
S=3 Pi=0.000620512820513 K=3 D=-0.262028401846 He=0.34358974359 thetaW=0.000705294379894
K=6 Pi=0.000908974358974 He=0.687179487179 D=-0.576935954975 S=5 thetaW=0.00117549063316
S=2 thetaW=0.000470196253263 D=2.06578335208 He=0.492307692308 Pi=0.000984615384615 K=2
S=4 D=-0.392224277271 Pi=0.000785897435897 K=5 thetaW=0.000940392506526 He=0.44358974359
S=10 K=8 Pi=0.00234615384615 D=-0.00612404681024 He=0.844871794872 thetaW=0.00235098126631
K=4 Pi=0.000197435897436 S=3 He=0.146153846154 thetaW=0.000705294379894 D=-1.56960248777
D=0.948575904479 K=5 Pi=0.00309871794872 He=0.762820512821 S=10 thetaW=0.00235098126631
K=6 He=0.688461538462 D=0.4537769453 Pi=0.00191538461538 S=7 thetaW=0.00164568688642
D=-1.17337795755 Pi=0.000478205128205 S=4 K=4 He=0.40641025641 thetaW=0.000940392506526
thetaW=0.000235098126631 D=0.3707934765 He=0.296153846154 Pi=0.000296153846154 K=2 S=1
thetaW=0.000940392506526 D=-1.0301664495 S=4 He=0.469230769231 K=5 Pi=0.000534615384615
He=0.188461538462 thetaW=0.000470196253263 K=3 S=2 D=-1.11593354129 Pi=0.000192307692308
Pi=0.002 D=0.180787603337 thetaW=0.00188078501305 K=6 S=8 He=0.694871794872
thetaW=0.000940392506526 S=4 K=5 He=0.494871794872 Pi=0.000558974358974 D=-0.968325116477
thetaW=0.000705294379894 Pi=0.00122948717949 K=3 D=1.62008581275 S=3 He=0.529487179487
thetaW=0.000940392506526 Pi=0.000719230769231 S=4 He=0.521794871795 D=-0.561474241331 K=4
thetaW=0.000705294379894 He=0.303846153846 S=3 K=3 D=-0.408635193298 Pi=0.000573076923077
Pi=0.000615384615385 S=2 thetaW=0.000470196253263 K=3 He=0.471794871795 D=0.583041498863
K=4 D=0.415532715408 thetaW=0.000705294379894 Pi=0.000839743589744 He=0.675641025641 S=3
S=4 K=4 He=0.591025641026 D=1.11149655727 thetaW=0.000940392506526 Pi=0.00137820512821
S=5 K=6 thetaW=0.00117549063316 D=-1.90075202359 Pi=0.000297435897436 He=0.279487179487
He=0.491025641026 thetaW=0.000940392506526 D=-0.818603994424 K=5 S=4 Pi=0.000617948717949
K=5 Pi=0.00166923076923 S=7 He=0.596153846154 thetaW=0.00164568688642 D=0.0396135008754
D=0.238066817995 He=0.702564102564 thetaW=0.00164568688642 S=7 Pi=0.00178717948718 K=7
Pi=0.00187948717949 He=0.653846153846 K=6 thetaW=0.00164568688642 S=7 D=0.393378109654
D=-0.394698578666 S=8 Pi=0.00162051282051 thetaW=0.00188078501305 K=8 He=0.762820512821
D=-1.79806608117 thetaW=0.00117549063316 He=0.235897435897 K=5 Pi=0.000344871794872 S=5
He=0.719230769231 D=2.02630377335 S=7 thetaW=0.00164568688642 K=5 Pi=0.00285
Pi=0.00113974358974 S=5 D=-0.0773827215337 K=6 thetaW=0.00117549063316 He=0.712820512821
thetaW=0.000470196253263 K=3 D=0.943430143743 S=2 He=0.608974358974 Pi=0.000705128205128
Pi=0.00121666666667 K=5 thetaW=0.00117549063316 He=0.517948717949 S=5 D=0.0891350229468
S=2 Pi=0.000470512820513 K=3 thetaW=0.000470196253263 He=0.439743589744 D=0.00127125784214
Pi=0.000505128205128 K=4 He=0.467948717949 thetaW=0.000705294379894 S=3 D=-0.61863951619
S=5 thetaW=0.00117549063316 D=-0.526980631631 He=0.383333333333 Pi=0.000932051282051 K=4
K=6 S=5 thetaW=0.00117549063316 He=0.684615384615 Pi=0.000878205128205 D=-0.643543052767
Pi=9.74358974359e-05 S=1 K=2 D=-0.836027434374 thetaW=0.000235098126631 He=0.0974358974359
He=0.817948717949 D=-0.469931076808 K=8 Pi=0.00177564102564 thetaW=0.00211588313968 S=9
S=3 He=0.273076923077 K=4 Pi=0.000284615384615 thetaW=0.000705294379894 D=-1.30016297916
He=0.414102564103 Pi=0.00106153846154 K=4 S=4 D=0.30755922798 thetaW=0.000940392506526
He=0.589743589744 S=6 Pi=0.000698717948718 D=-1.34668591049 thetaW=0.00141058875979 K=7
thetaW=0.000705294379894 Pi=0.00127051282051 D=1.74688087563 S=3 He=0.670512820513 K=3
Pi=0.00195384615385 K=4 D=1.02771045949 He=0.721794871795 S=6 thetaW=0.00141058875979
K=5 S=6 thetaW=0.00141058875979 Pi=0.00257820512821 D=2.20884532383 He=0.791025641026
Pi=0.00109487179487 S=5 He=0.726923076923 D=-0.174518072481 K=5 thetaW=0.00117549063316
S=2 Pi=0.000326923076923 K=3 thetaW=0.000470196253263 He=0.311538461538 D=-0.575350573966
He=0.670512820513 thetaW=0.000940392506526 Pi=0.000852564102564 S=4 K=5 D=-0.22297431321
He=0.583333333333 K=4 S=3 Pi=0.000658974358974 thetaW=0.000705294379894 D=-0.143158030398
thetaW=0.000705294379894 Pi=0.00070641025641 S=3 He=0.367948717949 K=3 D=0.00344876105474
K=3 Pi=0.000346153846154 D=-0.498124435777 S=2 He=0.337179487179 thetaW=0.000470196253263
D=-0.349200007574 K=4 thetaW=0.000705294379894 S=3 Pi=0.000592307692308 He=0.55
D=-1.09314096286 S=5 thetaW=0.00117549063316 Pi=0.000670512820513 K=5 He=0.511538461538
K=4 S=3 He=0.570512820513 Pi=0.000648717948718 thetaW=0.000705294379894 D=-0.174856796117
K=3 He=0.271794871795 thetaW=0.000470196253263 D=-0.755544896406 Pi=0.000282051282051 S=2
D=-1.56960248777 K=4 thetaW=0.000705294379894 S=3 He=0.191025641026 Pi=0.000197435897436
Pi=0.00106282051282 K=5 S=4 D=0.310814034981 thetaW=0.000940392506526 He=0.675641025641
S=1 thetaW=0.000235098126631 Pi=9.74358974359e-05 He=0.0974358974359 K=2 D=-0.836027434374
K=5 thetaW=0.00164568688642 He=0.515384615385 Pi=0.00111923076923 S=7 D=-0.88578294526
He=0.35 K=4 Pi=0.00112564102564 thetaW=0.00141058875979 D=-0.539051598737 S=6
K=5 D=0.0276458258799 He=0.510256410256 thetaW=0.000940392506526 Pi=0.000951282051282 S=4
Pi=0.000720512820513 S=3 He=0.614102564103 K=4 D=0.047034563919 thetaW=0.000705294379894
S=4 thetaW=0.000940392506526 He=0.639743589744 D=1.37513592436 Pi=0.00148205128205 K=3
K=3 He=0.598717948718 D=0.510629012566 S=3 Pi=0.000870512820513 thetaW=0.000705294379894
S=9 K=8 He=0.80641025641 thetaW=0.00211588313968 D=0.732392240136 Pi=0.00264615384615
D=-0.769208653357 S=3 Pi=0.00045641025641 K=4 He=0.420512820513 thetaW=0.000705294379894
Pi=0.000184615384615 S=1 thetaW=0.000235098126631 He=0.184615384615 K=2 D=-0.306583421861
thetaW=0.000235098126631 Pi=9.74358974359e-05 He=0.0974358974359 S=1 K=2 D=-0.836027434374
D=1.39530846549 Pi=0.00442307692308 K=6 He=0.641025641026 thetaW=0.00305627564621 S=13
S=4 He=0.585897435897 D=-0.636334802358 thetaW=0.000940392506526 Pi=0.000689743589744 K=5
thetaW=0.000705294379894 Pi=0.000488461538462 D=-0.670150010484 K=4 S=3 He=0.448717948718
Pi=0.000562820512821 He=0.537179487179 D=0.371956721147 thetaW=0.000470196253263 K=3 S=2
D=-0.302181676582 S=5 K=5 Pi=0.0010358974359 thetaW=0.00117549063316 He=0.430769230769
S=3 thetaW=0.000705294379894 D=1.36253334128 Pi=0.00114615384615 He=0.729487179487 K=4
Pi=0.000142307692308 S=1 K=2 He=0.142307692308 D=-0.563519486757 thetaW=0.000235098126631
He=0.811538461538 thetaW=0.00141058875979 K=5 S=6 Pi=0.00191923076923 D=0.962226596379
S=8 thetaW=0.00188078501305 K=8 D=-0.470522771566 Pi=0.00157051282051 He=0.730769230769
D=0.160573059767 K=2 He=0.261538461538 S=1 Pi=0.000261538461538 thetaW=0.000235098126631
thetaW=0.000705294379894 K=4 Pi=0.000823076923077 D=0.364022221114 S=3 He=0.637179487179
K=4 He=0.388461538462 S=4 D=-1.09526258952 Pi=0.000508974358974 thetaW=0.000940392506526
S=4 Pi=0.000946153846154 K=5 thetaW=0.000940392506526 D=0.0146265978753 He=0.644871794872
He=0.502564102564 Pi=0.000582051282051 K=5 thetaW=0.000940392506526 D=-0.909738590456 S=4
S=4 D=-1.01389241449 He=0.426923076923 Pi=0.000541025641026 thetaW=0.000940392506526 K=5
K=3 Pi=0.000766666666667 D=1.19055378595 He=0.639743589744 S=2 thetaW=0.000470196253263
S=4 He=0.587179487179 D=-0.629825188356 Pi=0.000692307692308 thetaW=0.000940392506526 K=5
K=4 Pi=0.00209487179487 He=0.684615384615 S=6 thetaW=0.00141058875979 D=1.29449656848
K=4 S=4 thetaW=0.000940392506526 Pi=0.000848717948718 D=-0.232738734213 He=0.352564102564
S=2 K=3 Pi=0.0001 He=0.0987179487179 thetaW=0.000470196253263 D=-1.48661900459
D=0.831269668082 S=7 Pi=0.00213974358974 thetaW=0.00164568688642 He=0.729487179487 K=6
D=-0.979529551291 S=11 thetaW=0.00258607939295 He=0.792307692308 Pi=0.00175128205128 K=9
K=3 thetaW=0.000470196253263 S=2 Pi=0.000147435897436 D=-1.29612786373 He=0.144871794872
K=4 thetaW=0.000705294379894 D=-0.440333959018 Pi=0.000562820512821 S=3 He=0.480769230769
thetaW=0.000705294379894 D=-0.999024704823 S=3 K=3 Pi=0.000382051282051 He=0.232051282051
D=-0.836027434374 He=0.0974358974359 K=2 thetaW=0.000235098126631 Pi=9.74358974359e-05 S=1
Pi=0.000376923076923 K=4 thetaW=0.000705294379894 He=0.352564102564 S=3 D=-1.01487408768
He=0.35641025641 thetaW=0.00117549063316 Pi=0.000558974358974 K=6 S=5 D=-1.33459169236
S=6 K=7 Pi=0.000902564102564 thetaW=0.00141058875979 He=0.664102564103 D=-0.961058716589
He=0.574358974359 K=5 D=-0.542803842846 S=7 Pi=0.00132307692308 thetaW=0.00164568688642
S=2 D=0.495518542249 Pi=0.00059358974359 K=3 He=0.537179487179 thetaW=0.000470196253263
S=3 Pi=0.000655128205128 D=-0.155045067543 He=0.575641025641 K=4 thetaW=0.000705294379894
thetaW=0.000705294379894 Pi=0.000419230769231 D=-0.88411667909 He=0.229487179487 K=3 S=3
thetaW=0.00141058875979 He=0.0974358974359 D=-1.56254012594 S=6 Pi=0.000584615384615 K=2
D=1.40632367744 Pi=0.000466666666667 K=2 thetaW=0.000235098126631 He=0.466666666667 S=1
thetaW=0.000705294379894 Pi=0.000870512820513 He=0.675641025641 D=0.510629012566 S=3 K=4
Pi=5e-05 thetaW=0.000235098126631 He=0.05 D=-1.12410726471 K=2 S=1
S=3 Pi=0.000751282051282 K=4 D=0.142130861077 He=0.608974358974 thetaW=0.000705294379894
K=3 Pi=0.00103974358974 S=5 D=-0.293855789358 He=0.347435897436 thetaW=0.00117549063316
S=1 He=0.0974358974359 D=-0.836027434374 K=2 Pi=9.74358974359e-05 thetaW=0.000235098126631
thetaW=0.000940392506526 D=-0.740488626396 S=4 He=0.557692307692 Pi=0.000648717948718 K=5
He=0.0987179487179 Pi=0.0001 S=2 thetaW=0.000470196253263 D=-1.48661900459 K=3
D=2.13608408746 thetaW=0.00305627564621 K=8 Pi=0.00514871794872 He=0.815384615385 S=13
D=0.685739174339 He=0.641025641026 Pi=0.00177307692308 S=6 thetaW=0.00141058875979 K=5
He=0.05 S=1 thetaW=0.000235098126631 Pi=5e-05 K=2 D=-1.12410726471
He=0.517948717949 D=-0.167225999969 Pi=0.00177051282051 thetaW=0.00188078501305 S=8 K=5
Pi=0.00132564102564 K=6 He=0.674358974359 S=6 thetaW=0.00141058875979 D=-0.160700389629
thetaW=0.000470196253263 D=0.73749377524 He=0.580769230769 Pi=0.000653846153846 S=2 K=3
thetaW=0.00164568688642 K=5 D=-1.02599452801 He=0.394871794872 S=7 Pi=0.0010358974359
Pi=0.00212948717949 D=-0.280986554081 K=9 thetaW=0.00235098126631 S=10 He=0.791025641026
He=0.541025641026 S=4 thetaW=0.000940392506526 Pi=0.00112564102564 D=0.470299578039 K=4
S=11 He=0.723076923077 D=-1.42781861763 K=8 Pi=0.00136923076923 thetaW=0.00258607939295
S=2 D=0.433737631698 K=3 Pi=0.000578205128205 thetaW=0.000470196253263 He=0.514102564103
thetaW=0.000940392506526 Pi=0.00152692307692 D=1.4890541694 K=3 He=0.511538461538 S=4
thetaW=0.00164568688642 S=7 K=5 He=0.771794871795 Pi=0.00252692307692 D=1.48271425254
He=0.142307692308 S=1 K=2 Pi=0.000142307692308 D=-0.563519486757 thetaW=0.000235098126631
Pi=0.00224487179487 D=1.57825997531 K=4 thetaW=0.00141058875979 He=0.616666666667 S=6
S=1 He=0.296153846154 D=0.3707934765 thetaW=0.000235098126631 Pi=0.000296153846154 K=2
thetaW=0.00141058875979 Pi=0.00118974358974 S=6 D=-0.417785185561 K=7 He=0.676923076923
Pi=0.000573076923077 thetaW=0.000705294379894 He=0.303846153846 K=3 S=3 D=-0.408635193298
K=7 D=-1.20116621468 He=0.64358974359 Pi=0.000775641025641 S=6 thetaW=0.00141058875979
S=4 He=0.676923076923 thetaW=0.000940392506526 K=5 D=0.229443859952 Pi=0.00103076923077
Pi=0.000147435897436 K=3 D=-1.29612786373 thetaW=0.000470196253263 S=2 He=0.144871794872
Pi=0.00395512820513 S=12 D=1.23794508357 thetaW=0.00282117751958 K=6 He=0.652564102564
D=-0.121787453395 He=0.555128205128 Pi=0.00111923076923 K=6 thetaW=0.00117549063316 S=5
S=6 D=1.08106768129 Pi=0.00198205128205 He=0.807692307692 K=7 thetaW=0.00141058875979
D=0.173829626797 S=3 thetaW=0.000705294379894 Pi=0.000761538461538 K=4 He=0.637179487179
He=0.733333333333 thetaW=0.00164568688642 S=7 D=1.39858730289 Pi=0.00247692307692 K=5
D=0.0424585315427 He=0.444871794872 thetaW=0.000470196253263 S=2 K=3 Pi=0.000480769230769
D=0.370446500082 He=0.755128205128 S=6 thetaW=0.00141058875979 K=6 Pi=0.00160641025641
thetaW=0.00235098126631 He=0.776923076923 D=1.55685151228 Pi=0.00357820512821 K=7 S=10
K=6 Pi=0.000710256410256 thetaW=0.00117549063316 D=-1.00710679488 S=5 He=0.579487179487
S=3 thetaW=0.000705294379894 Pi=0.000611538461538 He=0.561538461538 K=4 D=-0.28976482185
K=2 thetaW=0.000235098126631 Pi=0.000142307692308 He=0.142307692308 D=-0.563519486757 S=1
thetaW=0.000940392506526 He=0.685897435897 D=1.88614062355 K=4 S=4 Pi=0.00168333333333
S=1 K=2 thetaW=0.000235098126631 He=0.45 D=1.30510643976 Pi=0.00045
K=3 D=-0.937724401349 thetaW=0.00117549063316 S=5 Pi=0.000742307692308 He=0.337179487179
thetaW=0.000705294379894 D=-1.2843135963 He=0.275641025641 Pi=0.000289743589744 K=4 S=3
S=10 Pi=0.00168461538462 He=0.811538461538 thetaW=0.00235098126631 D=-0.845349216938 K=10
He=0.383333333333 D=-0.91581544481 K=4 Pi=0.000408974358974 S=3 thetaW=0.000705294379894
K=3 thetaW=0.000470196253263 S=2 D=-0.786435351681 He=0.267948717949 Pi=0.000274358974359
K=7 D=-0.035019714914 Pi=0.00185769230769 thetaW=0.00188078501305 He=0.778205128205 S=8
K=6 Pi=0.00106666666667 S=7 He=0.651282051282 thetaW=0.00164568688642 D=-0.974224097455
S=4 thetaW=0.000940392506526 K=5 D=-0.733979012393 He=0.571794871795 Pi=0.000651282051282
S=2 K=3 He=0.465384615385 thetaW=0.000470196253263 Pi=0.0005 D=0.119684669731
Pi=0.000466666666667 K=2 D=1.40632367744 thetaW=0.000235098126631 He=0.466666666667 S=1
D=-1.11870505372 K=5 S=6 He=0.45641025641 Pi=0.000819230769231 thetaW=0.00141058875979
K=4 He=0.191025641026 D=-1.56960248777 Pi=0.000197435897436 S=3 thetaW=0.000705294379894
thetaW=0.00141058875979 D=1.17323015531 He=0.791025641026 K=6 Pi=0.00203076923077 S=6
K=5 S=4 Pi=0.000997435897436 He=0.702564102564 thetaW=0.000940392506526 D=0.144818877922
K=3 He=0.562820512821 D=1.04158333837 S=3 thetaW=0.000705294379894 Pi=0.00104230769231
K=6 D=0.0406018562433 Pi=0.00143205128205 He=0.54358974359 thetaW=0.00141058875979 S=6
thetaW=0.000705294379894 Pi=0.0007 D=-0.0163629675199 S=3 He=0.567948717949 K=4
He=0.780769230769 D=0.799729602724 S=6 thetaW=0.00141058875979 K=6 Pi=0.00183333333333
He=0.337179487179 Pi=0.000346153846154 D=-0.498124435777 S=2 K=3 thetaW=0.000470196253263
Pi=0.00145 He=0.498717948718 D=1.29376574933 S=4 K=3 thetaW=0.000940392506526
S=4 D=-0.548455013327 Pi=0.000724358974359 He=0.415384615385 K=5 thetaW=0.000940392506526
thetaW=0.000470196253263 K=3 D=0.891946051617 He=0.6 S=2 Pi=0.000692307692308
K=6 D=0.564472761163 Pi=0.00170897435897 thetaW=0.00141058875979 S=6 He=0.733333333333
Pi=0.00112948717949 K=5 D=0.480063999042 S=4 He=0.701282051282 thetaW=0.000940392506526
He=0.742307692308 thetaW=0.00117549063316 D=1.70990773589 Pi=0.00196538461538 S=5 K=4
Pi=0.000142307692308 K=2 He=0.142307692308 D=-0.563519486757 thetaW=0.000235098126631 S=1
thetaW=0.00258607939295 K=9 He=0.842307692308 S=11 D=-0.588404862538 Pi=0.00208461538462
thetaW=0.000470196253263 D=-0.755544896406 S=2 K=3 Pi=0.000282051282051 He=0.271794871795
He=0.571794871795 K=5 thetaW=0.000940392506526 Pi=0.000673076923077 D=-0.678647293373 S=4
He=0.75641025641 thetaW=0.00188078501305 D=1.86252931764 K=5 S=8 Pi=0.00310897435897
thetaW=0.00164568688642 S=7 D=-0.795184691792 He=0.734615384615 K=8 Pi=0.00117307692308
D=2.04405680424 S=3 Pi=0.00136666666667 He=0.683333333333 K=3 thetaW=0.000705294379894
S=6 D=-0.97561068617 He=0.703846153846 Pi=0.000894871794872 thetaW=0.00141058875979 K=7
D=-0.285802476135 K=4 thetaW=0.000705294379894 Pi=0.000612820512821 S=3 He=0.561538461538
thetaW=0.000470196253263 S=2 Pi=0.000520512820513 He=0.475641025641 K=3 D=0.202059217132
thetaW=0.000235098126631 K=2 Pi=0.000184615384615 S=1 He=0.184615384615 D=-0.306583421861
K=7 He=0.779487179487 thetaW=0.00211588313968 S=9 D=0.932484338537 Pi=0.00279102564103
He=0.637179487179 S=4 D=1.02036196124 Pi=0.00134230769231 thetaW=0.000940392506526 K=4
D=-0.388681246399 Pi=0.00120512820513 thetaW=0.00141058875979 He=0.784615384615 S=6 K=7
He=0.626923076923 thetaW=0.000470196253263 D=1.21629583201 Pi=0.000773076923077 S=2 K=3
S=2 K=3 thetaW=0.000470196253263 He=0.0987179487179 D=-1.48661900459 Pi=0.0001
D=-0.216482939689 S=6 He=0.620512820513 K=6 Pi=0.00129615384615 thetaW=0.00141058875979
S=5 K=6 Pi=0.000471794871795 D=-1.52331180277 He=0.428205128205 thetaW=0.00117549063316
Pi=0.00195897435897 He=0.714102564103 S=5 D=1.69603125718 thetaW=0.00117549063316 K=4
S=1 He=0.261538461538 Pi=0.000261538461538 K=2 D=0.160573059767 thetaW=0.000235098126631
Pi=0.00102435897436 K=6 D=-0.327159338254 S=5 He=0.732051282051 thetaW=0.00117549063316
He=0.224358974359 thetaW=0.000705294379894 Pi=0.000673076923077 D=-0.0995722275335 K=2 S=3
S=6 He=0.521794871795 D=-0.963484044852 Pi=0.000901282051282 thetaW=0.00141058875979 K=7
thetaW=0.000470196253263 Pi=0.00039358974359 S=2 D=-0.307633294912 K=3 He=0.375641025641
D=-0.655467355386 thetaW=0.00141058875979 S=6 K=5 Pi=0.0010641025641 He=0.511538461538
S=6 D=-2.01122585469 Pi=0.000347435897436 thetaW=0.00141058875979 K=6 He=0.279487179487
S=4 thetaW=0.000940392506526 K=5 Pi=0.000916666666667 He=0.688461538462 D=-0.0602339631516
thetaW=0 He=0.0 Pi=0 S=0 K=1
K=3 He=0.396153846154 S=2 D=-0.251000793574 thetaW=0.000470196253263 Pi=0.000407692307692
Pi=0.00157307692308 D=-1.51413359748 S=13 He=0.534615384615 K=3 thetaW=0.00305627564621
K=3 Pi=0.000841025641026 He=0.471794871795 S=3 D=0.419495061123 thetaW=0.000705294379894
He=0.634615384615 K=5 S=5 thetaW=0.00117549063316 Pi=0.00125128205128 D=0.164068007963
S=4 Pi=0.00124358974359 D=0.769741822146 K=5 thetaW=0.000940392506526 He=0.705128205128
thetaW=0.000705294379894 Pi=0.000396153846154 He=0.376923076923 S=3 D=-0.955438901959 K=4
S=5 K=6 D=-0.951600880056 Pi=0.000735897435897 thetaW=0.00117549063316 He=0.533333333333
D=0.565442010512 Pi=0.000328205128205 S=1 He=0.328205128205 thetaW=0.000235098126631 K=2
He=0.0974358974359 K=2 Pi=0.000292307692308 D=-1.27638890487 S=3 thetaW=0.000705294379894
Pi=0.00115641025641 S=4 thetaW=0.000940392506526 He=0.514102564103 D=0.548414946067 K=3
thetaW=0 He=0.0 S=0 Pi=0 K=1
He=0.583333333333 thetaW=0.00164568688642 S=7 D=0.665172870058 Pi=0.00204102564103 K=5
Pi=0.000532051282051 S=3 D=-0.535430256176 K=4 He=0.491025641026 thetaW=0.000705294379894
He=0.542307692308 D=-0.31353889614 S=3 Pi=0.000603846153846 thetaW=0.000705294379894 K=4
D=-0.405243505275 He=0.630769230769 thetaW=0.000940392506526 S=4 K=5 Pi=0.000780769230769
thetaW=0.000705294379894 He=0.467948717949 K=4 Pi=0.00055641025641 S=3 D=-0.460145687592
D=-0.349200007574 K=4 He=0.5 S=3 thetaW=0.000705294379894 Pi=0.000592307692308
thetaW=0.00117549063316 He=0.642307692308 S=5 Pi=0.00184487179487 K=4 D=1.4490299362
S=2 D=-1.48661900459 He=0.0987179487179 thetaW=0.000470196253263 Pi=0.0001 K=3
S=2 thetaW=0.000470196253263 D=0.289582173746 Pi=0.000542307692308 K=3 He=0.521794871795
thetaW=0.000940392506526 K=4 He=0.644871794872 S=4 D=0.261991929964 Pi=0.00104358974359
He=0.555128205128 S=6 D=0.443206347987 Pi=0.00164487179487 thetaW=0.00141058875979 K=5
D=2.65905887943 thetaW=0.00117549063316 S=5 K=2 Pi=0.00240384615385 He=0.480769230769
Pi=0.00202820512821 D=1.84589722722 thetaW=0.00117549063316 K=4 S=5 He=0.665384615385
K=2 D=0.160573059767 thetaW=0.000235098126631 Pi=0.000261538461538 S=1 He=0.261538461538
S=6 D=-1.25694876474 Pi=0.000746153846154 He=0.491025641026 K=5 thetaW=0.00141058875979
He=0.753846153846 thetaW=0.000940392506526 S=4 Pi=0.00107435897436 K=5 D=0.340107297992
D=0.227801263195 K=3 He=0.488461538462 S=2 thetaW=0.000470196253263 Pi=0.000526923076923
thetaW=0.000940392506526 He=0.573076923077 K=5 Pi=0.000675641025641 D=-0.672137679371 S=4
He=0.376923076923 D=-0.955438901959 Pi=0.000396153846154 K=4 S=3 thetaW=0.000705294379894
He=0.462820512821 K=5 Pi=0.000973076923077 D=-0.827665662095 S=6 thetaW=0.00141058875979
S=5 K=4 thetaW=0.00117549063316 He=0.388461538462 Pi=0.00126794871795 D=0.2001468526
Pi=0.0002 K=5 D=-1.8796710768 thetaW=0.000940392506526 He=0.192307692308 S=4
S=7 Pi=0.00128333333333 He=0.782051282051 D=-0.609673982311 K=8 thetaW=0.00164568688642
thetaW=0.00235098126631 Pi=0.00354743589744 He=0.721794871795 K=5 D=1.51781778344 S=10
S=3 Pi=0.000428205128205 K=4 thetaW=0.000705294379894 D=-0.856380259086 He=0.376923076923
K=1 Pi=0 He=0.0 thetaW=0 S=0
Pi=0.000239743589744 D=-0.925442400421 thetaW=0.000470196253263 S=2 He=0.232051282051 K=3
He=0.0987179487179 D=-1.48661900459 K=3 Pi=0.0001 thetaW=0.000470196253263 S=2
Pi=0.00211794871795 thetaW=0.00141058875979 He=0.648717948718 K=5 D=1.33815247722 S=6
thetaW=0.000940392506526 Pi=0.00122435897436 K=4 S=4 D=0.720919717129 He=0.621794871795
Pi=0.00125 He=0.762820512821 thetaW=0.00141058875979 D=-0.303794757176 K=6 S=6
K=5 S=4 thetaW=0.000940392506526 He=0.60641025641 Pi=0.000720512820513 D=-0.55821943433
thetaW=0.000705294379894 Pi=0.000419230769231 S=3 K=3 He=0.229487179487 D=-0.88411667909
Pi=0.00349102564103 thetaW=0.00188078501305 He=0.59358974359 K=3 D=2.44190391979 S=8
thetaW=0.000470196253263 He=0.601282051282 D=0.886797642404 Pi=0.000691025641026 S=2 K=3
S=2 D=-0.575350573966 He=0.311538461538 Pi=0.000326923076923 thetaW=0.000470196253263 K=3
He=0.680769230769 D=1.84955016516 S=2 Pi=0.000930769230769 thetaW=0.000470196253263 K=3
D=-0.532018336481 thetaW=0.00164568688642 He=0.574358974359 S=7 Pi=0.00132948717949 K=5
K=5 Pi=0.00100256410256 S=4 D=0.157838105927 He=0.696153846154 thetaW=0.000940392506526
K=5 D=-0.532018336481 thetaW=0.00164568688642 S=7 Pi=0.00132948717949 He=0.611538461538
D=0.59614562932 thetaW=0.00164568688642 S=7 K=7 Pi=0.002 He=0.794871794872
K=4 He=0.516666666667 D=-0.376936427579 Pi=0.000583333333333 S=3 thetaW=0.000705294379894
K=4 thetaW=0.00117549063316 D=-0.0274273981895 He=0.685897435897 S=5 Pi=0.00116282051282
K=8 He=0.802564102564 S=9 D=0.413661463921 Pi=0.00241538461538 thetaW=0.00211588313968
K=5 He=0.458974358974 thetaW=0.000940392506526 S=4 D=-0.899974169453 Pi=0.000585897435897
K=5 Pi=0.000785897435897 D=-0.843364346144 S=5 thetaW=0.00117549063316 He=0.525641025641
thetaW=0.000705294379894 D=-0.31353889614 K=4 S=3 Pi=0.000603846153846 He=0.542307692308
D=-0.155045067543 Pi=0.000655128205128 thetaW=0.000705294379894 He=0.567948717949 K=4 S=3
Pi=0.00190897435897 He=0.678205128205 D=2.45898665575 K=3 S=4 thetaW=0.000940392506526
D=0.886797642404 Pi=0.000691025641026 He=0.601282051282 thetaW=0.000470196253263 K=3 S=2
Pi=0.0012858974359 D=-0.235885565798 S=6 K=5 He=0.708974358974 thetaW=0.00141058875979
thetaW=0 He=0.0 S=0 Pi=0 K=1
S=2 D=-0.307633294912 thetaW=0.000470196253263 Pi=0.00039358974359 He=0.375641025641 K=3
S=7 K=7 thetaW=0.00164568688642 D=-0.551432247938 He=0.652564102564 Pi=0.00131794871795
K=4 Pi=0.000955128205128 D=0.0374102468834 thetaW=0.000940392506526 He=0.483333333333 S=4
K=6 He=0.397435897436 D=-1.27406117441 S=7 thetaW=0.00164568688642 Pi=0.000888461538462
He=0.5 Pi=0.000626923076923 D=-0.795820345415 K=4 S=4 thetaW=0.000940392506526
He=0.579487179487 S=4 D=0.0113717908741 K=5 Pi=0.000944871794872 thetaW=0.000940392506526
Pi=0.000833333333333 He=0.660256410256 K=5 D=-0.271796418227 S=4 thetaW=0.000940392506526
K=6 Pi=0.00191666666667 He=0.744871794872 S=6 D=0.957375939852 thetaW=0.00141058875979
K=3 D=0.825073541166 Pi=0.00126538461538 He=0.55 thetaW=0.000940392506526 S=4
K=1 Pi=0 He=0.0 S=0 thetaW=0
S=3 He=0.455128205128 thetaW=0.000705294379894 K=4 D=0.399683332548 Pi=0.000834615384615
Pi=0.00233974358974 D=1.75773426681 thetaW=0.00141058875979 K=6 He=0.771794871795 S=6
He=0.719230769231 S=7 Pi=0.00236538461538 thetaW=0.00164568688642 K=5 D=1.21091949214
thetaW=0.00141058875979 D=-1.5916440651 He=0.276923076923 S=6 K=5 Pi=0.000569230769231
S=3 He=0.367948717949 thetaW=0.000705294379894 Pi=0.00070641025641 D=0.00344876105474 K=3
Pi=0.00413076923077 K=7 thetaW=0.00305627564621 S=13 D=1.09690415134 He=0.817948717949
He=0.579487179487 thetaW=0.000705294379894 K=4 Pi=0.000666666666667 D=-0.119383956108 S=3
He=0.421794871795 Pi=0.000434615384615 D=-0.14288420011 S=2 K=3 thetaW=0.000470196253263
He=0.492307692308 S=3 K=2 thetaW=0.000705294379894 D=2.38481853573 Pi=0.00147692307692
thetaW=0.000470196253263 K=3 Pi=0.0001 S=2 He=0.0987179487179 D=-1.48661900459
D=-1.3165894656 K=5 He=0.389743589744 Pi=0.000421794871795 thetaW=0.000940392506526 S=4
thetaW=0.00211588313968 D=-0.230882994646 Pi=0.00194871794872 He=0.635897435897 S=9 K=6
D=-0.143723091784 thetaW=0.00141058875979 S=6 He=0.744871794872 Pi=0.00133461538462 K=6
D=-1.12410726471 He=0.05 Pi=5e-05 thetaW=0.000235098126631 S=1 K=2
He=0.421794871795 S=2 Pi=0.000458974358974 D=-0.045064425071 K=3 thetaW=0.000470196253263
thetaW=0.00164568688642 Pi=0.00214743589744 K=7 D=0.84421227572 S=7 He=0.797435897436
K=5 He=0.451282051282 Pi=0.00139230769231 thetaW=0.00164568688642 S=7 D=-0.426320374102
Pi=0.000623076923077 thetaW=0.000470196253263 K=3 S=2 He=0.526923076923 D=0.613931954138
thetaW=0.00117549063316 K=4 D=0.388866963012 Pi=0.00135512820513 S=5 He=0.560256410256
D=1.23688946886 thetaW=0.000470196253263 Pi=0.000778205128205 S=2 He=0.644871794872 K=3
thetaW=0.00164568688642 K=6 S=7 D=0.220810007811 He=0.739743589744 Pi=0.00177692307692
thetaW=0.000940392506526 He=0.733333333333 K=4 S=4 Pi=0.00154871794872 D=1.54438588842
thetaW=0.00188078501305 Pi=0.00152051282051 K=7 D=-0.546346964465 S=8 He=0.757692307692
thetaW=0.00164568688642 He=0.662820512821 D=1.1095357323 Pi=0.00230512820513 K=5 S=7
K=3 Pi=0.00100256410256 He=0.537179487179 D=0.918750621204 thetaW=0.000705294379894 S=3
D=-0.388215844564 Pi=0.000996153846154 K=4 S=5 He=0.60641025641 thetaW=0.00117549063316
He=0.5 thetaW=0.00141058875979 Pi=0.000762820512821 K=6 D=-1.22541949731 S=6
Pi=0.00158333333333 S=6 thetaW=0.00141058875979 D=0.326790591338 K=6 He=0.7
thetaW=0.000705294379894 D=-0.155045067543 S=3 K=4 Pi=0.000655128205128 He=0.575641025641
D=-1.29612786373 S=2 K=3 thetaW=0.000470196253263 Pi=0.000147435897436 He=0.144871794872
D=-0.0605096527087 S=2 He=0.432051282051 K=3 Pi=0.000455128205128 thetaW=0.000470196253263
He=0.421794871795 D=0.352135183969 K=3 S=3 thetaW=0.000705294379894 Pi=0.000819230769231
Pi=0.000820512820513 K=6 He=0.628205128205 D=-0.768431361128 S=5 thetaW=0.00117549063316
K=1 thetaW=0 S=0 He=0.0 Pi=0
S=3 D=-1.27638890487 He=0.189743589744 Pi=0.000292307692308 K=3 thetaW=0.000705294379894
He=0.65 thetaW=0.000705294379894 S=3 D=0.268925923955 Pi=0.000792307692308 K=4
thetaW=0.000470196253263 He=0.573076923077 K=3 D=0.73749377524 S=2 Pi=0.000653846153846
Pi=0.000274358974359 K=3 thetaW=0.000470196253263 S=2 He=0.229487179487 D=-0.786435351681
D=0.712708644028 K=4 He=0.714102564103 Pi=0.000935897435897 thetaW=0.000705294379894 S=3
D=0.206419279167 K=10 S=12 Pi=0.00301025641026 He=0.837179487179 thetaW=0.00282117751958
He=0.360256410256 thetaW=0.00141058875979 K=7 Pi=0.000474358974359 S=6 D=-1.7711183566
thetaW=0.000705294379894 Pi=0.000505128205128 He=0.467948717949 K=4 D=-0.61863951619 S=3
He=0.585897435897 D=-0.636334802358 thetaW=0.000940392506526 S=4 Pi=0.000689743589744 K=5
Pi=0.00471025641026 He=0.753846153846 D=2.49245422426 S=11 K=5 thetaW=0.00258607939295
thetaW=0.000705294379894 S=3 K=3 Pi=0.000396153846154 He=0.337179487179 D=-0.955438901959
He=0.397435897436 S=7 D=-1.70548142902 thetaW=0.00164568688642 K=6 Pi=0.000632051282051
S=3 thetaW=0.000705294379894 D=-0.539392601891 Pi=0.000530769230769 He=0.479487179487 K=4
S=3 Pi=0.000607692307692 D=-0.301651858995 K=4 thetaW=0.000705294379894 He=0.55
He=0.394871794872 Pi=0.000903846153846 S=7 K=5 thetaW=0.00164568688642 D=-1.24817595913
K=2 Pi=0.000357692307692 D=0.744518661804 S=1 thetaW=0.000235098126631 He=0.357692307692
D=1.17808081183 Pi=0.00203333333333 K=6 He=0.755128205128 S=6 thetaW=0.00141058875979
K=5 He=0.726923076923 D=-0.150999076574 thetaW=0.00141058875979 Pi=0.00133076923077 S=6
Pi=0.00126666666667 K=9 S=9 thetaW=0.00211588313968 He=0.766666666667 D=-1.17290951101
D=-1.43092038775 Pi=0.000242307692308 K=4 S=3 He=0.233333333333 thetaW=0.000705294379894
He=0.0 Pi=0 K=1 S=0 thetaW=0
Pi=0.00131666666667 K=5 D=0.305608090771 thetaW=0.00117549063316 He=0.525641025641 S=5
S=7 D=0.533589692402 thetaW=0.00164568688642 He=0.611538461538 K=4 Pi=0.00196282051282
K=3 D=-0.946036037271 Pi=0.000234615384615 thetaW=0.000470196253263 He=0.229487179487 S=2
Pi=0.0001 He=0.0987179487179 thetaW=0.000470196253263 D=-1.48661900459 K=3 S=2
Pi=0.000324358974359 K=4 D=-1.177330262 thetaW=0.000705294379894 He=0.310256410256 S=3
D=0.0724832484987 S=5 He=0.783333333333 K=6 thetaW=0.00117549063316 Pi=0.00120897435897
Pi=0.000332051282051 thetaW=0.000705294379894 D=-1.15355618771 K=4 He=0.314102564103 S=3
D=-0.11068627043 thetaW=0.00117549063316 K=6 Pi=0.00112435897436 He=0.702564102564 S=5
He=0.383333333333 thetaW=0.000705294379894 D=-0.91581544481 Pi=0.000408974358974 K=4 S=3
thetaW=0.00141058875979 D=0.511115539365 He=0.696153846154 S=6 Pi=0.00168076923077 K=5
K=2 S=1 thetaW=0.000235098126631 Pi=0.000480769230769 He=0.480769230769 D=1.49196903241
thetaW=0.00117549063316 D=0.247326880203 Pi=0.00128974358974 K=5 S=5 He=0.720512820513
He=0.521794871795 thetaW=0.000940392506526 D=1.4890541694 K=3 Pi=0.00152692307692 S=4
Pi=0.000819230769231 D=0.352135183969 S=3 thetaW=0.000705294379894 He=0.665384615385 K=4
Pi=0 thetaW=0 S=0 K=1 He=0.0
He=0.653846153846 D=-0.383178348641 Pi=0.00141794871795 thetaW=0.00164568688642 S=7 K=6
Pi=0.000514102564103 thetaW=0.000940392506526 S=4 D=-1.08224336152 K=5 He=0.357692307692
D=0.96081596309 thetaW=0.00211588313968 K=7 S=9 He=0.673076923077 Pi=0.00281153846154
D=0.270221266757 S=8 Pi=0.00205897435897 thetaW=0.00188078501305 He=0.846153846154 K=8
K=5 He=0.389743589744 D=-1.3165894656 thetaW=0.000940392506526 Pi=0.000421794871795 S=4
K=4 He=0.544871794872 thetaW=0.000705294379894 Pi=0.000597435897436 S=3 D=-0.333350624715
Pi=0.000719230769231 K=4 D=-0.561474241331 thetaW=0.000940392506526 He=0.580769230769 S=4
Pi=0.000997435897436 thetaW=0.000705294379894 He=0.478205128205 D=0.902901238344 K=3 S=3
Pi=0.000644871794872 S=3 D=-0.186743833262 He=0.542307692308 K=4 thetaW=0.000705294379894
He=0.598717948718 D=-0.846139641885 thetaW=0.00117549063316 Pi=0.000784615384615 K=4 S=5
Pi=0.00120384615385 He=0.552564102564 S=6 D=-0.391106574663 K=4 thetaW=0.00141058875979
K=6 S=5 thetaW=0.00117549063316 Pi=0.001 He=0.712820512821 D=-0.37988995734
K=5 Pi=0.00110897435897 D=0.427987087024 S=4 He=0.716666666667 thetaW=0.000940392506526
K=5 D=-1.17663276455 thetaW=0.000940392506526 He=0.430769230769 S=4 Pi=0.000476923076923
D=-1.25474813258 K=5 Pi=0.000446153846154 S=4 thetaW=0.000940392506526 He=0.384615384615
K=3 thetaW=0.000940392506526 D=2.08468385062 He=0.680769230769 S=4 Pi=0.00176153846154
thetaW=0.000705294379894 D=-0.682037047629 He=0.433333333333 S=3 K=4 Pi=0.000484615384615
D=0.385674596008 K=5 S=4 thetaW=0.000940392506526 He=0.65641025641 Pi=0.00109230769231
K=2 D=-1.12410726471 thetaW=0.000235098126631 He=0.05 Pi=5e-05 S=1
thetaW=0.00141058875979 He=0.776923076923 K=7 Pi=0.00116538461538 S=6 D=-0.463866422568
He=0.570512820513 K=4 Pi=0.000732051282051 thetaW=0.000705294379894 D=0.0826956753534 S=3
D=-0.901645556712 K=6 thetaW=0.00117549063316 S=5 He=0.626923076923 Pi=0.000758974358974
thetaW=0.00117549063316 S=5 He=0.641025641026 K=4 D=0.408294033201 Pi=0.0013641025641
Pi=0 S=0 He=0.0 thetaW=0 K=1
thetaW=0.000940392506526 Pi=0.00125512820513 D=0.799035085157 K=4 He=0.65 S=4
D=0.0648551388785 Pi=0.00144487179487 thetaW=0.00141058875979 S=6 He=0.79358974359 K=7
S=4 Pi=0.00131538461538 He=0.615384615385 thetaW=0.000940392506526 D=0.952011014211 K=5
thetaW=0.000705294379894 S=3 Pi=0.00055 K=4 D=-0.479957416167 He=0.467948717949
thetaW=0.000235098126631 He=0.184615384615 D=-0.306583421861 K=2 S=1 Pi=0.000184615384615
D=-0.817964349041 Pi=0.000978205128205 thetaW=0.00141058875979 K=6 S=6 He=0.698717948718
K=5 He=0.355128205128 thetaW=0.000940392506526 S=4 D=-1.41748848264 Pi=0.000382051282051
Pi=0.000915384615385 thetaW=0.000705294379894 He=0.688461538462 D=0.649311112589 K=4 S=3
K=4 thetaW=0.000705294379894 D=-0.28976482185 He=0.55641025641 S=3 Pi=0.000611538461538
D=0.980004955917 thetaW=0.00117549063316 K=5 S=5 Pi=0.00162820512821 He=0.714102564103
K=3 He=0.232051282051 D=-0.925442400421 Pi=0.000239743589744 thetaW=0.000470196253263 S=2
thetaW=0.000940392506526 K=5 He=0.737179487179 Pi=0.00134743589744 S=4 D=1.03338118924
S=4 He=0.278205128205 K=5 Pi=0.000294871794872 thetaW=0.000940392506526 D=-1.63881535872
thetaW=0.000470196253263 He=0.396153846154 K=3 D=-0.251000793574 Pi=0.000407692307692 S=2
Pi=0.000551282051282 K=3 thetaW=0.000470196253263 D=0.325621038234 S=2 He=0.529487179487
Pi=0.00115128205128 He=0.534615384615 D=-0.0524050598616 K=5 thetaW=0.00117549063316 S=5
Pi=0.000578205128205 thetaW=0.000705294379894 He=0.529487179487 K=4 S=3 D=-0.392785810439
D=1.26308512153 He=0.662820512821 thetaW=0.00117549063316 Pi=0.00175897435897 S=5 K=5
S=5 D=1.7709642422 K=4 thetaW=0.00117549063316 He=0.65 Pi=0.00199358974359
Pi=0.00112948717949 D=-1.13933103714 thetaW=0.00188078501305 S=8 K=7 He=0.398717948718
Pi=0.00156538461538 K=6 D=0.292835995649 S=6 thetaW=0.00141058875979 He=0.75
He=0.344871794872 thetaW=0.000705294379894 D=-1.06242223626 Pi=0.000361538461538 K=4 S=3
D=0.510629012566 K=4 thetaW=0.000705294379894 He=0.616666666667 S=3 Pi=0.000870512820513
S=11 D=-1.22022166745 Pi=0.00154615384615 thetaW=0.00258607939295 He=0.752564102564 K=7
K=3 Pi=0.0001 D=-1.48661900459 He=0.0987179487179 thetaW=0.000470196253263 S=2
S=1 He=0.05 Pi=5e-05 thetaW=0.000235098126631 K=2 D=-1.12410726471
