S=10 Pi=0.00196538461538 K=9 He=0.737179487179 D=-0.489166441244 thetaW=0.00235098126631
thetaW=0.00164568688642 Pi=0.00101282051282 S=7 D=-1.06482235092 He=0.59358974359 K=7
K=10 D=0.010114577435 thetaW=0.00423176627937 Pi=0.00424487179487 He=0.857692307692 S=18
thetaW=0.00188078501305 D=0.826265348017 K=7 Pi=0.00242564102564 He=0.834615384615 S=8
He=0.870512820513 thetaW=0.00540725691252 D=-1.33337947625 Pi=0.00326025641026 S=23 K=12
Pi=0.00207564102564 K=9 D=-0.0555810677284 S=9 thetaW=0.00211588313968 He=0.769230769231
He=0.279487179487 K=6 thetaW=0.00117549063316 D=-1.90075202359 S=5 Pi=0.000297435897436
He=0.639743589744 thetaW=0.00141058875979 K=5 D=0.222501476007 Pi=0.00152820512821 S=6
Pi=0.00262692307692 S=12 He=0.746153846154 thetaW=0.00282117751958 K=9 D=-0.212069480012
He=0.773076923077 K=9 thetaW=0.00305627564621 Pi=0.00353205128205 S=13 D=0.485698823669
S=10 He=0.837179487179 Pi=0.00203076923077 thetaW=0.00235098126631 D=-0.406219767453 K=8
D=1.28315471549 He=0.617948717949 thetaW=0.00188078501305 K=4 S=8 Pi=0.00272692307692
thetaW=0.00164568688642 He=0.771794871795 D=0.00725698177974 K=6 S=7 Pi=0.00165
thetaW=0.00211588313968 D=-0.416809280772 K=9 He=0.832051282051 Pi=0.0018141025641 S=9
D=0.0825912413955 S=13 Pi=0.00313717948718 thetaW=0.00305627564621 He=0.869230769231 K=9
Pi=0.0024641025641 He=0.846153846154 thetaW=0.00188078501305 D=0.884591650248 K=7 S=8
Pi=0.00250512820513 He=0.805128205128 K=10 thetaW=0.00282117751958 S=12 D=-0.345034135939
thetaW=0.00235098126631 S=10 He=0.74358974359 D=0.729011179736 Pi=0.00292564102564 K=6
K=9 He=0.726923076923 thetaW=0.00423176627937 S=18 Pi=0.00272948717949 D=-1.15942927062
K=7 S=10 Pi=0.00118974358974 thetaW=0.00235098126631 He=0.687179487179 D=-1.47314168917
S=6 Pi=0.00115384615385 He=0.55 D=-0.48569437694 K=5 thetaW=0.00141058875979
D=-1.02770993518 S=9 K=8 He=0.753846153846 thetaW=0.00211588313968 Pi=0.00137179487179
S=11 thetaW=0.00258607939295 D=0.593995158079 K=7 He=0.805128205128 Pi=0.00309230769231
K=11 thetaW=0.00282117751958 S=12 Pi=0.00233205128205 D=-0.53398391015 He=0.821794871795
S=13 Pi=0.00167051282051 thetaW=0.00305627564621 D=-1.41466549276 K=12 He=0.80641025641
thetaW=0.00352647189947 He=0.860256410256 Pi=0.00408846153846 D=0.507984876526 S=15 K=9
He=0.84358974359 S=16 K=8 Pi=0.00393461538462 thetaW=0.0037615700261 D=0.147962279114
Pi=0.00176923076923 S=13 D=-1.31388859719 thetaW=0.00305627564621 K=11 He=0.852564102564
D=-0.0103329090636 S=13 K=10 Pi=0.00304615384615 thetaW=0.00305627564621 He=0.80641025641
He=0.614102564103 D=-0.0914018070698 thetaW=0.00188078501305 S=8 Pi=0.00182051282051 K=6
He=0.842307692308 S=15 thetaW=0.00352647189947 Pi=0.00367564102564 K=11 D=0.134834621284
thetaW=0.00141058875979 K=7 Pi=0.00103076923077 S=6 D=-0.718525890237 He=0.737179487179
He=0.801282051282 thetaW=0.00258607939295 D=1.01971933853 Pi=0.00345512820513 K=7 S=11
Pi=0.00150897435897 D=-0.838242195989 K=9 He=0.770512820513 thetaW=0.00211588313968 S=9
K=7 He=0.748717948718 S=9 thetaW=0.00211588313968 Pi=0.00218333333333 D=0.0931599611718
K=8 thetaW=0.00235098126631 D=-0.554222655983 He=0.765384615385 S=10 Pi=0.0019141025641
K=6 S=11 thetaW=0.00258607939295 Pi=0.00360641025641 D=1.1972297742 He=0.735897435897
Pi=0.00295256410256 thetaW=0.00329137377284 K=10 S=14 He=0.867948717949 D=-0.32484144371
D=-0.642754885757 K=10 Pi=0.00281538461538 He=0.835897435897 S=15 thetaW=0.00352647189947
D=-0.803460165095 He=0.847435897436 thetaW=0.00305627564621 K=11 Pi=0.00226923076923 S=13
S=12 D=-1.07563992956 He=0.811538461538 K=11 thetaW=0.00282117751958 Pi=0.0018358974359
S=16 D=-0.901117201084 thetaW=0.0037615700261 Pi=0.00270769230769 He=0.857692307692 K=11
D=0.164725374712 thetaW=0.00164568688642 K=8 Pi=0.00174358974359 He=0.79358974359 S=7
S=9 K=6 thetaW=0.00211588313968 Pi=0.00208717948718 He=0.642307692308 D=-0.0396445289176
S=8 thetaW=0.00188078501305 D=-1.45234885911 Pi=0.000923076923077 He=0.467948717949 K=7
D=0.886638466329 Pi=0.00363333333333 He=0.839743589744 S=12 thetaW=0.00282117751958 K=9
K=8 S=12 He=0.824358974359 D=0.54093036092 thetaW=0.00282117751958 Pi=0.00331666666667
thetaW=0.00305627564621 S=13 Pi=0.00240128205128 He=0.820512820513 K=12 D=-0.668654707387
K=10 thetaW=0.00329137377284 He=0.846153846154 S=14 Pi=0.00247692307692 D=-0.780873047917
K=10 He=0.702564102564 thetaW=0.00305627564621 Pi=0.00191923076923 D=-1.16076006756 S=13
Pi=0.00104102564103 He=0.50641025641 K=7 thetaW=0.00211588313968 S=9 D=-1.48455738109
D=1.37629944185 He=0.915384615385 Pi=0.00794487179487 thetaW=0.00564235503915 K=12 S=24
D=-0.507116334033 Pi=0.00174871794872 thetaW=0.00211588313968 S=9 He=0.857692307692 K=10
thetaW=0.00352647189947 K=12 Pi=0.00344615384615 S=15 D=-0.0725998373751 He=0.869230769231
S=9 Pi=0.00240256410256 thetaW=0.00211588313968 K=8 He=0.760256410256 D=0.395954198576
D=-0.894360567771 Pi=0.00129102564103 thetaW=0.00188078501305 He=0.803846153846 S=8 K=9
D=-1.40568781732 K=4 S=8 thetaW=0.00188078501305 He=0.315384615385 Pi=0.000953846153846
Pi=0.00202948717949 D=-0.407846172821 He=0.857692307692 thetaW=0.00235098126631 S=10 K=10
thetaW=0.00211588313968 He=0.717948717949 Pi=0.00206153846154 D=-0.0750590596082 K=6 S=9
K=8 thetaW=0.00164568688642 Pi=0.00105256410256 S=7 He=0.687179487179 D=-0.997952211458
thetaW=0.00141058875979 Pi=0.00130769230769 S=6 D=-0.194654985318 K=7 He=0.778205128205
S=7 D=0.591831426774 Pi=0.00199743589744 thetaW=0.00164568688642 K=8 He=0.783333333333
K=7 D=1.08522764544 S=16 Pi=0.00503076923077 thetaW=0.0037615700261 He=0.779487179487
K=9 Pi=0.00206025641026 S=11 He=0.787179487179 D=-0.616987051331 thetaW=0.00258607939295
Pi=0.00409102564103 S=12 K=9 He=0.857692307692 D=1.38630564702 thetaW=0.00282117751958
He=0.615384615385 Pi=0.00108974358974 D=-0.93539627454 S=7 thetaW=0.00164568688642 K=7
K=8 S=7 He=0.742307692308 thetaW=0.00164568688642 Pi=0.00118205128205 D=-0.780084982881
D=-0.640422140512 K=8 Pi=0.00184615384615 S=10 thetaW=0.00235098126631 He=0.825641025641
D=0.981104011848 thetaW=0.00235098126631 He=0.761538461538 K=8 Pi=0.00312435897436 S=10
S=5 He=0.742307692308 K=6 thetaW=0.00117549063316 D=-0.0218768067068 Pi=0.00116538461538
He=0.820512820513 Pi=0.00147051282051 D=0.113361704149 K=7 thetaW=0.00141058875979 S=6
D=-1.491884153 S=13 thetaW=0.00305627564621 Pi=0.00159487179487 K=11 He=0.682051282051
Pi=0.00418205128205 He=0.785897435897 K=8 S=14 D=0.853957231317 thetaW=0.00329137377284
S=18 He=0.828205128205 Pi=0.0038141025641 D=-0.322344587494 thetaW=0.00423176627937 K=12
thetaW=0.00399666815273 K=11 Pi=0.00328974358974 S=17 D=-0.573499518061 He=0.85
K=4 He=0.275641025641 S=8 D=-0.791317433831 thetaW=0.00188078501305 Pi=0.00135897435897
D=-0.476599163908 Pi=0.00238461538462 He=0.733333333333 S=12 thetaW=0.00282117751958 K=10
He=0.146153846154 D=-2.00343796602 thetaW=0.00117549063316 S=5 Pi=0.00025 K=4
Pi=0.00270256410256 K=8 He=0.841025641026 D=0.810304207655 S=9 thetaW=0.00211588313968
Pi=0.00104743589744 D=-1.00658061655 K=8 S=7 He=0.651282051282 thetaW=0.00164568688642
D=-1.68606751756 K=7 S=7 Pi=0.00064358974359 He=0.494871794872 thetaW=0.00164568688642
K=8 thetaW=0.0037615700261 He=0.789743589744 D=0.106306040611 Pi=0.0038858974359 S=16
D=-0.887635756518 S=10 Pi=0.00165128205128 thetaW=0.00235098126631 He=0.725641025641 K=9
D=0.426229050142 S=6 thetaW=0.00141058875979 He=0.765384615385 Pi=0.0016358974359 K=6
S=11 thetaW=0.00258607939295 He=0.784615384615 Pi=0.00288076923077 K=7 D=0.345781413293
thetaW=0.0037615700261 S=16 D=0.272930994624 K=6 He=0.771794871795 Pi=0.00408076923077
Pi=0.00120512820513 S=6 K=6 thetaW=0.00141058875979 He=0.612820512821 D=-0.388681246399
K=13 D=-0.671726178866 thetaW=0.00352647189947 He=0.902564102564 Pi=0.00278333333333 S=15
S=9 K=7 thetaW=0.00211588313968 Pi=0.00156282051282 D=-0.763871681539 He=0.612820512821
He=0.825641025641 S=8 D=0.758217995416 thetaW=0.00188078501305 K=7 Pi=0.00238076923077
thetaW=0.00188078501305 He=0.751282051282 K=9 Pi=0.00106666666667 D=-1.23459733078 S=8
Pi=0.00264487179487 thetaW=0.00211588313968 He=0.826923076923 D=0.730621513601 K=8 S=9
K=9 D=-0.666444626407 Pi=0.00182564102564 He=0.776923076923 S=10 thetaW=0.00235098126631
D=-0.976504182371 He=0.814102564103 S=15 K=12 thetaW=0.00352647189947 Pi=0.00244615384615
D=-0.496452378476 K=6 thetaW=0.00117549063316 Pi=0.000946153846154 He=0.676923076923 S=5
He=0.40641025641 K=4 D=-0.856380259086 Pi=0.000428205128205 thetaW=0.000705294379894 S=3
Pi=0.00217307692308 thetaW=0.00211588313968 He=0.802564102564 D=0.0789941488956 K=7 S=9
thetaW=0.00141058875979 Pi=0.00110641025641 D=-0.57543152269 S=6 K=7 He=0.757692307692
S=12 K=9 thetaW=0.00282117751958 Pi=0.00273461538462 D=-0.0945007316138 He=0.815384615385
S=6 He=0.319230769231 D=-1.7517157305 K=6 thetaW=0.00141058875979 Pi=0.000484615384615
D=-1.01354412291 thetaW=0.00211588313968 Pi=0.00138205128205 S=9 He=0.787179487179 K=9
He=0.652564102564 S=12 thetaW=0.00282117751958 K=8 Pi=0.0016141025641 D=-1.31777556614
He=0.770512820513 Pi=0.00420384615385 thetaW=0.00282117751958 S=12 D=1.50947290725 K=7
D=0.115112045432 S=7 K=7 thetaW=0.00164568688642 He=0.726923076923 Pi=0.0017141025641
K=9 S=9 Pi=0.00163205128205 D=-0.668252448674 thetaW=0.00211588313968 He=0.825641025641
D=0.248972701959 S=4 He=0.611538461538 thetaW=0.000940392506526 Pi=0.00103846153846 K=5
D=-0.319130557588 S=11 Pi=0.0023141025641 thetaW=0.00258607939295 He=0.726923076923 K=8
D=-0.596967168221 He=0.773076923077 K=11 Pi=0.00227435897436 thetaW=0.00282117751958 S=12
thetaW=0.00282117751958 Pi=0.00248717948718 D=-0.364628927338 K=12 He=0.892307692308 S=12
Pi=0.000444871794872 K=8 thetaW=0.00164568688642 He=0.401282051282 S=7 D=-2.02041821488
S=11 K=11 D=-0.997581460003 He=0.769230769231 Pi=0.0017358974359 thetaW=0.00258607939295
Pi=0.000832051282051 D=-1.36897363042 thetaW=0.00164568688642 K=7 S=7 He=0.626923076923
K=9 Pi=0.00164102564103 D=-1.10890156373 thetaW=0.00258607939295 S=11 He=0.601282051282
He=0.621794871795 K=8 Pi=0.00274358974359 S=12 thetaW=0.00282117751958 D=-0.084703335914
D=0.204715732847 Pi=0.0022641025641 He=0.837179487179 thetaW=0.00211588313968 S=9 K=8
He=0.814102564103 S=13 Pi=0.00303717948718 thetaW=0.00305627564621 D=-0.0194944450244 K=10
Pi=0.00159743589744 He=0.821794871795 S=8 D=-0.429694360004 thetaW=0.00188078501305 K=8
S=6 K=7 He=0.634615384615 D=-0.781584425089 thetaW=0.00141058875979 Pi=0.000997435897436
thetaW=0.00399666815273 S=17 D=-1.14762187658 He=0.691025641026 K=11 Pi=0.00258205128205
thetaW=0.00117549063316 Pi=0.000344871794872 K=4 He=0.191025641026 S=5 D=-1.79806608117
K=8 He=0.764102564103 D=-0.0353993434426 thetaW=0.00235098126631 Pi=0.00232307692308 S=10
thetaW=0.00258607939295 S=11 Pi=0.00224871794872 D=-0.395851169613 K=11 He=0.875641025641
S=9 Pi=0.00248974358974 D=0.516363602924 K=8 He=0.842307692308 thetaW=0.00211588313968
Pi=0.00282692307692 thetaW=0.00305627564621 S=13 K=13 D=-0.234136144676 He=0.910256410256
D=-0.0843472691558 Pi=0.00458205128205 thetaW=0.00470196253263 He=0.879487179487 K=12 S=20
K=7 thetaW=0.00164568688642 S=7 Pi=0.00121794871795 He=0.747435897436 D=-0.719686147236
K=10 S=14 D=-0.47234492755 Pi=0.00279871794872 thetaW=0.00329137377284 He=0.855128205128
He=0.784615384615 D=0.190610589988 S=7 Pi=0.00175897435897 K=6 thetaW=0.00164568688642
thetaW=0.00329137377284 S=14 Pi=0.00333846153846 D=0.0451464615907 He=0.808974358974 K=7
thetaW=0.00352647189947 K=10 S=15 D=0.177712135085 Pi=0.00372307692308 He=0.885897435897
D=0.928339225369 He=0.55 S=7 thetaW=0.00164568688642 K=4 Pi=0.00219743589744
D=-1.24626259123 S=8 thetaW=0.00188078501305 K=9 He=0.702564102564 Pi=0.00105897435897
He=0.876923076923 S=20 K=10 D=0.928388729304 Pi=0.00602179487179 thetaW=0.00470196253263
K=9 D=-0.40947257819 He=0.830769230769 Pi=0.00202820512821 thetaW=0.00235098126631 S=10
Pi=0.00132051282051 S=6 D=-0.170401702683 thetaW=0.00141058875979 K=6 He=0.646153846154
K=4 thetaW=0.000940392506526 He=0.387179487179 S=4 Pi=0.000641025641026 D=-0.760017468403
thetaW=0.00540725691252 S=23 Pi=0.00785256410256 K=12 He=0.880769230769 D=1.51864073477
K=10 D=-0.733396030269 He=0.873076923077 thetaW=0.0037615700261 Pi=0.00290384615385 S=16
He=0.620512820513 thetaW=0.00141058875979 S=6 D=-0.083089885196 Pi=0.00136666666667 K=5
thetaW=0.00211588313968 K=8 He=0.621794871795 S=9 Pi=0.0024358974359 D=0.441993088473
Pi=0.00362564102564 S=8 K=5 thetaW=0.00188078501305 D=2.6460459776 He=0.764102564103
Pi=0.00157564102564 S=9 thetaW=0.00211588313968 K=7 D=-0.746164416194 He=0.666666666667
K=8 S=8 He=0.738461538462 D=0.0952423600666 thetaW=0.00188078501305 Pi=0.00194358974359
D=-0.435320427098 K=14 thetaW=0.00352647189947 He=0.898717948718 Pi=0.00304487179487 S=15
K=9 thetaW=0.00211588313968 Pi=0.00205897435897 S=9 He=0.861538461538 D=-0.0786005126772
He=0.824358974359 D=-1.11270480884 S=9 K=10 Pi=0.00131025641026 thetaW=0.00211588313968
D=0.0189494488489 K=9 thetaW=0.00352647189947 S=15 He=0.84358974359 Pi=0.00354743589744
Pi=0.0048358974359 thetaW=0.00352647189947 He=0.819230769231 S=15 K=8 D=1.18359543182
Pi=0.00382435897436 K=5 D=1.45296514761 thetaW=0.00258607939295 He=0.714102564103 S=11
K=8 He=0.65641025641 D=-0.489166441244 thetaW=0.00235098126631 S=10 Pi=0.00196538461538
Pi=0.00121794871795 D=-1.43736077106 K=7 S=10 He=0.616666666667 thetaW=0.00235098126631
K=6 S=7 D=-0.331407918088 Pi=0.00144871794872 He=0.544871794872 thetaW=0.00164568688642
S=9 K=7 thetaW=0.00211588313968 D=0.716455701325 Pi=0.00263461538462 He=0.758974358974
D=-0.0749175408238 thetaW=0.00352647189947 K=12 He=0.884615384615 Pi=0.00344358974359 S=15
K=6 Pi=0.00269358974359 D=1.23260525355 thetaW=0.00188078501305 S=8 He=0.620512820513
thetaW=0.00141058875979 D=0.263732056487 He=0.688461538462 Pi=0.00155 K=5 S=6
thetaW=0.00258607939295 S=11 D=-0.827592652968 He=0.801282051282 K=10 Pi=0.00188076923077
K=3 thetaW=0.000705294379894 Pi=0.000573076923077 He=0.303846153846 S=3 D=-0.408635193298
Pi=0.00191666666667 K=11 D=-0.987463368258 He=0.84358974359 thetaW=0.00282117751958 S=12
He=0.791025641026 thetaW=0.00164568688642 D=0.242381020541 K=7 Pi=0.00178974358974 S=7
thetaW=0.00164568688642 S=7 Pi=0.00113974358974 D=-0.851269324891 He=0.614102564103 K=6
D=0.834042188315 He=0.817948717949 S=8 Pi=0.00243076923077 K=7 thetaW=0.00188078501305
K=7 S=8 thetaW=0.00188078501305 D=-1.17627102855 He=0.730769230769 Pi=0.00110512820513
D=-0.59211120769 S=9 K=7 He=0.615384615385 thetaW=0.00211588313968 Pi=0.00168717948718
He=0.821794871795 K=9 S=10 thetaW=0.00235098126631 D=-0.346042768819 Pi=0.00207820512821
K=9 D=-0.820953136411 Pi=0.00170384615385 thetaW=0.00235098126631 S=10 He=0.783333333333
Pi=0.000685897435897 S=6 thetaW=0.00141058875979 D=-1.37093919312 K=6 He=0.525641025641
thetaW=0.00305627564621 D=0.633592189892 K=9 Pi=0.00367692307692 S=13 He=0.869230769231
K=11 He=0.85 S=24 D=1.54565825652 Pi=0.00822820512821 thetaW=0.00564235503915
Pi=0.00667564102564 S=26 thetaW=0.00611255129242 D=0.313096021839 He=0.866666666667 K=13
Pi=0.00223461538462 He=0.75 thetaW=0.00141058875979 S=6 K=5 D=1.5588573492
S=11 thetaW=0.00258607939295 D=-1.5015305782 Pi=0.00130641025641 K=12 He=0.776923076923
He=0.788461538462 D=-0.395851169613 S=11 K=10 Pi=0.00224871794872 thetaW=0.00258607939295
He=0.676923076923 D=1.78597452818 Pi=0.00340897435897 thetaW=0.00211588313968 S=9 K=5
K=12 Pi=0.00254358974359 thetaW=0.00329137377284 S=14 He=0.816666666667 D=-0.716954871586
D=-1.2232303189 He=0.769230769231 thetaW=0.00258607939295 K=12 S=11 Pi=0.00154358974359
thetaW=0.00423176627937 Pi=0.00369871794872 S=18 He=0.878205128205 D=-0.411396149528 K=11
thetaW=0.00164568688642 K=7 S=7 He=0.65 Pi=0.000902564102564 D=-1.2503330604
D=-0.854061730006 K=11 He=0.874358974359 Pi=0.00403205128205 S=23 thetaW=0.00540725691252
K=12 D=-0.578055757636 thetaW=0.00329137377284 Pi=0.00268846153846 S=14 He=0.883333333333
He=0.860256410256 S=17 thetaW=0.00399666815273 Pi=0.00439743589744 K=11 D=0.325126782225
thetaW=0.00329137377284 D=-0.0667103469884 Pi=0.00322179487179 He=0.735897435897 K=8 S=14
D=0.18632288634 S=11 He=0.765384615385 Pi=0.00274487179487 K=8 thetaW=0.00258607939295
D=-0.783117686518 Pi=0.00210384615385 K=11 thetaW=0.00282117751958 He=0.880769230769 S=12
Pi=0.00255897435897 D=0.263859244355 He=0.866666666667 thetaW=0.00235098126631 K=9 S=10
K=8 Pi=0.00406794871795 S=17 D=0.0578270609595 thetaW=0.00399666815273 He=0.59358974359
Pi=0.00243974358974 D=-0.171706636443 thetaW=0.00258607939295 S=11 He=0.734615384615 K=8
K=6 S=5 thetaW=0.00117549063316 He=0.689743589744 D=-0.440946463649 Pi=0.000971794871795
K=9 S=15 D=0.196253762675 thetaW=0.00352647189947 He=0.867948717949 Pi=0.00374358974359
Pi=0.00348717948718 K=11 thetaW=0.0037615700261 D=-0.234617385033 S=16 He=0.80641025641
S=9 D=-1.18176314369 thetaW=0.00211588313968 Pi=0.00126025641026 He=0.785897435897 K=9
D=-0.368812443978 K=9 Pi=0.00206025641026 thetaW=0.00235098126631 S=10 He=0.760256410256
thetaW=0.00235098126631 S=10 He=0.823076923077 Pi=0.0018858974359 K=8 D=-0.590003574089
K=5 S=17 thetaW=0.00399666815273 D=2.55817153537 He=0.646153846154 Pi=0.00715
He=0.739743589744 D=0.0719118391746 thetaW=0.00188078501305 K=6 Pi=0.00192820512821 S=8
K=10 Pi=0.00316153846154 S=12 D=0.371575378108 He=0.846153846154 thetaW=0.00282117751958
S=10 D=-1.26984101811 He=0.479487179487 thetaW=0.00235098126631 K=6 Pi=0.00135
Pi=0.00355641025641 S=16 D=-0.175421677687 He=0.84358974359 K=10 thetaW=0.0037615700261
K=5 S=4 Pi=0.0010358974359 D=0.242463087957 thetaW=0.000940392506526 He=0.65641025641
thetaW=0.00258607939295 He=0.615384615385 S=11 D=-0.540266439307 Pi=0.00212564102564 K=7
S=9 thetaW=0.00211588313968 K=7 He=0.616666666667 Pi=0.00132948717949 D=-1.08614391082
Pi=0.00288717948718 K=10 thetaW=0.00305627564621 He=0.842307692308 D=-0.172622974654 S=13
D=1.05319419323 Pi=0.0037858974359 thetaW=0.00282117751958 He=0.812820512821 K=7 S=12
He=0.767948717949 Pi=0.00263205128205 D=0.0539422224538 S=11 thetaW=0.00258607939295 K=7
He=0.866666666667 K=12 S=12 Pi=0.00207820512821 thetaW=0.00282117751958 D=-0.81111024566
S=10 thetaW=0.00235098126631 K=11 He=0.867948717949 Pi=0.00233333333333 D=-0.0223881004949
Pi=0.0026641025641 He=0.85641025641 S=12 thetaW=0.00282117751958 D=-0.171480269256 K=11
He=0.888461538462 D=-0.22890098127 thetaW=0.00305627564621 Pi=0.00283205128205 S=13 K=11
D=-0.59141351399 Pi=0.00208205128205 S=11 thetaW=0.00258607939295 K=11 He=0.834615384615
D=-0.753247322332 Pi=0.00157051282051 thetaW=0.00211588313968 S=9 K=10 He=0.851282051282
K=7 thetaW=0.00235098126631 He=0.810256410256 S=10 Pi=0.00295384615385 D=0.764792097842
K=12 thetaW=0.004466864406 D=-1.34098366799 He=0.812820512821 Pi=0.00264487179487 S=19
thetaW=0.0037615700261 D=0.144673628706 He=0.907692307692 K=13 S=16 Pi=0.00393076923077
He=0.808974358974 S=12 D=0.430359752307 Pi=0.00321538461538 thetaW=0.00282117751958 K=9
D=-0.426528399852 S=13 K=8 thetaW=0.00305627564621 He=0.723076923077 Pi=0.00263846153846
thetaW=0.00305627564621 He=0.75641025641 S=13 D=-0.868899707672 K=11 Pi=0.00220512820513
K=4 D=-0.155091002291 thetaW=0.00117549063316 Pi=0.00110384615385 S=5 He=0.491025641026
He=0.646153846154 thetaW=0.00282117751958 S=12 Pi=0.00183846153846 D=-1.07284067364 K=8
S=12 thetaW=0.00282117751958 He=0.808974358974 Pi=0.00421666666667 D=1.52346918682 K=8
thetaW=0.00305627564621 S=13 K=9 He=0.829487179487 D=0.633592189892 Pi=0.00367692307692
He=0.823076923077 Pi=0.00366025641026 D=0.353674581957 thetaW=0.00329137377284 K=10 S=14
D=2.26150362056 thetaW=0.00540725691252 Pi=0.00904871794872 He=0.771794871795 K=8 S=23
S=4 D=-1.10177220353 K=5 He=0.457692307692 thetaW=0.000940392506526 Pi=0.00050641025641
K=10 D=-1.38531579927 He=0.783333333333 Pi=0.00125897435897 thetaW=0.00235098126631 S=10
thetaW=0.00141058875979 D=-0.990162655751 S=6 K=6 He=0.674358974359 Pi=0.000887179487179
S=10 Pi=0.00247948717949 thetaW=0.00235098126631 He=0.801282051282 K=8 D=0.16302211151
Pi=0.00188076923077 He=0.770512820513 D=-0.324731500976 K=8 thetaW=0.00211588313968 S=9
D=-1.72506730166 K=10 He=0.662820512821 Pi=0.00124102564103 thetaW=0.00282117751958 S=12
S=9 He=0.803846153846 thetaW=0.00211588313968 Pi=0.00292692307692 D=1.1201813512 K=7
Pi=0.00100384615385 thetaW=0.00258607939295 S=11 K=7 D=-1.85655144954 He=0.603846153846
He=0.808974358974 Pi=0.00183205128205 K=8 thetaW=0.00282117751958 S=12 D=-1.07983881343
S=9 K=8 He=0.598717948718 D=-0.758559501935 thetaW=0.00211588313968 Pi=0.00156666666667
thetaW=0.00305627564621 S=13 D=-0.137285621663 Pi=0.00292179487179 K=8 He=0.598717948718
D=-2.16644254909 S=11 Pi=0.000739743589744 K=8 He=0.438461538462 thetaW=0.00258607939295
K=11 thetaW=0.00493706065926 D=0.708238392 Pi=0.00598846153846 He=0.867948717949 S=21
S=14 D=-1.23444626073 Pi=0.00200384615385 K=15 He=0.869230769231 thetaW=0.00329137377284
S=8 Pi=0.00231153846154 K=5 thetaW=0.00188078501305 D=0.653230651401 He=0.624358974359
He=0.867948717949 D=-0.739536247403 thetaW=0.00564235503915 S=24 K=12 Pi=0.00440512820513
thetaW=0.00117549063316 S=5 K=6 He=0.544871794872 Pi=0.000678205128205 D=-1.07648918842
thetaW=0.00211588313968 He=0.703846153846 Pi=0.00137435897436 K=8 D=-1.02416848211 S=9
thetaW=0.00258607939295 S=11 Pi=0.00226538461538 K=10 D=-0.376294935175 He=0.802564102564
S=8 K=8 Pi=0.00209743589744 D=0.328547568987 He=0.8 thetaW=0.00188078501305
D=-1.20692343704 Pi=0.00266794871795 He=0.874358974359 S=18 K=12 thetaW=0.00423176627937
D=-0.632325220238 S=15 K=11 He=0.858974358974 Pi=0.00282692307692 thetaW=0.00352647189947
Pi=0.00123846153846 S=10 thetaW=0.00235098126631 He=0.233333333333 D=-1.41133828516 K=4
D=-0.4530155472 S=11 thetaW=0.00258607939295 He=0.828205128205 K=10 Pi=0.0022
D=-0.629825188356 K=4 S=4 thetaW=0.000940392506526 Pi=0.000692307692308 He=0.571794871795
D=-0.975085968307 He=0.85 Pi=0.00227435897436 thetaW=0.00329137377284 K=12 S=14
Pi=0.000469230769231 K=5 He=0.426923076923 D=-1.19616160656 thetaW=0.000940392506526 S=4
S=18 Pi=0.00501794871795 He=0.837179487179 K=10 thetaW=0.00423176627937 D=0.606760043066
Pi=0.00252820512821 D=-0.0679081613502 He=0.80641025641 K=8 thetaW=0.00258607939295 S=11
He=0.823076923077 D=-0.690699011904 Pi=0.00199743589744 K=10 thetaW=0.00258607939295 S=11
S=8 He=0.688461538462 thetaW=0.00188078501305 K=7 D=-0.198333361158 Pi=0.00175
thetaW=0.00305627564621 K=12 S=13 Pi=0.00275512820513 He=0.90641025641 D=-0.307428432362
S=12 Pi=0.00306794871795 K=8 D=0.269402537238 He=0.828205128205 thetaW=0.00282117751958
He=0.682051282051 S=9 D=0.829782199535 Pi=0.00271666666667 thetaW=0.00211588313968 K=6
Pi=0.00219743589744 D=-0.456024198652 K=10 thetaW=0.00258607939295 S=11 He=0.841025641026
K=13 thetaW=0.0037615700261 Pi=0.00366538461538 He=0.867948717949 D=-0.0822432494559 S=16
Pi=0.00297051282051 thetaW=0.00258607939295 S=11 D=0.451084214111 He=0.834615384615 K=8
K=9 Pi=0.000925641025641 D=-1.44846043896 S=8 He=0.7 thetaW=0.00188078501305
K=8 S=8 D=-0.248882823091 thetaW=0.00188078501305 Pi=0.00171666666667 He=0.783333333333
He=0.874358974359 Pi=0.00176538461538 S=12 D=-1.1526194672 thetaW=0.00282117751958 K=12
He=0.560256410256 thetaW=0.00211588313968 K=4 S=9 D=-0.393789835823 Pi=0.00183076923077
D=0.231612582396 K=10 He=0.760256410256 Pi=0.00303333333333 S=12 thetaW=0.00282117751958
thetaW=0.0037615700261 D=-0.898924767479 He=0.867948717949 Pi=0.00271025641026 K=14 S=16
thetaW=0.00258607939295 Pi=0.00202307692308 He=0.861538461538 S=11 K=10 D=-0.660612497385
He=0.833333333333 D=0.18632288634 K=7 Pi=0.00274487179487 thetaW=0.00258607939295 S=11
S=6 D=0.431079706669 thetaW=0.00141058875979 He=0.787179487179 Pi=0.00163846153846 K=6
D=-1.05949362878 Pi=0.00285897435897 thetaW=0.00423176627937 K=9 S=18 He=0.819230769231
D=-0.374009271656 Pi=0.00290128205128 S=14 He=0.767948717949 thetaW=0.00329137377284 K=9
He=0.808974358974 thetaW=0.00141058875979 D=0.161868269419 S=6 Pi=0.00149615384615 K=7
thetaW=0.00117549063316 Pi=0.000711538461538 He=0.60641025641 S=5 K=6 D=-1.00433149914
Pi=0.00176666666667 He=0.744871794872 K=7 D=-0.173058630192 thetaW=0.00188078501305 S=8
Pi=0.000439743589744 D=-1.83660221972 thetaW=0.00141058875979 He=0.320512820513 K=6 S=6
D=-1.06024402203 S=12 Pi=0.00185 K=10 thetaW=0.00282117751958 He=0.811538461538
S=9 Pi=0.00184358974359 D=-0.376082570478 He=0.742307692308 thetaW=0.00211588313968 K=8
D=-0.730471653601 S=7 K=7 Pi=0.00121153846154 He=0.737179487179 thetaW=0.00164568688642
He=0.935897435897 D=-0.607547778487 K=14 S=22 Pi=0.00423205128205 thetaW=0.00517215878589
thetaW=0.00211588313968 S=9 Pi=0.00251666666667 K=9 D=0.553548860149 He=0.757692307692
K=6 S=6 thetaW=0.00141058875979 D=-0.512372987838 He=0.725641025641 Pi=0.00113974358974
Pi=0.00170128205128 He=0.652564102564 D=-1.0381982546 K=8 thetaW=0.00258607939295 S=11
He=0.75 Pi=0.00383205128205 S=14 thetaW=0.00329137377284 D=0.518386805579 K=8
He=0.615384615385 Pi=0.00395384615385 D=-0.0347397685839 thetaW=0.00399666815273 S=17 K=9
He=0.689743589744 thetaW=0.00235098126631 Pi=0.00147435897436 K=6 D=-1.11207969737 S=10
Pi=0.00253846153846 S=11 K=9 D=-0.0558735555424 thetaW=0.00258607939295 He=0.742307692308
Pi=0.00291666666667 thetaW=0.00493706065926 S=21 He=0.801282051282 D=-1.36096575609 K=10
He=0.657692307692 D=-0.461534263195 K=11 S=16 thetaW=0.0037615700261 Pi=0.00322179487179
S=8 D=-0.423861729781 K=8 He=0.832051282051 Pi=0.00160128205128 thetaW=0.00188078501305
He=0.625641025641 Pi=0.0016858974359 D=-0.593881934224 K=8 thetaW=0.00211588313968 S=9
Pi=0.00309102564103 K=10 thetaW=0.00329137377284 D=-0.192088308253 He=0.833333333333 S=14
He=0.752564102564 D=0.262714100256 S=14 K=8 Pi=0.00356538461538 thetaW=0.00329137377284
K=9 He=0.866666666667 thetaW=0.00235098126631 S=10 Pi=0.00260769230769 D=0.325662648357
D=-1.80361667265 K=5 S=5 thetaW=0.00117549063316 He=0.276923076923 Pi=0.000342307692308
thetaW=0.00235098126631 S=10 Pi=0.00102307692308 K=9 He=0.616666666667 D=-1.68457438707
D=-1.41642985843 S=7 Pi=0.000803846153846 K=6 thetaW=0.00164568688642 He=0.467948717949
He=0.751282051282 Pi=0.00215769230769 K=7 S=10 D=-0.245205635975 thetaW=0.00235098126631
Pi=0.00111538461538 S=10 D=-1.56747320054 thetaW=0.00235098126631 He=0.670512820513 K=9
K=9 Pi=0.00212564102564 S=10 D=-0.285865770186 He=0.832051282051 thetaW=0.00235098126631
Pi=0.00392051282051 He=0.884615384615 thetaW=0.004466864406 S=19 K=10 D=-0.402113899168
Pi=0.00357564102564 K=9 He=0.716666666667 thetaW=0.00352647189947 D=0.0444441867846 S=15
D=0.986624172559 Pi=0.00342692307692 S=11 K=7 He=0.792307692308 thetaW=0.00258607939295
Pi=0.00242820512821 S=11 K=12 thetaW=0.00258607939295 D=-0.185245567976 He=0.870512820513
Pi=0.00152307692308 K=10 thetaW=0.00211588313968 S=9 He=0.826923076923 D=-0.818764204109
S=21 D=2.01833133551 Pi=0.00793333333333 K=7 thetaW=0.00493706065926 He=0.824358974359
Pi=0.00187564102564 D=-0.00780077387327 K=6 S=8 He=0.620512820513 thetaW=0.00188078501305
He=0.766666666667 D=0.90236937095 S=17 K=7 thetaW=0.00399666815273 Pi=0.00510897435897
D=-0.825240333832 S=6 K=7 He=0.725641025641 Pi=0.000974358974359 thetaW=0.00141058875979
thetaW=0.00517215878589 He=0.832051282051 K=9 Pi=0.00506923076923 S=22 D=-0.0665175925205
S=13 D=-0.478880033914 thetaW=0.00305627564621 K=9 He=0.725641025641 Pi=0.00258717948718
Pi=0.00175256410256 S=11 thetaW=0.00258607939295 He=0.685897435897 D=-0.978025225565 K=9
S=9 Pi=0.00229743589744 thetaW=0.00211588313968 D=0.250754622745 K=9 He=0.807692307692
D=-0.354174795662 S=10 thetaW=0.00235098126631 K=8 Pi=0.00207179487179 He=0.661538461538
thetaW=0.00282117751958 S=12 K=12 D=-0.711736660705 He=0.911538461538 Pi=0.00216923076923
K=8 He=0.539743589744 S=7 thetaW=0.00164568688642 Pi=0.000711538461538 D=-1.57174115009
D=0.00279514777062 thetaW=0.00258607939295 S=11 He=0.767948717949 K=9 Pi=0.00258846153846
He=0.855128205128 thetaW=0.00282117751958 K=10 S=12 D=-0.531184654236 Pi=0.00233461538462
Pi=0.00212051282051 S=12 K=11 He=0.839743589744 thetaW=0.00282117751958 D=-0.764922523075
thetaW=0.00188078501305 D=-0.777707963311 K=9 He=0.842307692308 S=8 Pi=0.00136794871795
thetaW=0.00258607939295 Pi=0.00292692307692 S=11 D=0.399937139428 K=9 He=0.842307692308
He=0.805128205128 Pi=0.00241153846154 S=10 D=0.0768226269815 thetaW=0.00235098126631 K=8
D=-0.781584425089 K=6 He=0.660256410256 S=6 Pi=0.000997435897436 thetaW=0.00141058875979
S=13 Pi=0.00252564102564 He=0.810256410256 D=-0.541701994788 thetaW=0.00305627564621 K=9
Pi=0.00143333333333 He=0.583333333333 D=0.0430271845068 S=6 thetaW=0.00141058875979 K=5
thetaW=0.00211588313968 He=0.737179487179 D=-1.00469049023 Pi=0.00138846153846 K=8 S=9
K=7 He=0.784615384615 thetaW=0.00211588313968 Pi=0.00303333333333 S=9 D=1.26715165356
Pi=0.00287948717949 He=0.632051282051 D=0.344277087567 thetaW=0.00258607939295 S=11 K=6
thetaW=0.00282117751958 He=0.765384615385 D=-0.443008092937 Pi=0.00241538461538 K=10 S=12
thetaW=0.00188078501305 D=-1.1121120961 Pi=0.00114743589744 He=0.775641025641 S=8 K=8
He=0.878205128205 S=22 K=10 thetaW=0.00517215878589 Pi=0.00820128205128 D=1.95758155651
S=9 He=0.771794871795 D=-0.730227877383 K=8 thetaW=0.00211588313968 Pi=0.00158717948718
Pi=0.00331025641026 thetaW=0.00329137377284 K=9 D=0.0181041562199 He=0.797435897436 S=14
He=0.737179487179 Pi=0.00106538461538 S=7 K=7 D=-0.976381198728 thetaW=0.00164568688642
thetaW=0.00282117751958 Pi=0.00297307692308 D=0.165830068411 S=12 He=0.641025641026 K=7
S=11 D=-0.645569240125 thetaW=0.00258607939295 K=9 He=0.797435897436 Pi=0.0020358974359
K=10 thetaW=0.00235098126631 Pi=0.00197051282051 S=10 D=-0.482660819771 He=0.828205128205
D=-0.454362690651 He=0.723076923077 Pi=0.00137564102564 K=7 S=7 thetaW=0.00164568688642
thetaW=0.00164568688642 K=7 S=7 Pi=0.00135897435897 D=-0.482405007201 He=0.735897435897
S=16 K=14 He=0.907692307692 Pi=0.00304615384615 D=-0.611715965167 thetaW=0.0037615700261
K=11 thetaW=0.00329137377284 D=-0.242485331899 Pi=0.00303846153846 S=14 He=0.824358974359
Pi=0.00112435897436 thetaW=0.00211588313968 S=9 K=9 D=-1.36946015635 He=0.747435897436
S=19 thetaW=0.004466864406 K=12 He=0.911538461538 Pi=0.00438205128205 D=-0.0624223245187
K=8 Pi=0.00242051282051 He=0.794871794872 D=0.420744370059 S=9 thetaW=0.00211588313968
He=0.617948717949 K=5 Pi=0.00326282051282 S=11 thetaW=0.00258607939295 D=0.794070479634
K=10 He=0.6 S=13 thetaW=0.00305627564621 D=-1.18562709374 Pi=0.00189487179487
thetaW=0.0037615700261 He=0.869230769231 Pi=0.00373974358974 K=11 S=16 D=-0.0186626748984
D=0.402006514747 He=0.779487179487 Pi=0.00188461538462 thetaW=0.00164568688642 S=7 K=6
S=14 Pi=0.00370769230769 He=0.880769230769 thetaW=0.00329137377284 K=10 D=0.399154822808
S=10 thetaW=0.00235098126631 D=-1.22267526242 K=9 He=0.8 Pi=0.00138717948718
D=1.36416344193 thetaW=0.00399666815273 He=0.760256410256 S=17 K=8 Pi=0.00567820512821
He=0.458974358974 Pi=0.000642307692308 D=-0.756762661401 S=4 K=5 thetaW=0.000940392506526
K=8 D=0.0734154798935 Pi=0.00360769230769 He=0.812820512821 thetaW=0.00352647189947 S=15
S=14 Pi=0.00300897435897 He=0.855128205128 D=-0.270756832968 K=11 thetaW=0.00329137377284
Pi=0.000397435897436 He=0.321794871795 thetaW=0.00164568688642 K=7 S=7 D=-2.10023096198
D=1.86217915244 thetaW=0.00282117751958 K=6 Pi=0.00452692307692 He=0.792307692308 S=12
D=0.0503031692974 S=6 K=6 Pi=0.00143717948718 thetaW=0.00141058875979 He=0.710256410256
S=11 K=10 Pi=0.00210128205128 D=-0.5688486281 He=0.773076923077 thetaW=0.00258607939295
D=-0.460052970563 K=12 Pi=0.00281153846154 He=0.862820512821 thetaW=0.00329137377284 S=14
thetaW=0.00164568688642 K=8 S=7 He=0.698717948718 D=-0.784399185427 Pi=0.00117948717949
D=-1.36591870328 S=9 Pi=0.00112692307692 He=0.732051282051 thetaW=0.00211588313968 K=9
D=1.25196768356 S=15 Pi=0.00491153846154 He=0.780769230769 thetaW=0.00352647189947 K=9
He=0.894871794872 Pi=0.00299358974359 thetaW=0.00282117751958 D=0.188224115725 S=12 K=11
He=0.641025641026 thetaW=0.00188078501305 S=8 D=-1.0362879032 Pi=0.00119743589744 K=6
Pi=0.00363846153846 He=0.848717948718 K=11 S=16 thetaW=0.0037615700261 D=-0.105263802313
S=11 He=0.769230769231 K=10 thetaW=0.00258607939295 D=-0.243914271289 Pi=0.00237820512821
K=12 He=0.851282051282 S=18 Pi=0.00398846153846 thetaW=0.00423176627937 D=-0.187777782642
He=0.424358974359 Pi=0.000912820512821 D=-0.568610067751 S=5 K=4 thetaW=0.00117549063316
S=5 thetaW=0.00117549063316 He=0.746153846154 Pi=0.00185 K=4 D=1.46013111917
thetaW=0.00235098126631 S=10 Pi=0.00193205128205 D=-0.531452980825 He=0.767948717949 K=9
He=0.835897435897 Pi=0.00303461538462 K=13 S=18 thetaW=0.00423176627937 D=-0.923937362127
D=-1.3162541539 He=0.584615384615 Pi=0.00101282051282 S=8 K=8 thetaW=0.00188078501305
He=0.825641025641 Pi=0.00259230769231 D=0.306145783935 K=8 thetaW=0.00235098126631 S=10
D=-0.434610325195 thetaW=0.00282117751958 K=10 Pi=0.00242307692308 He=0.798717948718 S=12
He=0.74358974359 S=13 thetaW=0.00305627564621 K=9 Pi=0.00246282051282 D=-0.605832746513
D=-0.648577891577 K=8 thetaW=0.00258607939295 S=11 Pi=0.00203333333333 He=0.720512820513
D=-0.357630787553 K=9 thetaW=0.00282117751958 Pi=0.00249358974359 S=12 He=0.820512820513
S=14 thetaW=0.00329137377284 He=0.841025641026 Pi=0.00353205128205 K=10 D=0.23075501209
He=0.69358974359 Pi=0.00189871794872 S=12 K=8 D=-1.00705815966 thetaW=0.00282117751958
K=10 S=10 Pi=0.00211923076923 He=0.855128205128 thetaW=0.00235098126631 D=-0.293997797029
S=14 He=0.910256410256 D=-0.533804712484 Pi=0.00273461538462 K=13 thetaW=0.00329137377284
thetaW=0.00235098126631 Pi=0.00292435897436 K=8 He=0.812820512821 D=0.727384774368 S=10
thetaW=0.00329137377284 He=0.816666666667 K=9 S=14 Pi=0.00179871794872 D=-1.43111757251
thetaW=0.00258607939295 S=11 D=-0.534249136403 Pi=0.00213076923077 K=11 He=0.778205128205
K=10 thetaW=0.00282117751958 Pi=0.00222051282051 He=0.660256410256 D=-0.65575154242 S=12
K=8 He=0.766666666667 S=9 Pi=0.00164230769231 thetaW=0.00211588313968 D=-0.654086636398
S=17 K=11 He=0.902564102564 D=1.61066162847 Pi=0.00598205128205 thetaW=0.00399666815273
K=7 D=0.203098849899 Pi=0.00151794871795 thetaW=0.00141058875979 He=0.841025641026 S=6
He=0.758974358974 K=11 thetaW=0.00916882693862 D=-1.18894389957 S=39 Pi=0.00606282051282
S=18 Pi=0.00340128205128 D=-0.640951287217 K=9 He=0.597435897436 thetaW=0.00423176627937
K=7 He=0.735897435897 S=6 D=-0.696697935866 Pi=0.00104230769231 thetaW=0.00141058875979
D=-1.76536668107 Pi=0.000716666666667 thetaW=0.00188078501305 He=0.469230769231 S=8 K=7
K=6 Pi=0.00220641025641 S=8 D=0.493805425306 He=0.651282051282 thetaW=0.00188078501305
D=-0.0437090812175 Pi=0.00556923076923 thetaW=0.00564235503915 S=24 He=0.891025641026 K=12
S=24 K=10 D=1.45982935497 thetaW=0.00564235503915 He=0.701282051282 Pi=0.00808461538462
S=12 K=8 thetaW=0.00282117751958 He=0.719230769231 Pi=0.00223461538462 D=-0.640355634892
Pi=0.00173333333333 S=10 D=-0.783545812937 He=0.780769230769 thetaW=0.00235098126631 K=9
K=6 Pi=0.000828205128205 S=8 D=-1.59622040461 thetaW=0.00188078501305 He=0.589743589744
K=9 He=0.829487179487 thetaW=0.00258607939295 D=0.351798716197 S=11 Pi=0.0028858974359
S=15 thetaW=0.00352647189947 K=11 D=-0.30552903397 Pi=0.00318846153846 He=0.817948717949
S=9 Pi=0.00212692307692 D=0.0152479936527 He=0.462820512821 thetaW=0.00211588313968 K=6
S=8 D=-1.36097098561 K=8 thetaW=0.00188078501305 Pi=0.000983333333333 He=0.652564102564
D=0.869956881968 thetaW=0.00423176627937 He=0.885897435897 K=11 S=18 Pi=0.00535897435897
K=10 He=0.857692307692 Pi=0.00231025641026 S=11 thetaW=0.00258607939295 D=-0.323643534766
K=6 D=-0.75490581419 Pi=0.00101153846154 thetaW=0.00141058875979 S=6 He=0.661538461538
Pi=0.00237564102564 K=10 S=10 thetaW=0.00235098126631 D=0.0312832766645 He=0.773076923077
Pi=0.00113076923077 thetaW=0.00164568688642 D=-0.866369033803 K=7 He=0.744871794872 S=7
Pi=0.00185641025641 S=7 thetaW=0.00164568688642 K=7 D=0.35455028674 He=0.698717948718
He=0.752564102564 S=11 thetaW=0.00258607939295 K=8 D=0.214905075133 Pi=0.00276923076923
He=0.766666666667 S=18 D=2.14933098986 K=6 thetaW=0.00423176627937 Pi=0.00701666666667
K=10 D=-0.469649576823 S=10 Pi=0.00198076923077 thetaW=0.00235098126631 He=0.888461538462
S=23 Pi=0.0096858974359 He=0.779487179487 thetaW=0.00540725691252 K=7 D=2.65721943432
He=0.802564102564 D=0.835986398389 thetaW=0.00188078501305 S=8 Pi=0.00243205128205 K=7
He=0.433333333333 D=-1.63429708701 thetaW=0.00164568688642 Pi=0.000674358974359 S=7 K=6
S=10 Pi=0.00178076923077 D=-0.723368814303 He=0.819230769231 thetaW=0.00235098126631 K=9
Pi=0.00136794871795 He=0.669230769231 S=7 K=7 thetaW=0.00164568688642 D=-0.46730529829
He=0.805128205128 Pi=0.00204102564103 S=12 K=10 thetaW=0.00282117751958 D=-0.851699456417
thetaW=0.000705294379894 D=-0.408635193298 S=3 K=3 Pi=0.000573076923077 He=0.303846153846
thetaW=0.00329137377284 He=0.866666666667 Pi=0.00334487179487 K=11 S=14 D=0.0512924400841
S=5 Pi=0.00102564102564 D=-0.324384042513 He=0.533333333333 thetaW=0.00117549063316 K=5
S=11 K=8 D=-0.0633951841723 Pi=0.00253205128205 He=0.761538461538 thetaW=0.00258607939295
He=0.837179487179 K=10 D=-0.886261356281 Pi=0.00183076923077 S=11 thetaW=0.00258607939295
S=10 Pi=0.00157435897436 thetaW=0.00235098126631 D=-0.985220078626 He=0.729487179487 K=9
thetaW=0.00399666815273 K=5 S=17 Pi=0.00614487179487 He=0.658974358974 D=1.742751374
He=0.634615384615 S=10 K=8 D=-0.742885678725 thetaW=0.00235098126631 Pi=0.00176538461538
Pi=0.00341666666667 D=-0.470531921153 He=0.889743589744 S=17 thetaW=0.00399666815273 K=11
He=0.808974358974 S=16 D=-1.40976179754 Pi=0.00211282051282 thetaW=0.0037615700261 K=8
Pi=0.00250256410256 S=8 He=0.755128205128 K=6 D=0.942917952478 thetaW=0.00188078501305
He=0.879487179487 thetaW=0.00211588313968 D=-0.510657787102 K=10 S=9 Pi=0.00174615384615
thetaW=0.00329137377284 D=1.67874754513 S=14 K=9 He=0.862820512821 Pi=0.00504230769231
K=8 He=0.835897435897 S=10 D=-0.251711257448 thetaW=0.00235098126631 Pi=0.00215256410256
He=0.751282051282 Pi=0.00153461538462 thetaW=0.00188078501305 S=8 K=7 D=-0.524960653647
D=0.869054821038 S=25 Pi=0.0073858974359 He=0.691025641026 K=8 thetaW=0.00587745316579
He=0.470512820513 Pi=0.000985897435897 thetaW=0.00211588313968 D=-1.56069862208 K=7 S=9
K=13 S=12 Pi=0.00173974358974 thetaW=0.00282117751958 He=0.832051282051 D=-1.18061202634
He=0.837179487179 D=-1.16155296413 thetaW=0.00258607939295 Pi=0.00159615384615 S=11 K=12
D=-0.0329134933337 K=10 S=16 He=0.865384615385 Pi=0.00372307692308 thetaW=0.0037615700261
S=10 D=0.0247776551906 K=10 He=0.871794871795 thetaW=0.00235098126631 Pi=0.00237051282051
Pi=0.000961538461538 S=4 D=0.0536842818893 thetaW=0.000940392506526 K=4 He=0.644871794872
K=6 D=-1.06049717539 He=0.626923076923 Pi=0.00085 thetaW=0.00141058875979 S=6
S=11 He=0.769230769231 thetaW=0.00258607939295 D=-1.530112767 K=11 Pi=0.00128205128205
Pi=0.000558974358974 D=-0.968325116477 K=4 S=4 thetaW=0.000940392506526 He=0.457692307692
thetaW=0.00305627564621 K=10 He=0.835897435897 Pi=0.00278461538462 S=13 D=-0.277326242777
K=8 thetaW=0.00235098126631 D=-0.00287123607331 S=10 Pi=0.00234871794872 He=0.784615384615
D=-0.462602884337 S=12 Pi=0.00239743589744 thetaW=0.00282117751958 He=0.80641025641 K=9
Pi=0.00202820512821 D=-0.865695735988 He=0.867948717949 K=11 S=12 thetaW=0.00282117751958
Pi=0.00234743589744 K=11 D=-0.723623923151 thetaW=0.00305627564621 S=13 He=0.865384615385
D=-0.354544903018 He=0.797435897436 thetaW=0.00305627564621 Pi=0.00270897435897 K=10 S=13
He=0.758974358974 S=18 K=8 Pi=0.00512435897436 D=0.688885372498 thetaW=0.00423176627937
He=0.855128205128 Pi=0.00322564102564 K=11 thetaW=0.0037615700261 S=16 D=-0.458245612787
S=15 D=0.332998266149 He=0.802564102564 thetaW=0.00352647189947 K=11 Pi=0.00389487179487
He=0.75 D=0.459700353819 Pi=0.00244871794872 K=7 S=9 thetaW=0.00211588313968
Pi=0.00469487179487 D=0.35741566937 thetaW=0.00423176627937 S=18 K=12 He=0.896153846154
K=7 thetaW=0.00282117751958 Pi=0.00217692307692 D=-0.703338892962 S=12 He=0.710256410256
D=-0.0148543574343 thetaW=0.00211588313968 K=8 He=0.674358974359 S=9 Pi=0.00210512820513
Pi=0.00222307692308 He=0.802564102564 thetaW=0.00117549063316 K=5 D=2.2677421799 S=5
He=0.916666666667 S=19 Pi=0.00514615384615 K=13 thetaW=0.004466864406 D=0.499955949068
D=1.39466476637 thetaW=0.000940392506526 Pi=0.00148974358974 S=4 He=0.529487179487 K=4
K=6 thetaW=0.00282117751958 D=0.51153817382 S=12 Pi=0.00328974358974 He=0.787179487179
D=-1.96185425035 thetaW=0.00258607939295 He=0.437179487179 Pi=0.000914102564103 K=8 S=11
D=-1.56742694754 S=7 thetaW=0.00164568688642 He=0.394871794872 Pi=0.000714102564103 K=6
thetaW=0.00211588313968 Pi=0.00212307692308 K=8 He=0.848717948718 D=0.0099358140491 S=9
thetaW=0.00352647189947 Pi=0.0039358974359 S=15 D=0.370081521328 He=0.778205128205 K=8
Pi=0.0025 thetaW=0.00282117751958 K=8 He=0.8 D=-0.350632647767 S=12
He=0.70641025641 S=9 D=-1.33050417259 K=9 Pi=0.00115256410256 thetaW=0.00211588313968
thetaW=0.00117549063316 Pi=0.00136025641026 K=5 S=5 D=0.399968145977 He=0.729487179487
K=6 thetaW=0.00211588313968 Pi=0.00172051282051 He=0.562820512821 S=9 D=-0.546072317792
thetaW=0.00164568688642 K=6 Pi=0.00164358974359 S=7 D=-0.00352852458548 He=0.775641025641
K=9 S=10 He=0.85641025641 Pi=0.00256666666667 thetaW=0.00235098126631 D=0.273617676566
K=5 thetaW=0.004466864406 Pi=0.00810641025641 D=2.67869996536 He=0.714102564103 S=19
thetaW=0.00235098126631 Pi=0.00192692307692 He=0.867948717949 K=10 S=10 D=-0.537958602298
He=0.814102564103 Pi=0.00260641025641 S=11 thetaW=0.00258607939295 D=0.0238557079343 K=9
S=12 thetaW=0.00282117751958 D=-0.118294406885 K=8 He=0.733333333333 Pi=0.00271282051282
K=5 thetaW=0.00282117751958 He=0.75 S=12 Pi=0.00484743589744 D=2.21208614172
K=9 thetaW=0.00235098126631 Pi=0.00242948717949 S=10 He=0.875641025641 D=0.09959230214
thetaW=0.00329137377284 He=0.732051282051 D=-1.18404923708 S=14 Pi=0.00205641025641 K=7
S=9 He=0.741025641026 K=8 D=0.0843063284992 thetaW=0.00211588313968 Pi=0.00217692307692
D=1.59919772129 thetaW=0.00164568688642 S=7 He=0.583333333333 K=4 Pi=0.00259615384615
S=5 He=0.384615384615 thetaW=0.00117549063316 K=5 Pi=0.000742307692308 D=-0.937724401349
K=7 S=15 Pi=0.00587692307692 D=2.124583032 He=0.802564102564 thetaW=0.00352647189947
D=0.169301202156 He=0.866666666667 Pi=0.00223846153846 thetaW=0.00211588313968 K=8 S=9
He=0.75641025641 S=7 Pi=0.00165897435897 thetaW=0.00164568688642 K=7 D=0.022356690691
D=-1.05190269873 He=0.744871794872 K=9 S=10 thetaW=0.00235098126631 Pi=0.00152179487179
S=10 He=0.833333333333 Pi=0.00181923076923 D=-0.674576653249 thetaW=0.00235098126631 K=10
Pi=0.00237179487179 S=8 thetaW=0.00188078501305 He=0.767948717949 D=0.744608524895 K=7
He=0.798717948718 D=-0.306119641511 S=13 Pi=0.00275641025641 thetaW=0.00305627564621 K=11
D=-0.66554893812 thetaW=0.00282117751958 K=9 Pi=0.00221153846154 He=0.8 S=12
Pi=0.000803846153846 K=6 S=5 D=-0.804510205765 thetaW=0.00117549063316 He=0.641025641026
He=0.878205128205 K=11 Pi=0.0066641025641 thetaW=0.00540725691252 D=0.780555102274 S=23
K=8 D=-0.209314779592 Pi=0.00240769230769 He=0.721794871795 S=11 thetaW=0.00258607939295
K=11 thetaW=0.00352647189947 S=15 Pi=0.00246923076923 D=-0.955644851332 He=0.774358974359
K=11 Pi=0.00257820512821 S=14 He=0.908974358974 D=-0.683766587722 thetaW=0.00329137377284
D=-0.887769078005 S=5 He=0.571794871795 Pi=0.000765384615385 thetaW=0.00117549063316 K=6
K=9 thetaW=0.00211588313968 S=9 D=-1.55361571594 Pi=0.000991025641026 He=0.508974358974
K=11 D=-0.82090764136 thetaW=0.00282117751958 He=0.861538461538 Pi=0.00206923076923 S=12
S=9 He=0.792307692308 thetaW=0.00211588313968 Pi=0.00178974358974 K=8 D=-0.450453084928
Pi=0.00128205128205 He=0.708974358974 K=6 S=6 D=-0.243161550588 thetaW=0.00141058875979
Pi=0.00140384615385 S=6 He=0.741025641026 K=7 D=-0.012755365554 thetaW=0.00141058875979
D=-0.982298440993 thetaW=0.00352647189947 S=15 K=12 Pi=0.00243974358974 He=0.842307692308
D=-0.66963845174 Pi=0.00201538461538 K=9 S=11 He=0.758974358974 thetaW=0.00258607939295
S=18 Pi=0.00489230769231 He=0.744871794872 thetaW=0.00423176627937 K=8 D=0.509792786629
thetaW=0.00517215878589 He=0.780769230769 K=12 S=22 Pi=0.00380641025641 D=-0.882619787278
Pi=0.0057858974359 K=11 D=0.762455137392 thetaW=0.00470196253263 He=0.891025641026 S=20
He=0.785897435897 S=7 thetaW=0.00164568688642 Pi=0.00133205128205 K=8 D=-0.527704133935
He=0.79358974359 S=15 thetaW=0.00352647189947 D=-0.00770414081126 Pi=0.00351794871795 K=9
He=0.680769230769 K=5 thetaW=0.00117549063316 D=2.08734795671 S=5 Pi=0.00213974358974
S=3 He=0.344871794872 D=-0.955438901959 Pi=0.000396153846154 K=4 thetaW=0.000705294379894
thetaW=0.00258607939295 D=-0.186749893702 Pi=0.00242692307692 K=10 He=0.842307692308 S=11
D=-0.224974608716 K=11 Pi=0.0028358974359 He=0.867948717949 S=13 thetaW=0.00305627564621
D=-0.0912942609619 S=14 He=0.805128205128 thetaW=0.00329137377284 K=9 Pi=0.00319615384615
thetaW=0.00564235503915 Pi=0.00270512820513 S=24 He=0.866666666667 K=13 D=-1.75568913547
S=15 K=8 D=-0.478197940899 thetaW=0.00352647189947 Pi=0.00299743589744 He=0.725641025641
D=-1.00059011146 thetaW=0.00258607939295 Pi=0.00173333333333 S=11 K=10 He=0.752564102564
thetaW=0.00329137377284 D=0.643764766844 K=10 He=0.810256410256 S=14 Pi=0.00396282051282
D=-1.2326954821 K=5 S=6 He=0.317948717949 thetaW=0.00141058875979 Pi=0.000758974358974
He=0.898717948718 D=0.581288054032 Pi=0.0058 S=21 K=12 thetaW=0.00493706065926
S=18 Pi=0.00462051282051 thetaW=0.00423176627937 He=0.769230769231 K=12 D=0.300026884947
K=10 thetaW=0.00235098126631 D=-0.715236787461 He=0.852564102564 S=10 Pi=0.00178717948718
He=0.642307692308 S=13 D=0.497477941333 thetaW=0.00305627564621 K=8 Pi=0.00354358974359
D=-0.0720107519968 He=0.930769230769 S=18 Pi=0.00413846153846 K=16 thetaW=0.00423176627937
K=10 Pi=0.00306025641026 S=12 thetaW=0.00282117751958 He=0.865384615385 D=0.261004769495
S=13 Pi=0.00285769230769 D=-0.20272516424 He=0.787179487179 thetaW=0.00305627564621 K=9
Pi=0.00125 thetaW=0.00258607939295 D=-1.56772091015 He=0.711538461538 S=11 K=8
He=0.742307692308 K=9 Pi=0.0019858974359 thetaW=0.00258607939295 D=-0.704237943438 S=11
S=9 He=0.803846153846 thetaW=0.00211588313968 K=8 D=0.167530475622 Pi=0.00223717948718
thetaW=0.00493706065926 K=11 D=0.947457736332 Pi=0.00634358974359 He=0.715384615385 S=21
S=9 Pi=0.00202564102564 D=-0.124639402575 He=0.755128205128 thetaW=0.00211588313968 K=10
D=-0.374790609449 S=11 K=8 thetaW=0.00258607939295 Pi=0.00226666666667 He=0.780769230769
He=0.858974358974 K=10 Pi=0.00211666666667 D=-0.297250607766 S=10 thetaW=0.00235098126631
He=0.864102564103 S=13 D=0.311629640414 Pi=0.00336153846154 thetaW=0.00305627564621 K=11
thetaW=0.00305627564621 D=-0.9356480411 K=8 Pi=0.00213974358974 S=13 He=0.683333333333
S=3 K=4 Pi=0.000866666666667 D=0.498741975421 thetaW=0.000705294379894 He=0.671794871795
thetaW=0.00188078501305 D=0.641565390955 He=0.829487179487 S=8 K=7 Pi=0.00230384615385
Pi=0.00173974358974 He=0.833333333333 S=12 thetaW=0.00282117751958 D=-1.18061202634 K=10
Pi=0.00217435897436 thetaW=0.00235098126631 He=0.769230769231 K=10 S=10 D=-0.224062366185
D=-0.698354799761 Pi=0.00161025641026 thetaW=0.00211588313968 He=0.767948717949 S=9 K=8
S=15 D=-0.977663034095 He=0.855128205128 thetaW=0.00352647189947 K=12 Pi=0.00244487179487
S=8 D=0.00775290672143 thetaW=0.00188078501305 K=8 Pi=0.0018858974359 He=0.84358974359
thetaW=0.00141058875979 D=0.0114979170811 K=6 Pi=0.00141666666667 S=6 He=0.664102564103
He=0.780769230769 Pi=0.00159743589744 K=6 D=0.353469202237 thetaW=0.00141058875979 S=6
thetaW=0.00258607939295 D=0.472144774275 He=0.676923076923 Pi=0.00298846153846 S=11 K=7
K=7 thetaW=0.00258607939295 D=0.879817046014 He=0.779487179487 S=11 Pi=0.0033358974359
D=-0.551384497396 K=9 S=9 He=0.821794871795 Pi=0.00171666666667 thetaW=0.00211588313968
K=12 Pi=0.00327692307692 D=-0.0138549319455 S=14 thetaW=0.00329137377284 He=0.812820512821
D=-1.53791634168 K=4 thetaW=0.000940392506526 He=0.273076923077 Pi=0.000334615384615 S=4
thetaW=0.0037615700261 He=0.846153846154 K=10 S=16 Pi=0.00463717948718 D=0.748689087002
D=-1.00335746938 He=0.79358974359 S=14 K=10 Pi=0.00224487179487 thetaW=0.00329137377284
K=10 Pi=0.0015858974359 S=10 thetaW=0.00235098126631 D=-0.97058243031 He=0.812820512821
K=6 S=6 D=-0.798561722933 thetaW=0.00141058875979 He=0.723076923077 Pi=0.000988461538462
He=0.816666666667 D=-1.22042724813 S=17 thetaW=0.00399666815273 Pi=0.00249230769231 K=11
He=0.597435897436 Pi=0.00119487179487 thetaW=0.00188078501305 K=7 S=8 D=-1.04017632335
D=-1.11695891347 thetaW=0.00235098126631 He=0.812820512821 Pi=0.00147051282051 K=9 S=10
D=0.212161535698 Pi=0.0032641025641 K=11 thetaW=0.00305627564621 S=13 He=0.821794871795
thetaW=0.000940392506526 Pi=0.000503846153846 S=4 He=0.421794871795 K=5 D=-1.10828181753
D=0.454025543033 thetaW=0.000940392506526 S=4 He=0.605128205128 K=5 Pi=0.00111923076923
Pi=0.00307564102564 D=-1.14397754359 K=14 He=0.865384615385 S=20 thetaW=0.00470196253263
S=7 K=8 D=-0.456519791924 Pi=0.00137435897436 thetaW=0.00164568688642 He=0.823076923077
S=1 thetaW=0.000235098126631 K=2 Pi=5e-05 D=-1.12410726471 He=0.05
S=12 thetaW=0.00282117751958 K=8 He=0.741025641026 D=0.921629165257 Pi=0.00366538461538
He=0.767948717949 thetaW=0.00329137377284 K=9 S=14 D=0.707682943175 Pi=0.00402948717949
K=9 He=0.848717948718 D=1.46821320432 Pi=0.00711666666667 thetaW=0.00493706065926 S=21
D=1.50459735947 S=15 Pi=0.00519102564103 K=9 thetaW=0.00352647189947 He=0.85
Pi=0.00177948717949 K=9 thetaW=0.00211588313968 D=-0.464618897204 He=0.766666666667 S=9
Pi=0.00331794871795 thetaW=0.004466864406 He=0.860256410256 S=19 D=-0.845600121628 K=15
K=13 Pi=0.00413205128205 He=0.883333333333 thetaW=0.00517215878589 S=22 D=-0.67217312995
D=0.73547864696 K=10 Pi=0.00349487179487 thetaW=0.00282117751958 S=12 He=0.865384615385
He=0.846153846154 S=12 K=8 thetaW=0.00282117751958 Pi=0.00329102564103 D=0.512937801777
Pi=0.00105897435897 S=6 He=0.775641025641 thetaW=0.00141058875979 K=7 D=-0.66516866844
He=0.788461538462 S=9 D=-1.10739262924 thetaW=0.00211588313968 K=10 Pi=0.0013141025641
K=6 He=0.644871794872 Pi=0.000788461538462 S=5 D=-0.837813754661 thetaW=0.00117549063316
Pi=0.00207307692308 He=0.667948717949 thetaW=0.00352647189947 K=8 D=-1.31373003416 S=15
S=16 Pi=0.00262820512821 D=-0.969082642852 K=12 He=0.857692307692 thetaW=0.0037615700261
Pi=0.00103461538462 S=6 thetaW=0.00141058875979 K=7 He=0.721794871795 D=-0.711249905447
thetaW=0.00282117751958 D=-0.917481970402 S=12 Pi=0.00198076923077 He=0.744871794872 K=7
D=0.166274922247 He=0.676923076923 K=8 S=10 thetaW=0.00235098126631 Pi=0.00248205128205
Pi=0.00155128205128 D=0.26615738475 thetaW=0.00141058875979 K=6 He=0.748717948718 S=6
D=1.00016310409 S=11 thetaW=0.00258607939295 K=8 Pi=0.00343846153846 He=0.769230769231
K=9 thetaW=0.00211588313968 S=9 D=-1.41549904624 He=0.730769230769 Pi=0.00109102564103
thetaW=0.00305627564621 S=13 D=-0.179166928912 K=9 Pi=0.00288076923077 He=0.760256410256
K=10 Pi=0.00357051282051 D=0.26763088305 thetaW=0.00329137377284 S=14 He=0.870512820513
He=0.687179487179 K=7 S=13 D=0.976495392995 Pi=0.00401282051282 thetaW=0.00305627564621
He=0.807692307692 S=11 thetaW=0.00258607939295 Pi=0.00211025641026 K=9 D=-0.558318348018
S=13 Pi=0.00242307692308 K=9 D=-0.64640526291 thetaW=0.00305627564621 He=0.834615384615
K=6 S=8 D=0.526856996569 He=0.761538461538 thetaW=0.00188078501305 Pi=0.00222820512821
D=-0.873656726679 S=9 He=0.687179487179 thetaW=0.00211588313968 K=7 Pi=0.00148333333333
thetaW=0.00282117751958 Pi=0.00256153846154 K=11 D=-0.283450505825 S=12 He=0.797435897436
D=-0.626891278319 thetaW=0.00117549063316 He=0.65641025641 Pi=0.000885897435897 K=6 S=5
D=-0.658550798334 Pi=0.00221794871795 S=12 thetaW=0.00282117751958 K=10 He=0.829487179487
S=12 He=0.760256410256 Pi=0.00151923076923 K=9 D=-1.42134803497 thetaW=0.00282117751958
Pi=0.00106153846154 S=7 D=-0.982852502547 thetaW=0.00164568688642 He=0.707692307692 K=8
D=-0.00879672367398 Pi=0.00375128205128 thetaW=0.0037615700261 K=13 S=16 He=0.85
He=0.734615384615 thetaW=0.00235098126631 Pi=0.00130641025641 S=10 K=8 D=-1.32513880064
He=0.669230769231 Pi=0.00105769230769 D=-1.46153793614 S=9 K=9 thetaW=0.00211588313968
D=0.733496052847 He=0.851282051282 K=10 Pi=0.00405641025641 S=14 thetaW=0.00329137377284
Pi=0.00340897435897 K=15 thetaW=0.00470196253263 He=0.902564102564 D=-0.909506163716 S=20
S=7 K=6 thetaW=0.00164568688642 D=-1.43800087116 He=0.462820512821 Pi=0.000791025641026
Pi=0.00270897435897 He=0.625641025641 S=9 K=6 thetaW=0.00211588313968 D=0.819157840328
S=6 He=0.520512820513 D=-0.40323321598 K=6 Pi=0.00119743589744 thetaW=0.00141058875979
thetaW=0.00164568688642 Pi=0.000873076923077 K=6 S=7 D=-1.29994638968 He=0.391025641026
He=0.716666666667 thetaW=0.00164568688642 K=7 Pi=0.00177307692308 D=0.214338703992 S=7
S=6 K=5 Pi=0.00112692307692 D=-0.536626270474 He=0.646153846154 thetaW=0.00141058875979
D=-0.474411191714 Pi=0.00156794871795 He=0.557692307692 thetaW=0.00188078501305 S=8 K=6
Pi=0.00236794871795 He=0.785897435897 S=14 D=-0.885354682304 thetaW=0.00329137377284 K=11
He=0.842307692308 thetaW=0.00329137377284 S=14 Pi=0.00473974358974 D=1.38865736024 K=8
K=10 thetaW=0.00282117751958 D=-0.867095363945 S=12 Pi=0.00202692307692 He=0.837179487179
thetaW=0.00423176627937 K=13 Pi=0.0033358974359 S=18 D=-0.691413839037 He=0.880769230769
Pi=0.00186666666667 He=0.766666666667 K=6 D=0.862788137575 thetaW=0.00141058875979 S=6
D=-0.653042027122 Pi=0.00106538461538 thetaW=0.00141058875979 He=0.55641025641 K=6 S=6
K=6 S=15 thetaW=0.00352647189947 Pi=0.00339871794872 He=0.642307692308 D=-0.115477351176
D=-1.51054901264 Pi=0.00116025641026 S=10 thetaW=0.00235098126631 K=9 He=0.652564102564
D=-0.802982694277 S=8 Pi=0.00135128205128 thetaW=0.00188078501305 He=0.824358974359 K=9
D=0.255727217513 He=0.811538461538 S=10 K=10 Pi=0.00255256410256 thetaW=0.00235098126631
K=10 Pi=0.00240128205128 D=-0.216836408222 thetaW=0.00258607939295 S=11 He=0.876923076923
thetaW=0.00282117751958 Pi=0.00347307692308 He=0.669230769231 K=8 S=12 D=0.711684971689
S=4 K=3 Pi=0.00136923076923 thetaW=0.000940392506526 He=0.375641025641 D=1.08871290826
K=9 He=0.64358974359 thetaW=0.00235098126631 Pi=0.00168846153846 S=10 D=-0.840470000833
D=-0.463830031296 thetaW=0.000940392506526 He=0.624358974359 Pi=0.000757692307692 K=5 S=4
K=7 D=0.633788550658 Pi=0.00229871794872 He=0.65641025641 thetaW=0.00188078501305 S=8
S=14 He=0.691025641026 D=-0.171191981376 K=8 Pi=0.00311282051282 thetaW=0.00329137377284
S=7 K=5 He=0.594871794872 D=1.0059948712 thetaW=0.00164568688642 Pi=0.00224358974359
thetaW=0.00282117751958 K=9 D=0.314190631866 S=12 Pi=0.00310897435897 He=0.867948717949
S=9 K=8 He=0.815384615385 Pi=0.00293846153846 thetaW=0.00211588313968 D=1.13611789001
D=-1.40374360725 S=8 K=9 Pi=0.000955128205128 thetaW=0.00188078501305 He=0.720512820513
S=5 thetaW=0.00117549063316 He=0.817948717949 D=0.910622562384 Pi=0.00159615384615 K=6
Pi=0.00208205128205 K=7 S=10 He=0.65641025641 D=-0.341163552714 thetaW=0.00235098126631
K=12 Pi=0.00368846153846 He=0.864102564103 D=-0.572903274201 S=19 thetaW=0.004466864406
D=-0.0500369917588 K=9 S=10 thetaW=0.00235098126631 He=0.767948717949 Pi=0.00231153846154
thetaW=0.00188078501305 K=8 He=0.835897435897 D=0.0446928981338 S=8 Pi=0.00191025641026
thetaW=0.00211588313968 He=0.733333333333 K=6 Pi=0.00179358974359 S=9 D=-0.445140905324
thetaW=0.0037615700261 He=0.9 S=16 K=13 Pi=0.00282051282051 D=-0.804650122445
thetaW=0.00188078501305 D=-0.659111148776 S=8 He=0.589743589744 K=6 Pi=0.00144615384615
D=1.47853868495 Pi=0.00384615384615 He=0.771794871795 thetaW=0.00258607939295 K=6 S=11
He=0.680769230769 S=9 K=8 thetaW=0.00211588313968 Pi=0.00129615384615 D=-1.13218280072
S=8 D=-0.668832199148 K=9 He=0.803846153846 thetaW=0.00188078501305 Pi=0.00143974358974
D=1.08365051703 S=7 Pi=0.00228974358974 K=6 He=0.766666666667 thetaW=0.00164568688642
D=-1.40446925463 K=4 S=4 Pi=0.000387179487179 He=0.275641025641 thetaW=0.000940392506526
D=-1.65470650872 Pi=0.00445128205128 S=36 thetaW=0.00846353255873 He=0.884615384615 K=12
Pi=0.00206538461538 He=0.852564102564 S=12 D=-0.825106525232 K=11 thetaW=0.00282117751958
D=-0.0857086087577 He=0.783333333333 K=6 S=5 Pi=0.0011358974359 thetaW=0.00117549063316
S=12 thetaW=0.00282117751958 K=9 He=0.833333333333 Pi=0.00304102564103 D=0.240010350138
thetaW=0.00305627564621 Pi=0.0025141025641 He=0.825641025641 K=11 D=-0.553481112451 S=13
He=0.841025641026 Pi=0.00335512820513 K=8 thetaW=0.00305627564621 D=0.305085686157 S=13
D=0.218319894038 Pi=0.00252307692308 S=10 thetaW=0.00235098126631 He=0.788461538462 K=8
Pi=0.00240641025641 K=9 He=0.80641025641 D=0.0703170055076 S=10 thetaW=0.00235098126631
thetaW=0.00282117751958 S=12 Pi=0.00225512820513 D=-0.617961587578 K=11 He=0.862820512821
Pi=0.00300769230769 D=-0.271986028667 S=14 He=0.869230769231 K=11 thetaW=0.00329137377284
He=0.808974358974 S=14 D=-1.46553505208 K=11 Pi=0.00176282051282 thetaW=0.00329137377284
Pi=0.00275128205128 thetaW=0.00258607939295 He=0.782051282051 K=9 S=11 D=0.19384451497
D=-1.16404900948 S=7 K=7 Pi=0.000953846153846 thetaW=0.00164568688642 He=0.684615384615
Pi=0.000785897435897 D=-1.18176358857 S=6 thetaW=0.00141058875979 K=7 He=0.64358974359
K=6 He=0.744871794872 Pi=0.00259615384615 thetaW=0.00258607939295 D=0.0118211021265 S=11
Pi=0.00224102564103 S=10 K=7 He=0.761538461538 thetaW=0.00235098126631 D=-0.139489287024
D=1.22817630232 S=7 thetaW=0.00164568688642 He=0.714102564103 K=5 Pi=0.00237564102564
S=8 thetaW=0.00188078501305 He=0.79358974359 D=1.14511580021 Pi=0.0026358974359 K=6
He=0.632051282051 K=5 Pi=0.00141282051282 thetaW=0.00141058875979 D=0.00422193229059 S=6
thetaW=0.00164568688642 S=7 D=0.320036666371 Pi=0.0018358974359 He=0.794871794872 K=7
K=9 Pi=0.00113333333333 D=-1.54470352538 thetaW=0.00235098126631 S=10 He=0.628205128205
He=0.626923076923 S=6 thetaW=0.00141058875979 D=0.418953065352 K=5 Pi=0.00163205128205
thetaW=0.00282117751958 K=7 Pi=0.00322692307692 S=12 He=0.767948717949 D=0.442956403921
K=7 D=0.386398207894 S=11 Pi=0.00291538461538 thetaW=0.00258607939295 He=0.766666666667
K=8 S=11 Pi=0.00231794871795 thetaW=0.00258607939295 He=0.798717948718 D=-0.31461758041
S=3 D=0.00344876105474 K=3 Pi=0.00070641025641 He=0.337179487179 thetaW=0.000705294379894
K=11 D=-0.367428183253 thetaW=0.00282117751958 He=0.841025641026 S=12 Pi=0.00248461538462
K=14 D=-0.996956947559 Pi=0.00362948717949 thetaW=0.00517215878589 He=0.903846153846 S=22
He=0.783333333333 D=-1.30897688528 S=11 thetaW=0.00258607939295 Pi=0.00147051282051 K=10
K=7 S=6 thetaW=0.00141058875979 D=-0.357151978973 He=0.764102564103 Pi=0.00122179487179
K=7 D=0.116179406121 Pi=0.0022 S=9 He=0.564102564103 thetaW=0.00211588313968
D=-0.35581437718 Pi=0.00164615384615 He=0.80641025641 thetaW=0.00188078501305 K=9 S=8
thetaW=0.0037615700261 S=16 D=-0.703798176595 Pi=0.00293846153846 K=11 He=0.794871794872
Pi=0.00221666666667 He=0.716666666667 K=8 S=12 D=-0.659950426291 thetaW=0.00282117751958
S=13 He=0.697435897436 thetaW=0.00305627564621 K=9 D=-0.549554739897 Pi=0.00251794871795
S=4 Pi=0.001 D=0.151328491924 thetaW=0.000940392506526 He=0.498717948718 K=4
K=6 Pi=0.00225897435897 He=0.678205128205 S=12 thetaW=0.00282117751958 D=-0.613762703706
D=-1.40653365854 S=14 He=0.761538461538 thetaW=0.00329137377284 K=11 Pi=0.00182435897436
He=0.705128205128 thetaW=0.00235098126631 D=-0.939680728309 Pi=0.00161025641026 K=9 S=10
thetaW=0.00423176627937 D=0.486045703419 Pi=0.00486153846154 He=0.739743589744 S=18 K=9
Pi=0.00195641025641 K=13 D=-1.54350024748 S=16 He=0.820512820513 thetaW=0.0037615700261
S=9 Pi=0.00188717948718 thetaW=0.00211588313968 He=0.780769230769 D=-0.315877868304 K=8
D=-0.289105360441 He=0.84358974359 Pi=0.00277307692308 S=13 thetaW=0.00305627564621 K=9
thetaW=0.00258607939295 S=11 K=8 Pi=0.00297307692308 D=0.454092865563 He=0.712820512821
S=9 K=8 thetaW=0.00211588313968 D=-0.521282146309 He=0.724358974359 Pi=0.00173846153846
Pi=0.00269615384615 He=0.867948717949 D=0.437884618781 K=9 S=10 thetaW=0.00235098126631
S=13 D=0.0904439865047 He=0.866666666667 K=12 Pi=0.00314487179487 thetaW=0.00305627564621
Pi=0.00179871794872 K=9 He=0.826923076923 S=10 D=-0.700599139145 thetaW=0.00235098126631
thetaW=0.00305627564621 He=0.621794871795 Pi=0.00167564102564 S=13 K=8 D=-1.40943032936
D=-0.0712810814287 K=9 S=16 He=0.835897435897 thetaW=0.0037615700261 Pi=0.00367820512821
D=-1.2212012371 K=10 thetaW=0.00282117751958 S=12 He=0.733333333333 Pi=0.00170256410256
K=10 D=2.58569941428 thetaW=0.00611255129242 S=26 He=0.865384615385 Pi=0.0107628205128
D=0.427015002496 He=0.774358974359 K=6 S=11 Pi=0.00295 thetaW=0.00258607939295
K=9 S=10 He=0.833333333333 D=-0.183402231973 Pi=0.00220641025641 thetaW=0.00235098126631
K=9 Pi=0.00238846153846 S=12 He=0.794871794872 D=-0.472400280037 thetaW=0.00282117751958
D=-2.10785312124 K=8 He=0.437179487179 thetaW=0.00211588313968 S=9 Pi=0.000589743589744
Pi=0.0018 D=0.259637830726 S=7 thetaW=0.00164568688642 He=0.810256410256 K=7
K=14 He=0.928205128205 thetaW=0.0037615700261 D=-0.0285286261229 Pi=0.00372820512821 S=16
K=11 thetaW=0.00305627564621 D=-0.821783237016 S=13 He=0.820512820513 Pi=0.00225128205128
D=-0.146765115067 Pi=0.00110769230769 K=6 thetaW=0.00117549063316 S=5 He=0.707692307692
thetaW=0.00235098126631 Pi=0.00164102564103 D=-0.900646999466 S=10 He=0.75 K=8
K=3 He=0.347435897436 thetaW=0.000940392506526 D=-0.525671364318 Pi=0.000733333333333 S=4
S=13 thetaW=0.00305627564621 He=0.858974358974 Pi=0.00179871794872 K=12 D=-1.28378640761
thetaW=0.00329137377284 K=5 Pi=0.00483461538462 S=14 He=0.716666666667 D=1.47961784194
K=7 Pi=0.00141666666667 thetaW=0.00211588313968 D=-0.965734506475 S=9 He=0.588461538462
S=8 D=-1.27542574234 K=6 Pi=0.00103974358974 thetaW=0.00188078501305 He=0.698717948718
D=0.69537228788 K=7 Pi=0.00205897435897 S=7 thetaW=0.00164568688642 He=0.84358974359
D=-1.52644202335 Pi=0.000738461538462 He=0.584615384615 K=7 thetaW=0.00164568688642 S=7
thetaW=0.00258607939295 Pi=0.00221025641026 D=-0.440980941392 He=0.870512820513 K=10 S=11
K=7 Pi=0.000717948717949 S=6 He=0.583333333333 thetaW=0.00141058875979 D=-1.31030598654
Pi=0.00267307692308 S=9 thetaW=0.00211588313968 D=0.769577497361 He=0.717948717949 K=6
K=6 He=0.574358974359 thetaW=0.00141058875979 S=6 D=-0.822815005568 Pi=0.000975641025641
He=0.70641025641 S=15 thetaW=0.00352647189947 D=0.606487273096 K=7 Pi=0.00419743589744
He=0.0987179487179 S=2 thetaW=0.000470196253263 Pi=0.0001 D=-1.48661900459 K=3
thetaW=0.00141058875979 D=0.588726043798 K=4 Pi=0.00172179487179 He=0.532051282051 S=6
He=0.873076923077 Pi=0.00186923076923 thetaW=0.00258607939295 K=11 S=11 D=-0.841131584502
D=-0.610014845801 K=9 S=14 Pi=0.00265512820513 He=0.705128205128 thetaW=0.00329137377284
S=17 He=0.652564102564 thetaW=0.00399666815273 K=8 D=-0.822077858071 Pi=0.00298333333333
Pi=0.0016641025641 He=0.779487179487 thetaW=0.00164568688642 K=7 D=0.0309850957832 S=7
S=10 D=-1.81956603265 Pi=0.000916666666667 thetaW=0.00235098126631 He=0.634615384615 K=10
thetaW=0.00164568688642 Pi=0.00211025641026 K=6 D=0.781656338802 He=0.735897435897 S=7
S=11 D=0.100576319959 thetaW=0.00258607939295 K=9 He=0.824358974359 Pi=0.00267179487179
Pi=0.00376282051282 S=14 D=0.452010237851 K=10 thetaW=0.00329137377284 He=0.879487179487
K=11 thetaW=0.00235098126631 D=-1.50404339117 He=0.79358974359 Pi=0.00116538461538 S=10
thetaW=0.00258607939295 D=1.57481553141 K=6 S=11 Pi=0.00392820512821 He=0.684615384615
He=0.75641025641 K=9 thetaW=0.00329137377284 D=-0.882896290907 S=14 Pi=0.00237051282051
D=-0.0692284973828 He=0.692307692308 Pi=0.00298846153846 K=8 thetaW=0.00305627564621 S=13
Pi=0.0041141025641 K=10 thetaW=0.00399666815273 S=17 He=0.860256410256 D=0.0952698234714
thetaW=0.00305627564621 K=9 D=-0.701374478675 Pi=0.00236923076923 S=13 He=0.821794871795
S=9 K=6 Pi=0.0030141025641 He=0.767948717949 D=1.24059075554 thetaW=0.00211588313968
S=15 D=0.0386499281629 K=9 Pi=0.00356923076923 He=0.808974358974 thetaW=0.00352647189947
Pi=0.00357051282051 D=0.26763088305 S=14 He=0.832051282051 K=10 thetaW=0.00329137377284
He=0.761538461538 K=6 thetaW=0.00117549063316 S=5 D=0.0197526294133 Pi=0.00118461538462
S=9 Pi=0.00179102564103 K=8 D=-0.448682358393 He=0.792307692308 thetaW=0.00211588313968
D=-1.24550929893 Pi=0.0012141025641 K=8 S=9 He=0.617948717949 thetaW=0.00211588313968
Pi=0.00342564102564 K=10 He=0.852564102564 D=0.985119846833 thetaW=0.00258607939295 S=11
K=9 S=17 thetaW=0.00399666815273 D=1.90396326814 He=0.879487179487 Pi=0.00634358974359
thetaW=0.00188078501305 Pi=0.00216794871795 K=6 D=0.435479123076 He=0.688461538462 S=8
thetaW=0.00258607939295 Pi=0.00192692307692 He=0.734615384615 S=11 D=-0.773436926833 K=9
D=0.0308538123786 S=5 He=0.725641025641 Pi=0.00118974358974 K=6 thetaW=0.00117549063316
Pi=0.00175384615385 K=10 He=0.833333333333 D=-0.757523327041 thetaW=0.00235098126631 S=10
D=1.08873360976 K=9 thetaW=0.00329137377284 He=0.794871794872 Pi=0.00442692307692 S=14
thetaW=0.00235098126631 D=-0.698972733776 S=10 K=6 Pi=0.0018 He=0.687179487179
Pi=0.00224743589744 thetaW=0.00235098126631 D=-0.131357260182 S=10 He=0.664102564103 K=7
D=-1.2970606236 S=4 K=4 He=0.234615384615 thetaW=0.000940392506526 Pi=0.000429487179487
S=6 D=0.9209960159 K=5 thetaW=0.00141058875979 Pi=0.00189743589744 He=0.753846153846
He=0.862820512821 S=13 K=9 thetaW=0.00305627564621 Pi=0.00271666666667 D=-0.346692157909
D=-1.75656638702 K=7 Pi=0.000482051282051 S=6 He=0.398717948718 thetaW=0.00141058875979
K=4 He=0.344871794872 Pi=0.000411538461538 D=-1.34262792161 S=4 thetaW=0.000940392506526
thetaW=0.00352647189947 He=0.902564102564 D=0.229860462681 Pi=0.00378076923077 S=15 K=12
K=5 D=-0.788860409879 S=6 He=0.587179487179 thetaW=0.00141058875979 Pi=0.00099358974359
S=5 He=0.684615384615 thetaW=0.00117549063316 Pi=0.00118076923077 D=0.0114267421892 K=6
S=16 K=8 thetaW=0.0037615700261 D=1.82078912006 Pi=0.00589102564103 He=0.792307692308
He=0.817948717949 Pi=0.00953205128205 S=25 thetaW=0.00587745316579 D=2.10551107179 K=9
He=0.628205128205 thetaW=0.00305627564621 D=-1.46963470853 K=10 S=13 Pi=0.00161666666667
thetaW=0.00282117751958 He=0.828205128205 K=9 Pi=0.00309102564103 D=0.294595840466 S=12
He=0.828205128205 K=7 D=0.206062334304 thetaW=0.00188078501305 S=8 Pi=0.00201666666667
K=9 D=0.348144582144 thetaW=0.00211588313968 He=0.85641025641 S=9 Pi=0.00236794871795
S=11 Pi=0.00187692307692 thetaW=0.00258607939295 D=-0.832105630146 He=0.878205128205 K=10
thetaW=0.00164568688642 D=1.22386209978 S=7 K=5 Pi=0.00237307692308 He=0.714102564103
D=-0.469462399563 He=0.847435897436 Pi=0.00136666666667 S=7 thetaW=0.00164568688642 K=8
D=0.542848083396 He=0.842307692308 S=11 thetaW=0.00258607939295 K=8 Pi=0.00304871794872
D=0.332168269831 thetaW=0.00235098126631 K=8 S=10 Pi=0.00261282051282 He=0.835897435897
S=11 thetaW=0.00258607939295 He=0.857692307692 D=-0.0979946758697 K=9 Pi=0.00250256410256
D=-1.22248985398 K=8 He=0.758974358974 thetaW=0.00211588313968 S=9 Pi=0.00123076923077
S=9 D=-0.0803712392117 K=8 thetaW=0.00211588313968 He=0.774358974359 Pi=0.00205769230769
Pi=0.000985897435897 thetaW=0.00211588313968 K=9 D=-1.56069862208 He=0.628205128205 S=9
thetaW=0.00188078501305 S=8 K=6 Pi=0.00148974358974 D=-0.593008006249 He=0.433333333333
He=0.820512820513 thetaW=0.00258607939295 D=-0.43797228994 S=11 K=9 Pi=0.00221282051282
Pi=0.00140512820513 thetaW=0.00211588313968 S=9 K=9 He=0.764102564103 D=-0.981671045286
thetaW=0.00164568688642 K=6 D=-0.540646741573 Pi=0.00132435897436 S=7 He=0.466666666667
S=16 Pi=0.00309487179487 He=0.841025641026 D=-0.570059726664 K=11 thetaW=0.0037615700261
thetaW=0.00282117751958 S=12 D=-0.458404000466 Pi=0.00240128205128 K=10 He=0.839743589744
He=0.507692307692 K=8 S=9 D=-1.97681935769 Pi=0.000684615384615 thetaW=0.00211588313968
Pi=0.00176666666667 S=8 He=0.598717948718 D=-0.173058630192 K=5 thetaW=0.00188078501305
K=9 thetaW=0.00305627564621 D=1.05240526238 S=13 He=0.855128205128 Pi=0.00408717948718
He=0.661538461538 D=0.521675782527 thetaW=0.00211588313968 K=7 Pi=0.00249358974359 S=9
thetaW=0.00117549063316 K=6 D=-0.699048967594 He=0.682051282051 Pi=0.000852564102564 S=5
K=7 Pi=0.00299615384615 He=0.794871794872 D=0.481170728631 S=11 thetaW=0.00258607939295
S=12 thetaW=0.00282117751958 He=0.864102564103 K=9 Pi=0.00349743589744 D=0.738277902874
S=10 K=9 He=0.769230769231 Pi=0.00185897435897 D=-0.624158086827 thetaW=0.00235098126631
K=12 D=-0.0268007028564 S=23 Pi=0.0053641025641 thetaW=0.00540725691252 He=0.860256410256
S=12 He=0.757692307692 D=-0.62635935532 thetaW=0.00282117751958 K=10 Pi=0.00224743589744
S=9 thetaW=0.00211588313968 K=6 D=0.473866166095 Pi=0.00245897435897 He=0.664102564103
S=5 K=6 thetaW=0.00117549063316 D=-0.368788774374 He=0.662820512821 Pi=0.00100512820513
K=7 S=8 D=0.530745416718 thetaW=0.00188078501305 He=0.748717948718 Pi=0.00223076923077
thetaW=0.00258607939295 D=-0.347712746382 Pi=0.00228974358974 S=11 K=6 He=0.679487179487
He=0.751282051282 D=-0.225862362578 thetaW=0.00258607939295 K=8 S=11 Pi=0.00239358974359
K=10 S=11 He=0.735897435897 thetaW=0.00258607939295 D=-0.720785526424 Pi=0.00197179487179
Pi=0.000342307692308 He=0.234615384615 thetaW=0.000940392506526 S=4 D=-1.51838749967 K=4
D=-1.17384797608 K=8 thetaW=0.00305627564621 He=0.687179487179 Pi=0.00190641025641 S=13
Pi=0.00168974358974 S=11 thetaW=0.00258607939295 K=8 He=0.729487179487 D=-1.05173718614
thetaW=0.00705294379894 He=0.816666666667 Pi=0.0117769230769 K=7 D=2.30532988681 S=30
D=0.380995555546 K=8 S=13 Pi=0.00342948717949 thetaW=0.00305627564621 He=0.807692307692
K=9 D=-1.12996462634 Pi=0.00211282051282 He=0.601282051282 thetaW=0.00329137377284 S=14
K=8 Pi=0.00131282051282 S=11 D=-1.49400894957 thetaW=0.00258607939295 He=0.607692307692
S=13 He=0.797435897436 thetaW=0.00305627564621 D=1.59947983833 K=6 Pi=0.00462307692308
D=-0.728457150848 S=9 He=0.788461538462 K=9 Pi=0.00158846153846 thetaW=0.00211588313968
S=18 He=0.888461538462 thetaW=0.00423176627937 D=1.00155530142 K=11 Pi=0.00552948717949
Pi=0.00128846153846 He=0.742307692308 thetaW=0.00211588313968 S=9 D=-1.14280715993 K=9
K=11 D=-0.774719918775 thetaW=0.00282117751958 Pi=0.00211153846154 He=0.838461538462 S=12
D=-1.09072578528 S=8 K=8 He=0.675641025641 thetaW=0.00188078501305 Pi=0.00116153846154
thetaW=0.00141058875979 K=7 He=0.821794871795 D=-0.340174681129 S=6 Pi=0.00123076923077
thetaW=0.00188078501305 K=8 He=0.648717948718 Pi=0.00136538461538 D=-0.78159638346 S=8
K=6 Pi=0.000534615384615 S=7 He=0.319230769231 D=-1.86942112577 thetaW=0.00164568688642
Pi=0.00123717948718 He=0.823076923077 K=9 D=-0.976017390893 thetaW=0.00188078501305 S=8
He=0.589743589744 D=-0.931954777427 Pi=0.000917948717949 S=6 K=6 thetaW=0.00141058875979
K=6 D=-1.17206227551 S=6 thetaW=0.00141058875979 Pi=0.000791025641026 He=0.528205128205
K=8 thetaW=0.00211588313968 D=-0.14234666792 Pi=0.00201282051282 He=0.796153846154 S=9
He=0.752564102564 S=11 Pi=0.00137051282051 K=11 thetaW=0.00258607939295 D=-1.42631429191
He=0.862820512821 K=12 Pi=0.0026858974359 thetaW=0.00305627564621 D=-0.378103138345 S=13
K=9 S=11 Pi=0.00233461538462 D=-0.295061345973 thetaW=0.00258607939295 He=0.792307692308
thetaW=0.00258607939295 He=0.884615384615 D=0.0704898054395 K=10 S=11 Pi=0.00264615384615
He=0.664102564103 S=5 thetaW=0.00117549063316 K=6 Pi=0.00124615384615 D=0.152966824998
D=0.213470326549 He=0.867948717949 S=13 K=11 Pi=0.00326538461538 thetaW=0.00305627564621
D=-0.212323431044 K=8 Pi=0.00240512820513 S=11 He=0.634615384615 thetaW=0.00258607939295
S=9 D=0.771348223895 Pi=0.00267435897436 K=7 He=0.796153846154 thetaW=0.00211588313968
He=0.85 K=12 S=12 thetaW=0.00282117751958 Pi=0.00194102564103 D=-0.960870437072
He=0.880769230769 K=10 D=0.226014070567 S=12 thetaW=0.00282117751958 Pi=0.00302820512821
S=12 thetaW=0.00282117751958 D=0.902034373857 K=8 He=0.787179487179 Pi=0.00364743589744
D=0.0384639243128 thetaW=0.00282117751958 He=0.764102564103 K=9 S=12 Pi=0.00285641025641
D=-0.857679167487 He=0.734615384615 K=9 Pi=0.00185512820513 S=11 thetaW=0.00258607939295
D=0.777936934533 Pi=0.00523974358974 S=18 thetaW=0.00423176627937 He=0.837179487179 K=10
D=-0.0665175925205 thetaW=0.00517215878589 K=13 S=22 Pi=0.00506923076923 He=0.871794871795
K=5 Pi=0.00103461538462 thetaW=0.00141058875979 He=0.489743589744 D=-0.711249905447 S=6
thetaW=0.00517215878589 He=0.75641025641 K=10 D=1.44637845583 Pi=0.00741025641026 S=22
Pi=0.000914102564103 S=10 thetaW=0.00235098126631 K=8 D=-1.82281884339 He=0.537179487179
D=-0.573003260669 K=7 He=0.679487179487 S=7 thetaW=0.00164568688642 Pi=0.00130512820513
K=8 D=-0.435526990227 S=8 Pi=0.00159358974359 He=0.721794871795 thetaW=0.00188078501305
He=0.824358974359 K=9 S=10 Pi=0.00141025641026 thetaW=0.00235098126631 D=-1.19339996579
D=0.224926804271 K=7 S=6 Pi=0.00152948717949 thetaW=0.00141058875979 He=0.835897435897
He=0.773076923077 K=9 thetaW=0.00211588313968 D=-0.66648172214 Pi=0.00163333333333 S=9
K=7 S=7 He=0.533333333333 D=-0.898725552898 Pi=0.00111153846154 thetaW=0.00164568688642
K=9 thetaW=0.00329137377284 D=-0.428093882398 S=14 He=0.807692307692 Pi=0.00284487179487
Pi=0.0022358974359 He=0.867948717949 K=10 S=12 thetaW=0.00282117751958 D=-0.638956006934
K=6 Pi=0.00079358974359 He=0.646153846154 S=5 thetaW=0.00117549063316 D=-0.826712571696
S=8 Pi=0.00204358974359 D=0.246890745865 He=0.651282051282 thetaW=0.00188078501305 K=6
Pi=0.00137948717949 He=0.712820512821 thetaW=0.00117549063316 S=5 D=0.441597582097 K=6
He=0.805128205128 K=8 Pi=0.00198717948718 thetaW=0.00188078501305 S=8 D=0.161345502594
thetaW=0.00352647189947 S=15 D=-0.264969223618 He=0.757692307692 Pi=0.00323333333333 K=10
K=10 He=0.728205128205 S=10 Pi=0.00122948717949 D=-1.42272312274 thetaW=0.00235098126631
D=0.297794806977 Pi=0.00105769230769 S=4 He=0.696153846154 thetaW=0.000940392506526 K=5
S=13 thetaW=0.00305627564621 D=1.23040081819 Pi=0.00426153846154 He=0.741025641026 K=6
D=0.223199110143 He=0.801282051282 Pi=0.00252692307692 S=10 thetaW=0.00235098126631 K=8
S=10 K=8 He=0.778205128205 D=0.524084103309 thetaW=0.00235098126631 Pi=0.0027641025641
D=-1.31793991791 Pi=0.000566666666667 K=5 He=0.278205128205 thetaW=0.00117549063316 S=5
Pi=0.00294743589744 He=0.807692307692 thetaW=0.00282117751958 S=12 D=0.137837509268 K=8
thetaW=0.00141058875979 S=6 K=7 D=0.161868269419 Pi=0.00149615384615 He=0.824358974359
S=10 He=0.674358974359 D=0.128867598772 thetaW=0.00235098126631 K=8 Pi=0.00245256410256
K=7 Pi=0.00354743589744 S=10 thetaW=0.00235098126631 D=1.51781778344 He=0.847435897436
D=-0.427486498615 He=0.762820512821 K=7 thetaW=0.00141058875979 S=6 Pi=0.00118461538462
S=7 D=0.529275489856 K=6 thetaW=0.00164568688642 Pi=0.00196025641026 He=0.682051282051
K=10 He=0.791025641026 D=-0.547717034509 thetaW=0.00235098126631 S=10 Pi=0.00191923076923
thetaW=0.00282117751958 S=12 K=12 He=0.829487179487 Pi=0.00181025641026 D=-1.1036324887
He=0.835897435897 thetaW=0.00282117751958 K=11 S=12 Pi=0.00221538461538 D=-0.661350054248
thetaW=0.00188078501305 Pi=0.00117820512821 S=8 He=0.716666666667 D=-1.06545105431 K=7
S=7 Pi=0.00108846153846 K=7 thetaW=0.00164568688642 He=0.610256410256 D=-0.937553375813
thetaW=0.00211588313968 Pi=0.00168974358974 D=-0.588569754621 S=9 K=8 He=0.678205128205
Pi=0.00282564102564 S=16 K=11 thetaW=0.0037615700261 He=0.829487179487 D=-0.800265255234
K=10 thetaW=0.00235098126631 He=0.866666666667 Pi=0.00234743589744 D=-0.00449764144177 S=10
He=0.903846153846 thetaW=0.0037615700261 D=-0.294909309183 Pi=0.00341666666667 K=12 S=16
S=8 Pi=0.00208205128205 He=0.734615384615 K=7 thetaW=0.00188078501305 D=0.305217048095
Pi=0.00383076923077 He=0.864102564103 D=0.0591687180943 K=12 thetaW=0.0037615700261 S=16
S=27 D=1.99409118853 He=0.75641025641 K=9 Pi=0.010058974359 thetaW=0.00634764941905
D=-1.39002989509 Pi=0.0021358974359 thetaW=0.0037615700261 He=0.832051282051 S=16 K=13
thetaW=0.00282117751958 K=13 S=12 Pi=0.00138333333333 He=0.776923076923 D=-1.56970859842
He=0.847435897436 Pi=0.00476666666667 thetaW=0.00423176627937 D=0.412825530191 S=18 K=11
thetaW=0.00352647189947 D=-1.44815683418 Pi=0.00192435897436 He=0.819230769231 S=15 K=11
Pi=0.00295256410256 He=0.696153846154 D=1.15559588189 thetaW=0.00211588313968 K=7 S=9
K=5 Pi=0.00165 He=0.603846153846 S=5 thetaW=0.00117549063316 D=1.02718498352
D=-1.5950224372 He=0.70641025641 K=10 S=16 thetaW=0.0037615700261 Pi=0.00189615384615
K=11 thetaW=0.00282117751958 S=12 D=-0.167281385384 Pi=0.00266794871795 He=0.875641025641
D=1.20198520334 Pi=0.0061 S=19 He=0.869230769231 K=10 thetaW=0.004466864406
Pi=0.00338333333333 He=0.660256410256 S=12 K=7 D=0.61371101469 thetaW=0.00282117751958
thetaW=0.00282117751958 S=12 He=0.816666666667 D=0.878240698586 K=9 Pi=0.00362564102564
K=11 D=0.234495869579 thetaW=0.00352647189947 He=0.835897435897 S=15 Pi=0.0037858974359
K=9 D=-0.854503008305 S=13 He=0.773076923077 Pi=0.00221923076923 thetaW=0.00305627564621
Pi=0.000778205128205 K=4 He=0.603846153846 S=3 D=0.225340121091 thetaW=0.000705294379894
Pi=0.00142051282051 S=9 D=-0.960422326871 He=0.747435897436 thetaW=0.00211588313968 K=9
thetaW=0.00141058875979 D=0.588726043798 He=0.776923076923 S=6 K=6 Pi=0.00172179487179
Pi=0.00160256410256 K=6 thetaW=0.00141058875979 D=0.363170515291 He=0.729487179487 S=6
Pi=0.00380512820513 He=0.85641025641 D=0.764471275046 S=13 K=10 thetaW=0.00305627564621
D=0.624081672598 Pi=0.00311794871795 K=8 thetaW=0.00258607939295 S=11 He=0.802564102564
thetaW=0.00141058875979 He=0.815384615385 K=7 Pi=0.00148333333333 S=6 D=0.137614986784
K=10 D=-0.305867953018 S=19 He=0.814102564103 Pi=0.00405128205128 thetaW=0.004466864406
D=-0.154741753662 He=0.808974358974 thetaW=0.00211588313968 Pi=0.00200384615385 K=9 S=9
thetaW=0.00188078501305 S=8 He=0.630769230769 Pi=0.00139743589744 K=7 D=-0.732991131601
He=0.658974358974 K=11 Pi=0.0018641025641 thetaW=0.00470196253263 D=-1.99619082814 S=20
D=-0.400364146791 He=0.833333333333 K=10 S=11 thetaW=0.00258607939295 Pi=0.00224487179487
thetaW=0.00141058875979 Pi=0.000998717948718 He=0.726923076923 D=-0.779159096825 K=7 S=6
K=5 thetaW=0.000940392506526 Pi=0.000767948717949 He=0.611538461538 D=-0.437791575287 S=4
He=0.833333333333 K=10 thetaW=0.00282117751958 D=-0.921680854273 S=12 Pi=0.00197692307692
thetaW=0.00305627564621 He=0.847435897436 D=0.083900032247 Pi=0.00313846153846 K=10 S=13
thetaW=0.00164568688642 K=8 D=-1.08639336365 He=0.723076923077 S=7 Pi=0.001
D=-1.02671218765 Pi=0.00222051282051 S=14 thetaW=0.00329137377284 He=0.889743589744 K=12
S=15 Pi=0.00300384615385 D=-0.472403682277 K=8 He=0.770512820513 thetaW=0.00352647189947
D=-0.263470505727 He=0.835897435897 thetaW=0.00258607939295 S=11 K=9 Pi=0.00236153846154
S=15 He=0.887179487179 thetaW=0.00352647189947 Pi=0.00411794871795 D=0.534638466186 K=11
K=9 S=10 Pi=0.00262307692308 He=0.803846153846 thetaW=0.00235098126631 D=0.345179512778
Pi=0.00172179487179 K=9 S=12 D=-1.20020681774 He=0.703846153846 thetaW=0.00282117751958
thetaW=0.00164568688642 Pi=0.00194230769231 K=7 S=7 He=0.79358974359 D=0.499076072034
D=-0.79574475916 K=8 thetaW=0.00211588313968 S=9 He=0.707692307692 Pi=0.00153974358974
K=12 thetaW=0.00305627564621 Pi=0.00267435897436 D=-0.389882256009 S=13 He=0.846153846154
Pi=0.00201666666667 S=9 D=-0.137034488317 K=7 He=0.707692307692 thetaW=0.00211588313968
thetaW=0.00329137377284 S=14 Pi=0.00198846153846 K=13 He=0.852564102564 D=-1.24919660911
thetaW=0.00258607939295 S=11 D=-0.0393259725567 K=10 Pi=0.00255256410256 He=0.857692307692
D=-0.973185357906 S=6 thetaW=0.00141058875979 K=7 Pi=0.000896153846154 He=0.665384615385
K=6 D=0.540060996221 Pi=0.00196666666667 thetaW=0.00164568688642 He=0.685897435897 S=7
D=0.90229667516 He=0.541025641026 K=4 S=5 thetaW=0.00117549063316 Pi=0.00159230769231
S=19 Pi=0.00404102564103 D=-0.313416654677 thetaW=0.004466864406 K=13 He=0.930769230769
S=30 thetaW=0.00705294379894 D=-2.01101997288 K=9 He=0.616666666667 Pi=0.00293205128205
D=-1.43233159481 thetaW=0.00258607939295 He=0.684615384615 S=11 Pi=0.00136538461538 K=9
Pi=0.00217307692308 S=7 K=6 He=0.707692307692 thetaW=0.00164568688642 D=0.887354301181
He=0.746153846154 Pi=0.00270641025641 K=10 D=-0.560847017855 S=14 thetaW=0.00329137377284
Pi=0.000883333333333 K=6 thetaW=0.00164568688642 S=7 D=-1.2826895795 He=0.633333333333
He=0.788461538462 thetaW=0.00352647189947 K=9 S=15 Pi=0.00474615384615 D=1.10247581112
Pi=0.00652948717949 He=0.784615384615 thetaW=0.00611255129242 K=10 S=26 D=0.231829777567
thetaW=0.00329137377284 D=1.68366432792 Pi=0.00504743589744 He=0.574358974359 K=5 S=14
thetaW=0.00282117751958 Pi=0.00360512820513 K=8 He=0.838461538462 S=12 D=0.855846651272
K=8 S=22 thetaW=0.00517215878589 He=0.541025641026 Pi=0.00313974358974 D=-1.3134554637
K=7 S=10 D=0.600525155627 He=0.801282051282 thetaW=0.00235098126631 Pi=0.00282435897436
He=0.582051282051 K=5 thetaW=0.00117549063316 S=5 D=0.000325559223882 Pi=0.00117564102564
D=-1.83730245382 Pi=0.000669230769231 S=8 He=0.539743589744 thetaW=0.00188078501305 K=9
S=14 D=-1.42865918112 He=0.769230769231 K=9 thetaW=0.00329137377284 Pi=0.00180128205128
D=0.747456993976 K=7 Pi=0.00378846153846 He=0.760256410256 thetaW=0.00305627564621 S=13
D=-0.599766424135 S=12 thetaW=0.00282117751958 K=12 Pi=0.00227179487179 He=0.85641025641
Pi=0.00158846153846 D=-1.17057891849 S=11 K=10 He=0.783333333333 thetaW=0.00258607939295
S=5 He=0.696153846154 K=5 thetaW=0.00117549063316 D=-0.196720438411 Pi=0.00108461538462
thetaW=0.00141058875979 D=-1.17206227551 He=0.594871794872 S=6 K=7 Pi=0.000791025641026
He=0.775641025641 K=8 Pi=0.00116153846154 D=-0.81459860325 S=7 thetaW=0.00164568688642
Pi=0.000679487179487 K=7 D=-1.82174877323 He=0.435897435897 thetaW=0.00188078501305 S=8
K=11 S=11 thetaW=0.00258607939295 Pi=0.00232948717949 D=-0.301078648876 He=0.880769230769
He=0.776923076923 K=7 thetaW=0.00282117751958 D=-0.427612185409 S=12 Pi=0.00242948717949
K=7 Pi=0.00183205128205 S=9 thetaW=0.00211588313968 He=0.708974358974 D=-0.392019109288
He=0.551282051282 D=-0.53420094221 S=6 Pi=0.00112820512821 thetaW=0.00141058875979 K=6
Pi=0.00138461538462 K=9 He=0.816666666667 S=8 thetaW=0.00188078501305 D=-0.752433232344
thetaW=0.00164568688642 K=6 He=0.397435897436 D=-1.70979563156 S=7 Pi=0.000629487179487
D=-0.598840636472 He=0.635897435897 S=8 K=7 Pi=0.0014858974359 thetaW=0.00188078501305
D=-1.36097098561 thetaW=0.00188078501305 K=9 He=0.701282051282 Pi=0.000983333333333 S=8
D=0.269060801268 He=0.791025641026 K=9 thetaW=0.00258607939295 S=11 Pi=0.00281538461538
Pi=0.00235256410256 He=0.826923076923 S=9 D=0.326895863729 K=7 thetaW=0.00211588313968
He=0.776923076923 D=-0.779652173385 thetaW=0.00188078501305 Pi=0.00136666666667 S=8 K=7
Pi=0.000653846153846 K=6 He=0.530769230769 D=-1.1292198075 S=5 thetaW=0.00117549063316
thetaW=0.00141058875979 S=6 K=7 D=0.0478778410339 He=0.810256410256 Pi=0.0014358974359
thetaW=0.00305627564621 Pi=0.00277051282051 K=9 He=0.796153846154 D=-0.291722942144 S=13
K=7 Pi=0.000658974358974 S=6 D=-1.42187108666 He=0.562820512821 thetaW=0.00141058875979
thetaW=0.00329137377284 K=13 D=-0.242485331899 S=14 Pi=0.00303846153846 He=0.898717948718
Pi=0.00301538461538 He=0.635897435897 thetaW=0.00352647189947 S=15 K=8 D=-0.461974016758
K=7 D=-1.22098786026 Pi=0.00107564102564 S=8 thetaW=0.00188078501305 He=0.715384615385
K=12 S=12 He=0.842307692308 Pi=0.00201923076923 D=-0.875493131688 thetaW=0.00282117751958
Pi=0.000507692307692 S=1 D=1.65547380098 K=2 He=0.507692307692 thetaW=0.000235098126631
thetaW=0.00258607939295 K=10 Pi=0.00254102564103 D=-0.0528649040905 He=0.780769230769 S=11
Pi=0.00390769230769 K=10 D=-0.0721825310958 S=17 He=0.860256410256 thetaW=0.00399666815273
K=9 thetaW=0.00235098126631 He=0.714102564103 D=-0.137862881656 Pi=0.00224230769231 S=10
He=0.805128205128 thetaW=0.00305627564621 Pi=0.00220384615385 K=12 D=-0.870208498523 S=13
S=11 He=0.830769230769 D=0.791061828182 thetaW=0.00258607939295 K=8 Pi=0.00326025641026
thetaW=0.0037615700261 He=0.866666666667 K=13 Pi=0.00281025641026 D=-0.813419856867 S=16
thetaW=0.00352647189947 K=10 Pi=0.00450384615385 He=0.832051282051 D=0.883452835217 S=15
S=12 He=0.867948717949 K=10 thetaW=0.00282117751958 Pi=0.00288974358974 D=0.074854251198
thetaW=0.004466864406 K=6 He=0.651282051282 D=2.71738706137 Pi=0.00815897435897 S=19
D=-0.598888475945 K=7 S=7 Pi=0.00128974358974 He=0.747435897436 thetaW=0.00164568688642
D=0.258530521186 He=0.873076923077 Pi=0.00280641025641 thetaW=0.00258607939295 K=10 S=11
D=-0.236495462074 Pi=0.00150512820513 S=7 thetaW=0.00164568688642 He=0.803846153846 K=8
thetaW=0.00258607939295 D=-0.186749893702 He=0.789743589744 K=10 S=11 Pi=0.00242692307692
Pi=0.000529487179487 D=-1.66682924127 He=0.432051282051 thetaW=0.00141058875979 K=6 S=6
K=3 He=0.405128205128 D=0.359636139999 Pi=0.00108205128205 thetaW=0.000940392506526 S=4
S=19 thetaW=0.004466864406 He=0.785897435897 D=-0.453067635366 K=9 Pi=0.00385128205128
S=11 Pi=0.0025 thetaW=0.00258607939295 D=-0.101003327322 He=0.707692307692 K=5
S=9 He=0.730769230769 D=-1.13041207419 thetaW=0.00211588313968 K=8 Pi=0.00129743589744
thetaW=0.00305627564621 Pi=0.0031641025641 S=13 He=0.782051282051 K=10 D=0.110075849278
S=11 thetaW=0.00258607939295 He=0.832051282051 Pi=0.00214487179487 D=-0.517701553417 K=9
D=-0.721556803013 S=15 He=0.915384615385 Pi=0.00272820512821 K=14 thetaW=0.00352647189947
K=7 S=7 Pi=0.00162692307692 thetaW=0.00164568688642 He=0.848717948718 D=-0.031570841135
D=1.2795467393 thetaW=0.00211588313968 Pi=0.00304230769231 K=7 S=9 He=0.761538461538
D=-1.13981941394 Pi=0.00193974358974 thetaW=0.00305627564621 S=13 K=11 He=0.820512820513
He=0.841025641026 D=-0.131857719018 K=10 thetaW=0.00329137377284 S=14 Pi=0.00315384615385
S=15 thetaW=0.00352647189947 D=-0.614942444372 He=0.887179487179 Pi=0.00284615384615 K=11
S=11 He=0.652564102564 thetaW=0.00258607939295 Pi=0.00174102564103 D=-0.991564157099 K=8
Pi=0.00225897435897 thetaW=0.00258607939295 K=10 He=0.839743589744 S=11 D=-0.383816563805
He=0.608974358974 S=5 K=5 Pi=0.000766666666667 thetaW=0.00117549063316 D=-0.884993782264
Pi=0.00203846153846 He=0.823076923077 S=9 thetaW=0.00211588313968 K=8 D=-0.10693213723
K=9 Pi=0.00213717948718 He=0.783333333333 thetaW=0.00329137377284 S=14 D=-1.10660990807
S=9 He=0.725641025641 K=7 D=-0.567321036206 thetaW=0.00211588313968 Pi=0.00170512820513
He=0.480769230769 K=2 S=3 D=2.27783520143 Pi=0.00144230769231 thetaW=0.000705294379894
D=-0.487095275934 Pi=0.00278333333333 S=14 thetaW=0.00329137377284 K=7 He=0.610256410256
K=7 thetaW=0.00305627564621 Pi=0.00333461538462 S=13 He=0.617948717949 D=0.284145032532
He=0.874358974359 Pi=0.00330256410256 K=11 D=-0.563098750696 S=17 thetaW=0.00399666815273
K=7 He=0.838461538462 D=0.776660403499 S=9 thetaW=0.00211588313968 Pi=0.00267820512821
thetaW=0.0037615700261 He=0.811538461538 S=16 K=14 D=-0.972371293261 Pi=0.00262435897436
He=0.548717948718 K=5 Pi=0.00103461538462 S=6 D=-0.711249905447 thetaW=0.00141058875979
He=0.896153846154 thetaW=0.00282117751958 S=12 Pi=0.00166025641026 D=-1.26738895968 K=13
K=14 Pi=0.00246538461538 S=14 D=-0.791935809205 thetaW=0.00329137377284 He=0.925641025641
Pi=0.000828205128205 thetaW=0.000940392506526 He=0.54358974359 S=4 D=-0.284815646232 K=5
D=0.965009947011 He=0.791025641026 K=6 Pi=0.00221923076923 thetaW=0.00164568688642 S=7
D=-0.612376700771 thetaW=0.00305627564621 K=11 He=0.878205128205 Pi=0.00245641025641 S=13
thetaW=0.00188078501305 D=-0.845755315913 S=8 K=6 Pi=0.00132307692308 He=0.673076923077
thetaW=0.00681784567231 K=10 D=2.04590401014 He=0.812820512821 Pi=0.0108820512821 S=29
D=0.197632826709 K=8 Pi=0.00225897435897 He=0.823076923077 thetaW=0.00211588313968 S=9
thetaW=0.00164568688642 D=1.21091949214 He=0.805128205128 S=7 Pi=0.00236538461538 K=7
He=0.721794871795 thetaW=0.00211588313968 S=9 Pi=0.0011858974359 D=-1.28446528269 K=8
Pi=0.00503846153846 He=0.908974358974 thetaW=0.00587745316579 K=16 D=-0.483365367208 S=25
Pi=0.00100128205128 D=-1.08423626238 K=7 S=7 He=0.576923076923 thetaW=0.00164568688642
Pi=0.00295256410256 K=9 S=11 D=0.430023653948 thetaW=0.00258607939295 He=0.855128205128
He=0.802564102564 thetaW=0.00305627564621 K=8 D=0.476537287708 S=13 Pi=0.00352307692308
D=-0.256590473554 He=0.841025641026 K=9 Pi=0.00214871794872 thetaW=0.00235098126631 S=10
He=0.770512820513 thetaW=0.00141058875979 D=0.850661496258 Pi=0.00186025641026 K=6 S=6
