\relax 
\providecommand\hyper@newdestlabel[2]{}
\providecommand\zref@newlabel[2]{}
\providecommand\HyperFirstAtBeginDocument{\AtBeginDocument}
\HyperFirstAtBeginDocument{\ifx\hyper@anchor\@undefined
\global\let\oldcontentsline\contentsline
\gdef\contentsline#1#2#3#4{\oldcontentsline{#1}{#2}{#3}}
\global\let\oldnewlabel\newlabel
\gdef\newlabel#1#2{\newlabelxx{#1}#2}
\gdef\newlabelxx#1#2#3#4#5#6{\oldnewlabel{#1}{{#2}{#3}}}
\AtEndDocument{\ifx\hyper@anchor\@undefined
\let\contentsline\oldcontentsline
\let\newlabel\oldnewlabel
\fi}
\fi}
\global\let\hyper@last\relax 
\gdef\HyperFirstAtBeginDocument#1{#1}
\providecommand\HyField@AuxAddToFields[1]{}
\providecommand\HyField@AuxAddToCoFields[2]{}
\bbl@cs{beforestart}
\catcode `:\active 
\catcode `;\active 
\catcode `!\active 
\catcode `?\active 
\babel@aux{french}{}
\@writefile{nav}{\headcommand {\slideentry {0}{0}{1}{1/1}{}{0}}}
\@writefile{nav}{\headcommand {\beamer@framepages {1}{1}}}
\@writefile{nav}{\headcommand {\slideentry {0}{0}{2}{2/2}{}{0}}}
\@writefile{nav}{\headcommand {\beamer@framepages {2}{2}}}
\@writefile{nav}{\headcommand {\slideentry {0}{0}{3}{3/3}{}{0}}}
\@writefile{nav}{\headcommand {\beamer@framepages {3}{3}}}
\@writefile{nav}{\headcommand {\slideentry {0}{0}{4}{4/4}{}{0}}}
\@writefile{nav}{\headcommand {\beamer@framepages {4}{4}}}
\@writefile{nav}{\headcommand {\slideentry {0}{0}{5}{5/5}{}{0}}}
\@writefile{nav}{\headcommand {\beamer@framepages {5}{5}}}
\@writefile{nav}{\headcommand {\slideentry {0}{0}{6}{6/6}{}{0}}}
\@writefile{nav}{\headcommand {\beamer@framepages {6}{6}}}
\@writefile{nav}{\headcommand {\slideentry {0}{0}{7}{7/7}{}{0}}}
\@writefile{nav}{\headcommand {\beamer@framepages {7}{7}}}
\@writefile{nav}{\headcommand {\slideentry {0}{0}{8}{8/8}{}{0}}}
\@writefile{nav}{\headcommand {\beamer@framepages {8}{8}}}
\@writefile{nav}{\headcommand {\slideentry {0}{0}{9}{9/9}{}{0}}}
\@writefile{nav}{\headcommand {\beamer@framepages {9}{9}}}
\@writefile{nav}{\headcommand {\slideentry {0}{0}{10}{10/10}{}{0}}}
\@writefile{nav}{\headcommand {\beamer@framepages {10}{10}}}
\@writefile{nav}{\headcommand {\slideentry {0}{0}{11}{11/11}{}{0}}}
\@writefile{nav}{\headcommand {\beamer@framepages {11}{11}}}
\@writefile{nav}{\headcommand {\slideentry {0}{0}{12}{12/12}{}{0}}}
\@writefile{nav}{\headcommand {\beamer@framepages {12}{12}}}
\@writefile{nav}{\headcommand {\slideentry {0}{0}{13}{13/13}{}{0}}}
\@writefile{nav}{\headcommand {\beamer@framepages {13}{13}}}
\@writefile{nav}{\headcommand {\slideentry {0}{0}{14}{14/14}{}{0}}}
\@writefile{nav}{\headcommand {\beamer@framepages {14}{14}}}
\@writefile{nav}{\headcommand {\slideentry {0}{0}{15}{15/15}{}{0}}}
\@writefile{nav}{\headcommand {\beamer@framepages {15}{15}}}
\@writefile{nav}{\headcommand {\beamer@partpages {1}{15}}}
\@writefile{nav}{\headcommand {\beamer@subsectionpages {1}{15}}}
\@writefile{nav}{\headcommand {\beamer@sectionpages {1}{15}}}
\@writefile{nav}{\headcommand {\beamer@documentpages {15}}}
\@writefile{nav}{\headcommand {\gdef \inserttotalframenumber {15}}}
\gdef\minted@oldcachelist{,
  default-pyg-prefix.pygstyle,
  default.pygstyle,
  3DE98FF4776AC98ABB8097E4CD4F345001CB1C8BAA0B81AA984FE35C2F9F1BC7.pygtex,
  13031D10B5A4F239B421AA2C84E3164101CB1C8BAA0B81AA984FE35C2F9F1BC7.pygtex,
  6AB543DCA1496D5F4F44E704A655F0CF01CB1C8BAA0B81AA984FE35C2F9F1BC7.pygtex,
  13031D10B5A4F239B421AA2C84E3164101CB1C8BAA0B81AA984FE35C2F9F1BC7.pygtex,
  50C46D33ADF65F65BFC55A8434A2701E01CB1C8BAA0B81AA984FE35C2F9F1BC7.pygtex,
  A41199808458B101CB5ADE889C3D833AC2BD6A6C64530407327632B516B510D3.pygtex,
  68E8C1BDFDBE6E28DCDC95503C72E747C2BD6A6C64530407327632B516B510D3.pygtex,
  931EE02AF829ACC617E5C6093D6D78BAC2BD6A6C64530407327632B516B510D3.pygtex,
  855AE9410D7A785D92FEBD0F1866A997C2BD6A6C64530407327632B516B510D3.pygtex,
  9850D5638108F815B527B64F5EA6CC660F77F43D4E4F463350D665BD9B6411CB.pygtex,
  DB9B7DEC2D6E7F62B0F9747C7A6DE731C2BD6A6C64530407327632B516B510D3.pygtex,
  DE4E07BD52952F697A4A6DE5054D22B60F77F43D4E4F463350D665BD9B6411CB.pygtex,
  27CEE883AED73D6F92CF534F5BFF41CEC2BD6A6C64530407327632B516B510D3.pygtex,
  A7A5FC705CE9722D2E44D94C649102E40F77F43D4E4F463350D665BD9B6411CB.pygtex,
  101509438E31F0D42D9EC36B759BCA0EC2BD6A6C64530407327632B516B510D3.pygtex,
  6EA8DB1BB3235BAC8912905A92FCAD9B0F77F43D4E4F463350D665BD9B6411CB.pygtex,
  19AA93F135D06C4DA83A28126E199792C2BD6A6C64530407327632B516B510D3.pygtex,
  6EA8DB1BB3235BAC8912905A92FCAD9B0F77F43D4E4F463350D665BD9B6411CB.pygtex,
  6D7DDAC32933C3664CF7A3EFF5C68300C2BD6A6C64530407327632B516B510D3.pygtex,
  99FF1DE4CC089AC05832EE3BB895795EC2BD6A6C64530407327632B516B510D3.pygtex,
  06DCBBB98F2636031D723E222E4474DCC2BD6A6C64530407327632B516B510D3.pygtex,
  C1FF5F1BA22EBF800A2AC1B18EF6BF350F77F43D4E4F463350D665BD9B6411CB.pygtex,
  6CD47B63CA4A1381AF78E408E604F3F2C2BD6A6C64530407327632B516B510D3.pygtex,
  E3EFD510B3F174CD53C33741225A567A0F77F43D4E4F463350D665BD9B6411CB.pygtex,
  93F294D2CD3EC373A5D0C5BDF510489CC2BD6A6C64530407327632B516B510D3.pygtex,
  718DCF7EE97929C22AC06D055C1B3DB8C2BD6A6C64530407327632B516B510D3.pygtex,
  261AC4B7F4C62BDCF4C431F94BEB8D0CC2BD6A6C64530407327632B516B510D3.pygtex,
  9BED2D573A7DDD9F20487DF9A50121F1C2BD6A6C64530407327632B516B510D3.pygtex,
  A8DA37C131E4F31475A66D3074DECE3BC2BD6A6C64530407327632B516B510D3.pygtex,
  1B28E946F4A8FFD5BDF939779C4209860F77F43D4E4F463350D665BD9B6411CB.pygtex,
  3EBEA9CDCFAD8092D367E9038368885BC2BD6A6C64530407327632B516B510D3.pygtex,
  498903B27B776201A7CB6506F03E97330F77F43D4E4F463350D665BD9B6411CB.pygtex,
  31C25BADF972541B97B6F4F19385C3E4C2BD6A6C64530407327632B516B510D3.pygtex,
  DB682FCAA6895F45E3FC9ACF836ADAD00F77F43D4E4F463350D665BD9B6411CB.pygtex,
  7951F1EA203E40263696DECBCEC2B670C2BD6A6C64530407327632B516B510D3.pygtex,
  84931BF9767CA9ADB38D44EB85BDAB3CC2BD6A6C64530407327632B516B510D3.pygtex,
  AA4492F632EEDAF431DEDE72C6913C8A0F77F43D4E4F463350D665BD9B6411CB.pygtex,
  6BDCF760F13B9C1B28EC8ECBDBB868F9C2BD6A6C64530407327632B516B510D3.pygtex,
  B6F616CA93264268BE7629368B13A8910F77F43D4E4F463350D665BD9B6411CB.pygtex,
  4E07CD117F1DA3AE05460CD0BCA0DA68C2BD6A6C64530407327632B516B510D3.pygtex,
  A3BD060A171DC7DF7E95EB7EEDC2A1FD0F77F43D4E4F463350D665BD9B6411CB.pygtex,
  C89F244C5237395660B5445FBADADB5CC2BD6A6C64530407327632B516B510D3.pygtex,
  41808D12BF39007E64C3F63AB36BA51A0F77F43D4E4F463350D665BD9B6411CB.pygtex,
  20CA39519EDB746E58EA58C6FA1B4E35C2BD6A6C64530407327632B516B510D3.pygtex,
  D186B9717664E43E2B17A69CCF2819810F77F43D4E4F463350D665BD9B6411CB.pygtex,
  28FC2168701F9DDF3944985A47E970D5C2BD6A6C64530407327632B516B510D3.pygtex,
  5DEEC74858F4C52E6E1E92F212F1DD180F77F43D4E4F463350D665BD9B6411CB.pygtex,
  A04B664D29D7CCCADA5BEFADF2B44DAEC2BD6A6C64530407327632B516B510D3.pygtex,
  391A83F94AD217A0EE40367043D893E40F77F43D4E4F463350D665BD9B6411CB.pygtex,
  AEBB7707BA65E540277FC171C8859A22C2BD6A6C64530407327632B516B510D3.pygtex,
  6776EFF9E08C458FFE3E51E90A347E340F77F43D4E4F463350D665BD9B6411CB.pygtex}
