\relax 
\providecommand\hyper@newdestlabel[2]{}
\providecommand\zref@newlabel[2]{}
\providecommand\HyperFirstAtBeginDocument{\AtBeginDocument}
\HyperFirstAtBeginDocument{\ifx\hyper@anchor\@undefined
\global\let\oldcontentsline\contentsline
\gdef\contentsline#1#2#3#4{\oldcontentsline{#1}{#2}{#3}}
\global\let\oldnewlabel\newlabel
\gdef\newlabel#1#2{\newlabelxx{#1}#2}
\gdef\newlabelxx#1#2#3#4#5#6{\oldnewlabel{#1}{{#2}{#3}}}
\AtEndDocument{\ifx\hyper@anchor\@undefined
\let\contentsline\oldcontentsline
\let\newlabel\oldnewlabel
\fi}
\fi}
\global\let\hyper@last\relax 
\gdef\HyperFirstAtBeginDocument#1{#1}
\providecommand\HyField@AuxAddToFields[1]{}
\providecommand\HyField@AuxAddToCoFields[2]{}
\catcode `:\active 
\catcode `;\active 
\catcode `!\active 
\catcode `?\active 
\select@language{french}
\@writefile{toc}{\select@language{french}}
\@writefile{lof}{\select@language{french}}
\@writefile{lot}{\select@language{french}}
\@writefile{toc}{\contentsline {section}{\numberline {1}Exercices 1 -- Prise en main d'EggLib}{5}{section.1}}
\@writefile{toc}{\contentsline {subsection}{\numberline {1.1}Importer un alignment depuis un fichier Fasta}{5}{subsection.1.1}}
\pgfsyspdfmark {pgfid1}{5873742}{40543828}
\pgfsyspdfmark {pgfid2}{5873742}{34925985}
\pgfsyspdfmark {pgfid3}{5873742}{27326224}
\pgfsyspdfmark {pgfid4}{5873742}{11032835}
\@writefile{toc}{\contentsline {subsection}{\numberline {1.2}Manipuler les \'echantillons}{6}{subsection.1.2}}
\pgfsyspdfmark {pgfid5}{5873742}{39491823}
\pgfsyspdfmark {pgfid6}{5873742}{30109482}
\pgfsyspdfmark {pgfid7}{5873742}{20806876}
\pgfsyspdfmark {pgfid8}{5873742}{11424535}
\@writefile{toc}{\contentsline {subsection}{\numberline {1.3}\'Editer les s\'equences}{7}{subsection.1.3}}
\pgfsyspdfmark {pgfid9}{5873742}{38614477}
\pgfsyspdfmark {pgfid10}{5873742}{28568471}
\pgfsyspdfmark {pgfid11}{5873742}{21116600}
\pgfsyspdfmark {pgfid12}{5873742}{40548756}
\pgfsyspdfmark {pgfid13}{5873742}{31226216}
\pgfsyspdfmark {pgfid14}{5873742}{23845727}
\@writefile{toc}{\contentsline {subsection}{\numberline {1.4}G\'erer les labels de structure}{8}{subsection.1.4}}
\pgfsyspdfmark {pgfid15}{5873742}{11996062}
\pgfsyspdfmark {pgfid16}{5873742}{41716808}
\pgfsyspdfmark {pgfid17}{5873742}{34584281}
\@writefile{toc}{\contentsline {subsection}{\numberline {1.5}Acc\`es direct aux donn\'ees}{9}{subsection.1.5}}
\pgfsyspdfmark {pgfid18}{5873742}{22964902}
\@writefile{toc}{\contentsline {subsection}{\numberline {1.6}Exporter les donn\'ees au format Fasta}{9}{subsection.1.6}}
\pgfsyspdfmark {pgfid19}{5873742}{13866476}
\@writefile{toc}{\contentsline {subsection}{\numberline {1.7}G\'erer des s\'equences non align\'ees}{10}{subsection.1.7}}
\pgfsyspdfmark {pgfid20}{5873742}{43196072}
\pgfsyspdfmark {pgfid21}{5873742}{37753607}
\pgfsyspdfmark {pgfid22}{5873742}{29457867}
\@writefile{toc}{\contentsline {subsection}{\numberline {1.8}Ajouter et supprimer des \'echantillons}{10}{subsection.1.8}}
\pgfsyspdfmark {pgfid23}{5873742}{18438953}
\@writefile{toc}{\contentsline {subsection}{\numberline {1.9}Extraire des sections d'un alignement}{11}{subsection.1.9}}
\pgfsyspdfmark {pgfid24}{5873742}{40244669}
\pgfsyspdfmark {pgfid25}{5873742}{33060598}
\pgfsyspdfmark {pgfid26}{5873742}{27026956}
\pgfsyspdfmark {pgfid27}{5873742}{19170867}
\@writefile{toc}{\contentsline {subsection}{\numberline {1.10}Manipuler des sous-alignements}{11}{subsection.1.10}}
\pgfsyspdfmark {pgfid28}{5873742}{10796531}
\pgfsyspdfmark {pgfid29}{5873742}{47649194}
\@writefile{toc}{\contentsline {subsection}{\numberline {1.11}Traduire des s\'equences codantes}{12}{subsection.1.11}}
\pgfsyspdfmark {pgfid30}{5873742}{39241809}
\pgfsyspdfmark {pgfid31}{5873742}{26294308}
\@writefile{toc}{\contentsline {section}{\numberline {2}Exercices 2 -- Calcul de statistiques de diversit\'e nucl\'eotidique}{13}{section.2}}
\@writefile{toc}{\contentsline {subsection}{\numberline {2.1}Calcul de statistiques de base}{13}{subsection.2.1}}
\pgfsyspdfmark {pgfid32}{5873742}{39664426}
\pgfsyspdfmark {pgfid33}{5873742}{35083894}
\pgfsyspdfmark {pgfid34}{5873742}{24104860}
\pgfsyspdfmark {pgfid35}{5873742}{16671052}
\@writefile{toc}{\contentsline {subsection}{\numberline {2.2}Prise en compte de la structure}{14}{subsection.2.2}}
\pgfsyspdfmark {pgfid36}{5873742}{44958718}
\pgfsyspdfmark {pgfid37}{5873742}{33853598}
\@writefile{toc}{\contentsline {subsection}{\numberline {2.3}Gestion des donn\'ees manquantes}{14}{subsection.2.3}}
\pgfsyspdfmark {pgfid38}{5873742}{24485018}
\pgfsyspdfmark {pgfid39}{5873742}{18727638}
\pgfsyspdfmark {pgfid40}{5873742}{14120688}
\pgfsyspdfmark {pgfid41}{5873742}{45424636}
\@writefile{toc}{\contentsline {subsection}{\numberline {2.4}Analyse de la matrice de d\'es\'equilibre de liaison}{15}{subsection.2.4}}
\pgfsyspdfmark {pgfid42}{5873742}{36189040}
\pgfsyspdfmark {pgfid43}{5873742}{27777724}
\pgfsyspdfmark {pgfid44}{5873742}{46315926}
\pgfsyspdfmark {pgfid45}{5873742}{25934121}
\@writefile{toc}{\contentsline {subsection}{\numberline {2.5}Statistiques synonymes et non-synonymes}{16}{subsection.2.5}}
\pgfsyspdfmark {pgfid46}{5873742}{19863683}
\pgfsyspdfmark {pgfid47}{5873742}{13911380}
\pgfsyspdfmark {pgfid48}{5873742}{45384769}
\pgfsyspdfmark {pgfid49}{5873742}{39627389}
\pgfsyspdfmark {pgfid50}{5873742}{33870009}
\pgfsyspdfmark {pgfid51}{5873742}{23815650}
\pgfsyspdfmark {pgfid52}{5873742}{19109031}
\pgfsyspdfmark {pgfid53}{5873742}{13471255}
\@writefile{toc}{\contentsline {section}{\numberline {3}Exercices 3 -- Analyse de microsatellites et de donn\'ees g\'enomiques}{18}{section.3}}
\@writefile{toc}{\contentsline {subsection}{\numberline {3.1}Importer des donn\'ees microsatellites}{18}{subsection.3.1}}
\pgfsyspdfmark {pgfid54}{5873742}{37237635}
\pgfsyspdfmark {pgfid55}{5873742}{29657807}
\@writefile{toc}{\contentsline {subsection}{\numberline {3.2}Calculer des statistiques de diversit\'e}{18}{subsection.3.2}}
\pgfsyspdfmark {pgfid56}{5873742}{10874158}
\pgfsyspdfmark {pgfid57}{5873742}{40375373}
\pgfsyspdfmark {pgfid58}{5873742}{29594171}
\pgfsyspdfmark {pgfid59}{5873742}{24919529}
\pgfsyspdfmark {pgfid60}{5873742}{16520256}
\pgfsyspdfmark {pgfid61}{5873742}{46134528}
\@writefile{toc}{\contentsline {subsection}{\numberline {3.3}Lire des donn\'ees VCF}{20}{subsection.3.3}}
\pgfsyspdfmark {pgfid62}{5873742}{34309193}
\pgfsyspdfmark {pgfid63}{5873742}{28258191}
\pgfsyspdfmark {pgfid64}{5873742}{19513385}
\pgfsyspdfmark {pgfid65}{5873742}{14652681}
\@writefile{toc}{\contentsline {subsection}{\numberline {3.4}Calculer des statistiques depuis un site d'un VCF}{21}{subsection.3.4}}
\pgfsyspdfmark {pgfid66}{5873742}{44978652}
\pgfsyspdfmark {pgfid67}{5873742}{37438692}
\pgfsyspdfmark {pgfid68}{5873742}{29998404}
\pgfsyspdfmark {pgfid69}{5873742}{18893284}
\pgfsyspdfmark {pgfid70}{5873742}{11145679}
\pgfsyspdfmark {pgfid71}{5873742}{48520551}
\@writefile{toc}{\contentsline {subsection}{\numberline {3.5}Analyse d'un bloc de sites de VCF}{22}{subsection.3.5}}
\pgfsyspdfmark {pgfid72}{5873742}{41024390}
\pgfsyspdfmark {pgfid73}{5873742}{29990536}
\@writefile{toc}{\contentsline {section}{\numberline {4}Exercices 4 -- Simulations de coalescence}{23}{section.4}}
\@writefile{toc}{\contentsline {subsection}{\numberline {4.1}Cr\'eation de l'objet et initialisation des param\`etres}{23}{subsection.4.1}}
\pgfsyspdfmark {pgfid74}{5873742}{39593102}
\pgfsyspdfmark {pgfid75}{5873742}{34850487}
\@writefile{toc}{\contentsline {subsection}{\numberline {4.2}Effectuer les simulations}{23}{subsection.4.2}}
\pgfsyspdfmark {pgfid76}{5873742}{18900573}
\pgfsyspdfmark {pgfid77}{5873742}{13166999}
\@writefile{toc}{\contentsline {subsection}{\numberline {4.3}Passage \`a plusieurs populations}{24}{subsection.4.3}}
\pgfsyspdfmark {pgfid78}{5873742}{45073680}
\pgfsyspdfmark {pgfid79}{5873742}{40506598}
\@writefile{toc}{\contentsline {subsection}{\numberline {4.4}Simulations en nombre de sites fixe}{24}{subsection.4.4}}
\pgfsyspdfmark {pgfid80}{5873742}{31330803}
\@writefile{toc}{\contentsline {subsection}{\numberline {4.5}Couplage simulations/calcul de statistiques de polymorphisme}{24}{subsection.4.5}}
\pgfsyspdfmark {pgfid81}{5873742}{21918533}
\pgfsyspdfmark {pgfid82}{5873742}{13606886}
\@writefile{toc}{\contentsline {subsection}{\numberline {4.6}\'Ev\`enements d\'emographiques}{25}{subsection.4.6}}
\pgfsyspdfmark {pgfid83}{5873742}{41056615}
\pgfsyspdfmark {pgfid84}{5873742}{30881733}
\pgfsyspdfmark {pgfid85}{5873742}{19815561}
\@writefile{toc}{\contentsline {section}{\numberline {5}Exercices 5 -- Approximate Bayesian Computation}{26}{section.5}}
\@writefile{toc}{\contentsline {subsection}{\numberline {5.1}Calcul des statistiques r\'esumantes sur donn\'ees r\'eelles}{26}{subsection.5.1}}
\pgfsyspdfmark {pgfid86}{5873742}{10843012}
\@writefile{toc}{\contentsline {subsection}{\numberline {5.2}Simulation sous chacun des 3 mod\`eles}{27}{subsection.5.2}}
\pgfsyspdfmark {pgfid87}{5873742}{18416834}
\pgfsyspdfmark {pgfid88}{5873742}{26295437}
\pgfsyspdfmark {pgfid89}{5873742}{21509083}
\@writefile{toc}{\contentsline {subsection}{\numberline {5.3}Fit de mod\`eles avec le package abc de R}{28}{subsection.5.3}}
\pgfsyspdfmark {pgfid90}{5873742}{14552775}
\@writefile{toc}{\contentsline {section}{\numberline {6}Exercices 6 -- Analyse phylog\'en\'etique \`a l'aide de programmes externes}{30}{section.6}}
\@writefile{toc}{\contentsline {subsection}{\numberline {6.1}Configuration des chemins d'acc\`es aux programmes}{30}{subsection.6.1}}
\pgfsyspdfmark {pgfid91}{5873742}{32233860}
\pgfsyspdfmark {pgfid92}{5873742}{25605124}
\pgfsyspdfmark {pgfid93}{5873742}{17293477}
\@writefile{toc}{\contentsline {subsection}{\numberline {6.2}Importer des {\color  {eggorange}{\textbf  {\texttt  {Align}}}} dans un dictionnaire}{31}{subsection.6.2}}
\pgfsyspdfmark {pgfid94}{5873742}{44956807}
\pgfsyspdfmark {pgfid95}{5873742}{37934358}
\pgfsyspdfmark {pgfid96}{5873742}{29901014}
\@writefile{toc}{\contentsline {subsection}{\numberline {6.3}Reconstruire un arbre}{31}{subsection.6.3}}
\pgfsyspdfmark {pgfid97}{5873742}{19160943}
\pgfsyspdfmark {pgfid98}{5873742}{13089585}
\pgfsyspdfmark {pgfid99}{5873742}{45424636}
\pgfsyspdfmark {pgfid100}{5873742}{32638734}
\@writefile{toc}{\contentsline {subsection}{\numberline {6.4}Identifier un clade dans un arbre}{32}{subsection.6.4}}
\pgfsyspdfmark {pgfid101}{5873742}{19999907}
\pgfsyspdfmark {pgfid102}{5873742}{12440014}
\pgfsyspdfmark {pgfid103}{5873742}{32469473}
\@writefile{toc}{\contentsline {subsection}{\numberline {6.5}R\'eorienter l'arbre}{33}{subsection.6.5}}
\pgfsyspdfmark {pgfid104}{5873742}{17176710}
\pgfsyspdfmark {pgfid105}{5873742}{11519002}
\pgfsyspdfmark {pgfid106}{5873742}{40522493}
\pgfsyspdfmark {pgfid107}{5873742}{33348615}
\@writefile{toc}{\contentsline {subsection}{\numberline {6.6}Extraire et marquer les sous-arbres}{34}{subsection.6.6}}
\pgfsyspdfmark {pgfid108}{5873742}{26388835}
\pgfsyspdfmark {pgfid109}{5873742}{14758507}
\pgfsyspdfmark {pgfid110}{5873742}{43642056}
\@writefile{toc}{\contentsline {subsection}{\numberline {6.7}Recherche des signatures de s\'election positive}{35}{subsection.6.7}}
\pgfsyspdfmark {pgfid111}{5873742}{22739954}
\pgfsyspdfmark {pgfid112}{5873742}{13537018}
\gdef\minted@oldcachelist{,
  default.pygstyle,
  default-pyg-prefix.pygstyle,
  0A6FCB8A021F515A70CE7030A9D80B376F722D21E4DD245D848BE6E984818FC6.pygtex,
  037766F2951D51D60324DE739AAC2C1A6F722D21E4DD245D848BE6E984818FC6.pygtex,
  ED240DB0EB8A5332C79BC7554FE0CC196F722D21E4DD245D848BE6E984818FC6.pygtex,
  FCE035E258CC7FA95EBDEC02F276C8BB6F722D21E4DD245D848BE6E984818FC6.pygtex,
  21C09FFE087CA7AEC1498440F78452DE6F722D21E4DD245D848BE6E984818FC6.pygtex,
  4373DF826D2EB116C7D926131CDD64A76F722D21E4DD245D848BE6E984818FC6.pygtex,
  139C6C212D9F961775D5C64C1AA772196F722D21E4DD245D848BE6E984818FC6.pygtex,
  FC847C69E7F3A383C59C746564E5271C6F722D21E4DD245D848BE6E984818FC6.pygtex,
  447B7D33049D5163252F84A6665E1D466F722D21E4DD245D848BE6E984818FC6.pygtex,
  79F5C9AEC1851D24424DE38AD3DE6F986F722D21E4DD245D848BE6E984818FC6.pygtex,
  EB260E9AE827821BECEEED4104F0AD896F722D21E4DD245D848BE6E984818FC6.pygtex,
  3801D9E1810A13175C018C2632F63A626F722D21E4DD245D848BE6E984818FC6.pygtex,
  372E25F23B5A8AE33C7BA203412ACE306F722D21E4DD245D848BE6E984818FC6.pygtex,
  4ECE820EFC42ED8F7356FDB244B3A6A46F722D21E4DD245D848BE6E984818FC6.pygtex,
  EF3C1CDF8CEFDE7718E68794F0A26D976F722D21E4DD245D848BE6E984818FC6.pygtex,
  2B3BBE3FFBCD051E6CC9A9A655715F806F722D21E4DD245D848BE6E984818FC6.pygtex,
  621AA3EECFB67224F195A703BC17B0156F722D21E4DD245D848BE6E984818FC6.pygtex,
  EB260E9AE827821BECEEED4104F0AD896F722D21E4DD245D848BE6E984818FC6.pygtex,
  90B08DF99A2FB55B6D1F05E5FF53F6626F722D21E4DD245D848BE6E984818FC6.pygtex,
  EB260E9AE827821BECEEED4104F0AD896F722D21E4DD245D848BE6E984818FC6.pygtex,
  16F7381E2023A9B120A54854564153516F722D21E4DD245D848BE6E984818FC6.pygtex,
  6780FF91E9E160A307CB60492D204BC86F722D21E4DD245D848BE6E984818FC6.pygtex,
  EB260E9AE827821BECEEED4104F0AD896F722D21E4DD245D848BE6E984818FC6.pygtex,
  EB844645E8E61DE0A4CF4B991E65E63E6F722D21E4DD245D848BE6E984818FC6.pygtex,
  EB260E9AE827821BECEEED4104F0AD896F722D21E4DD245D848BE6E984818FC6.pygtex,
  62606FAE41FE684EADA93483633EBE556F722D21E4DD245D848BE6E984818FC6.pygtex,
  6CB8F1F5AAB96C69F61C63515EFF176C6F722D21E4DD245D848BE6E984818FC6.pygtex,
  AF8A4C7995E9BC6B3BF6109ACCB38AE06F722D21E4DD245D848BE6E984818FC6.pygtex,
  2B3BBE3FFBCD051E6CC9A9A655715F806F722D21E4DD245D848BE6E984818FC6.pygtex,
  28E53057FAD6E90653672BDE4E0A41A56F722D21E4DD245D848BE6E984818FC6.pygtex,
  EB260E9AE827821BECEEED4104F0AD896F722D21E4DD245D848BE6E984818FC6.pygtex,
  EB260E9AE827821BECEEED4104F0AD896F722D21E4DD245D848BE6E984818FC6.pygtex,
  65128EAE10C60D7AD448FA4AEF5364F66F722D21E4DD245D848BE6E984818FC6.pygtex,
  4ECE820EFC42ED8F7356FDB244B3A6A46F722D21E4DD245D848BE6E984818FC6.pygtex,
  60B725F10C9C85C70D97880DFE8191B36F722D21E4DD245D848BE6E984818FC6.pygtex,
  3B5D5C3712955042212316173CCF37BE6F722D21E4DD245D848BE6E984818FC6.pygtex,
  6495F524902879C01F8A5D9F9D9EF5196F722D21E4DD245D848BE6E984818FC6.pygtex,
  EB260E9AE827821BECEEED4104F0AD896F722D21E4DD245D848BE6E984818FC6.pygtex,
  6780FF91E9E160A307CB60492D204BC86F722D21E4DD245D848BE6E984818FC6.pygtex,
  D1FE36186B0260F9223CD95E154448CF6F722D21E4DD245D848BE6E984818FC6.pygtex,
  ABCFC8CD0C336983E6FB037589D6B1C56F722D21E4DD245D848BE6E984818FC6.pygtex,
  4ECE820EFC42ED8F7356FDB244B3A6A46F722D21E4DD245D848BE6E984818FC6.pygtex,
  DF466DBF27F53937372559F0CB482AB56F722D21E4DD245D848BE6E984818FC6.pygtex,
  DF466DBF27F53937372559F0CB482AB56F722D21E4DD245D848BE6E984818FC6.pygtex,
  08E9DE24AB150D083240557CEC091D536F722D21E4DD245D848BE6E984818FC6.pygtex,
  16F7381E2023A9B120A54854564153516F722D21E4DD245D848BE6E984818FC6.pygtex,
  16F7381E2023A9B120A54854564153516F722D21E4DD245D848BE6E984818FC6.pygtex,
  236041BD46FD597AEEB549A5C3CE89B06F722D21E4DD245D848BE6E984818FC6.pygtex,
  404D14BAA9865609F54CB4A0A36F5C476F722D21E4DD245D848BE6E984818FC6.pygtex,
  6669E061E046F8700A7C7BF430E902CA6F722D21E4DD245D848BE6E984818FC6.pygtex,
  C9F1941FA968EB351CC05DF246E3F9556F722D21E4DD245D848BE6E984818FC6.pygtex,
  0CF252B23612FDBB46514B7A86FFA2CF6F722D21E4DD245D848BE6E984818FC6.pygtex,
  083EEC8F92D4071AB82385AAEA7C19796F722D21E4DD245D848BE6E984818FC6.pygtex,
  6467B67EBFAFD08E55AAA691050CE7136F722D21E4DD245D848BE6E984818FC6.pygtex,
  BC0618A5DB3DD37169F49426F7369D3B6F722D21E4DD245D848BE6E984818FC6.pygtex,
  1AB67B67A30E937FBC7DD8F9791D07876F722D21E4DD245D848BE6E984818FC6.pygtex,
  8B3CC1FC11FFD9D734B8985DD226E34F6F722D21E4DD245D848BE6E984818FC6.pygtex,
  7D1272EE96E1B31261937FE0B109E0E76F722D21E4DD245D848BE6E984818FC6.pygtex,
  1C2766C0203CA8489F178B9955964C546F722D21E4DD245D848BE6E984818FC6.pygtex,
  5A44654885EB0DB08FC4E777638BFBF96F722D21E4DD245D848BE6E984818FC6.pygtex,
  AC7FDEC8755B651088CC9C36650369E96F722D21E4DD245D848BE6E984818FC6.pygtex,
  EA69F3EC3B52DDB56513FF7D1FCF15076F722D21E4DD245D848BE6E984818FC6.pygtex,
  E36F76529345BF590975AA0AAC3FBFF76F722D21E4DD245D848BE6E984818FC6.pygtex,
  F61B25D76F68083B2E107BDB5F44590C6F722D21E4DD245D848BE6E984818FC6.pygtex,
  5F269FED731FC7DC093336561891096A6F722D21E4DD245D848BE6E984818FC6.pygtex,
  91E454EBA04C1ACA45D1EF5D17C652856F722D21E4DD245D848BE6E984818FC6.pygtex,
  7B0C968826C1B1F5E48CF6F2C8A1FFD96F722D21E4DD245D848BE6E984818FC6.pygtex,
  6780FF91E9E160A307CB60492D204BC86F722D21E4DD245D848BE6E984818FC6.pygtex,
  18B67FCD374F29B1B2CAC3126765FF196F722D21E4DD245D848BE6E984818FC6.pygtex,
  BD4A953EC9B896263EDE51EAB577A9566F722D21E4DD245D848BE6E984818FC6.pygtex,
  BBF0ADA21132085F7AF27C75CD6D4D006F722D21E4DD245D848BE6E984818FC6.pygtex,
  3880283F9BD1FEB4546F52A25FF959826F722D21E4DD245D848BE6E984818FC6.pygtex,
  77433610D4D0FE2A8C57881D4F5137B96F722D21E4DD245D848BE6E984818FC6.pygtex,
  33B371445998BA53D4E4D39E3582B3F56F722D21E4DD245D848BE6E984818FC6.pygtex,
  316D89DE26F190F251764AAD59C9508D6F722D21E4DD245D848BE6E984818FC6.pygtex,
  0329009E4B578D81336351EAB6B4F8406F722D21E4DD245D848BE6E984818FC6.pygtex,
  CF8499A1081425E51031A76BF87D0D6E6F722D21E4DD245D848BE6E984818FC6.pygtex,
  BEA1074C8F6AE82416868BD609CF51C16F722D21E4DD245D848BE6E984818FC6.pygtex,
  236041BD46FD597AEEB549A5C3CE89B06F722D21E4DD245D848BE6E984818FC6.pygtex,
  08E9DE24AB150D083240557CEC091D536F722D21E4DD245D848BE6E984818FC6.pygtex,
  236041BD46FD597AEEB549A5C3CE89B06F722D21E4DD245D848BE6E984818FC6.pygtex,
  BEA1074C8F6AE82416868BD609CF51C16F722D21E4DD245D848BE6E984818FC6.pygtex,
  BEA1074C8F6AE82416868BD609CF51C16F722D21E4DD245D848BE6E984818FC6.pygtex,
  56B5BACC5B60F5576378298A592269A36F722D21E4DD245D848BE6E984818FC6.pygtex,
  236041BD46FD597AEEB549A5C3CE89B06F722D21E4DD245D848BE6E984818FC6.pygtex,
  236041BD46FD597AEEB549A5C3CE89B06F722D21E4DD245D848BE6E984818FC6.pygtex,
  CA4B2C9B51200D4ECC5231B96AF0027F6F722D21E4DD245D848BE6E984818FC6.pygtex,
  CB5870DC8BCDF80AFED1CC6BE377EBF76F722D21E4DD245D848BE6E984818FC6.pygtex,
  236041BD46FD597AEEB549A5C3CE89B06F722D21E4DD245D848BE6E984818FC6.pygtex,
  7980437128C9C909021E1F369F0D48A26F722D21E4DD245D848BE6E984818FC6.pygtex,
  146C07EF2479CEDCD54C7C2AF5CF3A806F722D21E4DD245D848BE6E984818FC6.pygtex,
  4470E1D3F0FDB1A1ECC4348140E206926F722D21E4DD245D848BE6E984818FC6.pygtex,
  404D14BAA9865609F54CB4A0A36F5C476F722D21E4DD245D848BE6E984818FC6.pygtex,
  16F7381E2023A9B120A54854564153516F722D21E4DD245D848BE6E984818FC6.pygtex,
  2E11658E652C01A4FE6FA1AA5722D2E76F722D21E4DD245D848BE6E984818FC6.pygtex,
  0CF6602194D97009CED433F0427766846F722D21E4DD245D848BE6E984818FC6.pygtex,
  236041BD46FD597AEEB549A5C3CE89B06F722D21E4DD245D848BE6E984818FC6.pygtex,
  85225DAD4DACAB3C6824B5E543D85B546F722D21E4DD245D848BE6E984818FC6.pygtex,
  43BE2F60A6DB7BF23ED742E2B13AB6596F722D21E4DD245D848BE6E984818FC6.pygtex,
  43BE2F60A6DB7BF23ED742E2B13AB6596F722D21E4DD245D848BE6E984818FC6.pygtex,
  77DFB1258AD1F0B235A483E6559E86016F722D21E4DD245D848BE6E984818FC6.pygtex,
  B8948AF8FFAAF0917DAB702F8498893D6F722D21E4DD245D848BE6E984818FC6.pygtex,
  D289892B1161379C991EB68211BE47646F722D21E4DD245D848BE6E984818FC6.pygtex,
  08E9DE24AB150D083240557CEC091D536F722D21E4DD245D848BE6E984818FC6.pygtex,
  236041BD46FD597AEEB549A5C3CE89B06F722D21E4DD245D848BE6E984818FC6.pygtex,
  16F7381E2023A9B120A54854564153516F722D21E4DD245D848BE6E984818FC6.pygtex,
  08E9DE24AB150D083240557CEC091D536F722D21E4DD245D848BE6E984818FC6.pygtex,
  236041BD46FD597AEEB549A5C3CE89B06F722D21E4DD245D848BE6E984818FC6.pygtex}
\pgfsyspdfmark {pgfid113}{5873742}{43083089}
\pgfsyspdfmark {pgfid114}{5873742}{30275125}
\pgfsyspdfmark {pgfid115}{5873742}{24677216}
