\relax 
\providecommand\hyper@newdestlabel[2]{}
\providecommand\zref@newlabel[2]{}
\providecommand\HyperFirstAtBeginDocument{\AtBeginDocument}
\HyperFirstAtBeginDocument{\ifx\hyper@anchor\@undefined
\global\let\oldcontentsline\contentsline
\gdef\contentsline#1#2#3#4{\oldcontentsline{#1}{#2}{#3}}
\global\let\oldnewlabel\newlabel
\gdef\newlabel#1#2{\newlabelxx{#1}#2}
\gdef\newlabelxx#1#2#3#4#5#6{\oldnewlabel{#1}{{#2}{#3}}}
\AtEndDocument{\ifx\hyper@anchor\@undefined
\let\contentsline\oldcontentsline
\let\newlabel\oldnewlabel
\fi}
\fi}
\global\let\hyper@last\relax 
\gdef\HyperFirstAtBeginDocument#1{#1}
\providecommand\HyField@AuxAddToFields[1]{}
\providecommand\HyField@AuxAddToCoFields[2]{}
\catcode `:\active 
\catcode `;\active 
\catcode `!\active 
\catcode `?\active 
\@writefile{toc}{\beamer@endinputifotherversion {3.33pt}}
\@writefile{nav}{\beamer@endinputifotherversion {3.33pt}}
\select@language{french}
\@writefile{toc}{\select@language{french}}
\@writefile{lof}{\select@language{french}}
\@writefile{lot}{\select@language{french}}
\@writefile{nav}{\headcommand {\slideentry {0}{0}{1}{1/1}{}{0}}}
\@writefile{nav}{\headcommand {\beamer@framepages {1}{1}}}
\@writefile{nav}{\headcommand {\slideentry {0}{0}{2}{2/2}{}{0}}}
\@writefile{nav}{\headcommand {\beamer@framepages {2}{2}}}
\@writefile{nav}{\headcommand {\slideentry {0}{0}{3}{3/3}{}{0}}}
\@writefile{nav}{\headcommand {\beamer@framepages {3}{3}}}
\@writefile{nav}{\headcommand {\slideentry {0}{0}{4}{4/4}{}{0}}}
\@writefile{nav}{\headcommand {\beamer@framepages {4}{4}}}
\@writefile{nav}{\headcommand {\slideentry {0}{0}{5}{5/5}{}{0}}}
\@writefile{nav}{\headcommand {\beamer@framepages {5}{5}}}
\@writefile{nav}{\headcommand {\slideentry {0}{0}{6}{6/6}{}{0}}}
\@writefile{nav}{\headcommand {\beamer@framepages {6}{6}}}
\@writefile{nav}{\headcommand {\slideentry {0}{0}{7}{7/7}{}{0}}}
\@writefile{nav}{\headcommand {\beamer@framepages {7}{7}}}
\@writefile{nav}{\headcommand {\slideentry {0}{0}{8}{8/8}{}{0}}}
\@writefile{nav}{\headcommand {\beamer@framepages {8}{8}}}
\@writefile{nav}{\headcommand {\slideentry {0}{0}{9}{9/9}{}{0}}}
\@writefile{nav}{\headcommand {\beamer@framepages {9}{9}}}
\@writefile{nav}{\headcommand {\slideentry {0}{0}{10}{10/10}{}{0}}}
\@writefile{nav}{\headcommand {\beamer@framepages {10}{10}}}
\@writefile{nav}{\headcommand {\slideentry {0}{0}{11}{11/11}{}{0}}}
\@writefile{nav}{\headcommand {\beamer@framepages {11}{11}}}
\@writefile{nav}{\headcommand {\slideentry {0}{0}{12}{12/12}{}{0}}}
\@writefile{nav}{\headcommand {\beamer@framepages {12}{12}}}
\@writefile{nav}{\headcommand {\slideentry {0}{0}{13}{13/13}{}{0}}}
\@writefile{nav}{\headcommand {\beamer@framepages {13}{13}}}
\@writefile{nav}{\headcommand {\beamer@partpages {1}{13}}}
\@writefile{nav}{\headcommand {\beamer@subsectionpages {1}{13}}}
\@writefile{nav}{\headcommand {\beamer@sectionpages {1}{13}}}
\@writefile{nav}{\headcommand {\beamer@documentpages {13}}}
\@writefile{nav}{\headcommand {\def \inserttotalframenumber {13}}}
\gdef\minted@oldcachelist{,
  default.pygstyle,
  default-pyg-prefix.pygstyle,
  753474E1388FF8F32F2FB3B8B440AE684618F84F8AD468819163B849BB9D9E53.pygtex,
  9699F21E2B09F9268FCC89DF9940F5614618F84F8AD468819163B849BB9D9E53.pygtex,
  9699F21E2B09F9268FCC89DF9940F5614618F84F8AD468819163B849BB9D9E53.pygtex,
  AB34C75A1CE99F6B9982112C5766C8E04618F84F8AD468819163B849BB9D9E53.pygtex,
  1C2766C0203CA8489F178B9955964C544618F84F8AD468819163B849BB9D9E53.pygtex,
  EDCB5B280A371D1FE22BF3489485E1474618F84F8AD468819163B849BB9D9E53.pygtex,
  16F7381E2023A9B120A54854564153514618F84F8AD468819163B849BB9D9E53.pygtex,
  43BE2F60A6DB7BF23ED742E2B13AB6594618F84F8AD468819163B849BB9D9E53.pygtex,
  236041BD46FD597AEEB549A5C3CE89B04618F84F8AD468819163B849BB9D9E53.pygtex,
  8CBAA05404672815B76F10B786B202074618F84F8AD468819163B849BB9D9E53.pygtex,
  16F7381E2023A9B120A54854564153514618F84F8AD468819163B849BB9D9E53.pygtex,
  43BE2F60A6DB7BF23ED742E2B13AB6594618F84F8AD468819163B849BB9D9E53.pygtex,
  236041BD46FD597AEEB549A5C3CE89B04618F84F8AD468819163B849BB9D9E53.pygtex,
  236041BD46FD597AEEB549A5C3CE89B04618F84F8AD468819163B849BB9D9E53.pygtex,
  1C2766C0203CA8489F178B9955964C544618F84F8AD468819163B849BB9D9E53.pygtex,
  EDCB5B280A371D1FE22BF3489485E1474618F84F8AD468819163B849BB9D9E53.pygtex,
  B6DEC3EED00E3FD3AB30C36C7E9074414618F84F8AD468819163B849BB9D9E53.pygtex,
  2A9443654504945C4F35C8DE1FE415104618F84F8AD468819163B849BB9D9E53.pygtex,
  85225DAD4DACAB3C6824B5E543D85B544618F84F8AD468819163B849BB9D9E53.pygtex,
  C26914F2F5ABB6641CED5BBAA09E65BB4618F84F8AD468819163B849BB9D9E53.pygtex,
  C26914F2F5ABB6641CED5BBAA09E65BB4618F84F8AD468819163B849BB9D9E53.pygtex,
  304D82C0867E556F1B5E676E0D11F5204618F84F8AD468819163B849BB9D9E53.pygtex,
  91E454EBA04C1ACA45D1EF5D17C652854618F84F8AD468819163B849BB9D9E53.pygtex,
  F78FFCB5C1E00AC6DC34B14F9971BF1B4618F84F8AD468819163B849BB9D9E53.pygtex,
  7E7BC2EDEA94DDBAE209E700C00177274618F84F8AD468819163B849BB9D9E53.pygtex,
  F78FFCB5C1E00AC6DC34B14F9971BF1B4618F84F8AD468819163B849BB9D9E53.pygtex,
  8820257FD748C8E8AB44ECF557FFCE8D4618F84F8AD468819163B849BB9D9E53.pygtex,
  F78FFCB5C1E00AC6DC34B14F9971BF1B4618F84F8AD468819163B849BB9D9E53.pygtex,
  2492F2560FF8636FE36360F998E7FC674618F84F8AD468819163B849BB9D9E53.pygtex,
  FE12CFAE8169EE62694D92C05D9E747A4618F84F8AD468819163B849BB9D9E53.pygtex,
  AB227B882EA1F7BD34B006E3875216954618F84F8AD468819163B849BB9D9E53.pygtex,
  202C3576ED239BFE9FD39484D5BA77BB4618F84F8AD468819163B849BB9D9E53.pygtex,
  BB17533185B711BF2E97EFAA8A3943F14618F84F8AD468819163B849BB9D9E53.pygtex,
  25C5D7326F8E29B872F29C0C367A26734618F84F8AD468819163B849BB9D9E53.pygtex,
  2367D0D41BA13117405DFA47FDFF7B3B4618F84F8AD468819163B849BB9D9E53.pygtex,
  79F5C9AEC1851D24424DE38AD3DE6F984618F84F8AD468819163B849BB9D9E53.pygtex,
  304D82C0867E556F1B5E676E0D11F5204618F84F8AD468819163B849BB9D9E53.pygtex,
  D819446EA39EB35E8A0AF22ACC819C654618F84F8AD468819163B849BB9D9E53.pygtex,
  91E454EBA04C1ACA45D1EF5D17C652854618F84F8AD468819163B849BB9D9E53.pygtex,
  4ED2D0E80027EB2B40A6321CCEC42AEE4618F84F8AD468819163B849BB9D9E53.pygtex,
  E2112BC6968B04B1C2F192B238DF84C34618F84F8AD468819163B849BB9D9E53.pygtex,
  43BE2F60A6DB7BF23ED742E2B13AB6594618F84F8AD468819163B849BB9D9E53.pygtex,
  16F7381E2023A9B120A54854564153514618F84F8AD468819163B849BB9D9E53.pygtex,
  6625A07C3DD50CB7453F360DBA967DB74618F84F8AD468819163B849BB9D9E53.pygtex,
  91E454EBA04C1ACA45D1EF5D17C652854618F84F8AD468819163B849BB9D9E53.pygtex,
  304D82C0867E556F1B5E676E0D11F5204618F84F8AD468819163B849BB9D9E53.pygtex,
  B20FCC2397E71AE49E65839A507D0A344618F84F8AD468819163B849BB9D9E53.pygtex,
  C645DEA65BB482E04C8DDA4E0C1DEF224618F84F8AD468819163B849BB9D9E53.pygtex,
  12EE2249892BB39DDF1D527402E29B764618F84F8AD468819163B849BB9D9E53.pygtex,
  3EEE29E366D359C944D49FBB8F606DDB4618F84F8AD468819163B849BB9D9E53.pygtex,
  16F7381E2023A9B120A54854564153514618F84F8AD468819163B849BB9D9E53.pygtex,
  BBE02F946D5455D74616FC9777557C224618F84F8AD468819163B849BB9D9E53.pygtex,
  1B98143DA56C33B3C11F10A36CB10E104618F84F8AD468819163B849BB9D9E53.pygtex,
  BA55721F7EA6FA85E142BF4D17912BCF4618F84F8AD468819163B849BB9D9E53.pygtex,
  09C046B8D55DAF68EBA35AF507580FDE4618F84F8AD468819163B849BB9D9E53.pygtex,
  451C6F6F942EBA07F20DE1721BE740024618F84F8AD468819163B849BB9D9E53.pygtex,
  60B37A5F3CA5109537F0C387106B9BA64618F84F8AD468819163B849BB9D9E53.pygtex,
  C60B5BEF5946B805B96D18C67788B2B54618F84F8AD468819163B849BB9D9E53.pygtex,
  401B30E3B8B5D629635A5C613CDB79194618F84F8AD468819163B849BB9D9E53.pygtex,
  3B5574ACCF0A568C1C9A7AEF2FAF83EA4618F84F8AD468819163B849BB9D9E53.pygtex}
