sequence01 1004 739 695 954 33
sequence02 512 147 138 501 13
sequence03 881 771 779 928 38
sequence04 1473 980 1001 1360 56
sequence05 1557 883 875 1595 49
sequence06 68 196 195 68 4
sequence07 1327 503 516 1424 49
sequence08 459 942 957 475 16
sequence09 706 451 446 710 12
sequence10 881 729 753 898 31
