\relax 
\providecommand\hyper@newdestlabel[2]{}
\providecommand\HyperFirstAtBeginDocument{\AtBeginDocument}
\HyperFirstAtBeginDocument{\ifx\hyper@anchor\@undefined
\global\let\oldcontentsline\contentsline
\gdef\contentsline#1#2#3#4{\oldcontentsline{#1}{#2}{#3}}
\global\let\oldnewlabel\newlabel
\gdef\newlabel#1#2{\newlabelxx{#1}#2}
\gdef\newlabelxx#1#2#3#4#5#6{\oldnewlabel{#1}{{#2}{#3}}}
\AtEndDocument{\ifx\hyper@anchor\@undefined
\let\contentsline\oldcontentsline
\let\newlabel\oldnewlabel
\fi}
\fi}
\global\let\hyper@last\relax 
\gdef\HyperFirstAtBeginDocument#1{#1}
\providecommand\HyField@AuxAddToFields[1]{}
\providecommand\HyField@AuxAddToCoFields[2]{}
\@writefile{toc}{\contentsline {section}{\numberline {1}Single-site statistics}{3}{section.1}}
\@writefile{toc}{\contentsline {subsection}{\numberline {1.1}Basic statistics}{3}{subsection.1.1}}
\@writefile{toc}{\contentsline {paragraph}{\nonumberline Note}{4}{section*.2}}
\@writefile{toc}{\contentsline {subsection}{\numberline {1.2}Weir and Cockerham's \textit  {F}-statistics}{5}{subsection.1.2}}
\@writefile{toc}{\contentsline {paragraph}{\nonumberline Diploid data, one level of structure}{5}{section*.3}}
\@writefile{toc}{\contentsline {paragraph}{\nonumberline Diploid data, two levels of structure}{6}{section*.4}}
\@writefile{toc}{\contentsline {paragraph}{\nonumberline Haploid data, one level of structure}{7}{section*.5}}
\@writefile{toc}{\contentsline {paragraph}{\nonumberline Note}{8}{section*.6}}
\@writefile{toc}{\contentsline {subsection}{\numberline {1.3}Differentiation statistics}{8}{subsection.1.3}}
\@writefile{toc}{\contentsline {subsection}{\numberline {1.4}Allele status}{10}{subsection.1.4}}
\@writefile{toc}{\contentsline {section}{\numberline {2}Multi-site statistics with unphased data}{10}{section.2}}
\@writefile{toc}{\contentsline {subsection}{\numberline {2.1}Basic statistics}{10}{subsection.2.1}}
\@writefile{toc}{\contentsline {subsection}{\numberline {2.2}Neutrality tests without outgroup}{12}{subsection.2.2}}
\@writefile{toc}{\contentsline {paragraph}{\nonumberline Note}{13}{section*.7}}
\@writefile{toc}{\contentsline {subsection}{\numberline {2.3}Neutrality tests with outgroup}{13}{subsection.2.3}}
\@writefile{toc}{\contentsline {paragraph}{\nonumberline Note}{15}{section*.8}}
\@writefile{toc}{\contentsline {subsection}{\numberline {2.4}Paralog divergence}{15}{subsection.2.4}}
\@writefile{toc}{\contentsline {paragraph}{\nonumberline Note}{16}{section*.9}}
\@writefile{toc}{\contentsline {section}{\numberline {3}Multi-site statistics with phased data}{16}{section.3}}
\@writefile{toc}{\contentsline {subsection}{\numberline {3.1}Basic statistics}{16}{subsection.3.1}}
\@writefile{toc}{\contentsline {subsection}{\numberline {3.2}Singleton-based statistics}{17}{subsection.3.2}}
\@writefile{toc}{\contentsline {paragraph}{\nonumberline Note}{17}{section*.10}}
\@writefile{toc}{\contentsline {subsection}{\numberline {3.3}Partition-based statistics}{17}{subsection.3.3}}
\@writefile{toc}{\contentsline {paragraph}{\nonumberline Note}{18}{section*.11}}
\@writefile{toc}{\contentsline {section}{\numberline {4}Haplotype analysis}{18}{section.4}}
\@writefile{toc}{\contentsline {paragraph}{\nonumberline Note}{19}{section*.12}}
\@writefile{toc}{\contentsline {section}{\numberline {5}Linkage disequilibrium analyses}{19}{section.5}}
\@writefile{toc}{\contentsline {subsection}{\numberline {5.1}Pairwise linkage disequilibrium}{20}{subsection.5.1}}
\@writefile{toc}{\contentsline {paragraph}{\nonumberline Note}{20}{section*.13}}
\@writefile{toc}{\contentsline {subsection}{\numberline {5.2}Linkage disequilibrium matrix}{21}{subsection.5.2}}
\@writefile{toc}{\contentsline {paragraph}{\nonumberline Note}{22}{section*.14}}
\@writefile{toc}{\contentsline {subsection}{\numberline {5.3}$R_{min}$ and $\mathaccentV {bar}016{r}_d$}{22}{subsection.5.3}}
\@writefile{toc}{\contentsline {paragraph}{\nonumberline Note}{22}{section*.15}}
\@writefile{toc}{\contentsline {paragraph}{\nonumberline Note}{23}{section*.16}}
\@writefile{toc}{\contentsline {section}{\numberline {6}Extended haplotype heterozygosity}{23}{section.6}}
\@writefile{toc}{\contentsline {subsection}{\numberline {6.1}EHH with phased data}{23}{subsection.6.1}}
\@writefile{toc}{\contentsline {paragraph}{\nonumberline Variables}{23}{section*.17}}
\@writefile{toc}{\contentsline {paragraph}{\nonumberline Accessory statistics}{24}{section*.18}}
\@writefile{toc}{\contentsline {paragraph}{\nonumberline EHH statistics}{25}{section*.19}}
\@writefile{toc}{\contentsline {paragraph}{\nonumberline Computation}{26}{section*.20}}
\@writefile{toc}{\contentsline {subsection}{\numberline {6.2}EHH with unphased data}{27}{subsection.6.2}}
\@writefile{toc}{\contentsline {paragraph}{\nonumberline Variables}{27}{section*.21}}
\@writefile{toc}{\contentsline {paragraph}{\nonumberline Accessory statistics}{28}{section*.22}}
\@writefile{toc}{\contentsline {paragraph}{\nonumberline EHHG statistics}{28}{section*.23}}
\@writefile{toc}{\contentsline {paragraph}{\nonumberline Computation}{29}{section*.24}}
\@writefile{toc}{\contentsline {section}{\numberline {7}Coding site analysis}{29}{section.7}}
\@writefile{toc}{\contentsline {section}{\numberline {8}References}{30}{section.8}}
